<?xml version="1.0" encoding="UTF-8" standalone="no" ?>
<COLLADA xmlns="http://www.collada.org/2005/11/COLLADASchema" version="1.4.1">
    <asset>
        <contributor>
            <authoring_tool>SketchUp 17.0.18898</authoring_tool>
        </contributor>
        <created>2016-11-15T21:28:01Z</created>
        <modified>2016-11-15T21:28:01Z</modified>
        <unit meter="0.0254000" name="inch" />
        <up_axis>Z_UP</up_axis>
    </asset>
    <library_cameras>
        <camera id="ID1" name="skp_camera_Last_Saved_SketchUp_View">
            <optics>
                <technique_common>
                    <perspective>
                        <yfov>35.0000000</yfov>
                        <aspect_ratio>0.0000000</aspect_ratio>
                        <znear>1.0000000</znear>
                        <zfar>1000.0000000</zfar>
                    </perspective>
                </technique_common>
            </optics>
        </camera>
    </library_cameras>
    <library_visual_scenes>
        <visual_scene id="ID2">
            <node name="SketchUp">
                <instance_geometry url="#ID3">
                    <bind_material>
                        <technique_common>
                            <instance_material symbol="Material2" target="#ID4">
                                <bind_vertex_input semantic="UVSET0" input_semantic="TEXCOORD" input_set="0" />
                            </instance_material>
                            <instance_material symbol="Material3" target="#ID9">
                                <bind_vertex_input semantic="UVSET0" input_semantic="TEXCOORD" input_set="0" />
                            </instance_material>
                        </technique_common>
                    </bind_material>
                </instance_geometry>
                <instance_geometry url="#ID18">
                    <bind_material>
                        <technique_common>
                            <instance_material symbol="Material2" target="#ID4">
                                <bind_vertex_input semantic="UVSET0" input_semantic="TEXCOORD" input_set="0" />
                            </instance_material>
                            <instance_material symbol="Material3" target="#ID22">
                                <bind_vertex_input semantic="UVSET0" input_semantic="TEXCOORD" input_set="0" />
                            </instance_material>
                        </technique_common>
                    </bind_material>
                </instance_geometry>
                <instance_geometry url="#ID31">
                    <bind_material>
                        <technique_common>
                            <instance_material symbol="Material2" target="#ID4">
                                <bind_vertex_input semantic="UVSET0" input_semantic="TEXCOORD" input_set="0" />
                            </instance_material>
                            <instance_material symbol="Material3" target="#ID35">
                                <bind_vertex_input semantic="UVSET0" input_semantic="TEXCOORD" input_set="0" />
                            </instance_material>
                        </technique_common>
                    </bind_material>
                </instance_geometry>
                <instance_geometry url="#ID44">
                    <bind_material>
                        <technique_common>
                            <instance_material symbol="Material2" target="#ID4">
                                <bind_vertex_input semantic="UVSET0" input_semantic="TEXCOORD" input_set="0" />
                            </instance_material>
                            <instance_material symbol="Material3" target="#ID48">
                                <bind_vertex_input semantic="UVSET0" input_semantic="TEXCOORD" input_set="0" />
                            </instance_material>
                        </technique_common>
                    </bind_material>
                </instance_geometry>
                <instance_geometry url="#ID57">
                    <bind_material>
                        <technique_common>
                            <instance_material symbol="Material2" target="#ID4">
                                <bind_vertex_input semantic="UVSET0" input_semantic="TEXCOORD" input_set="0" />
                            </instance_material>
                            <instance_material symbol="Material3" target="#ID35">
                                <bind_vertex_input semantic="UVSET0" input_semantic="TEXCOORD" input_set="0" />
                            </instance_material>
                        </technique_common>
                    </bind_material>
                </instance_geometry>
                <instance_geometry url="#ID65">
                    <bind_material>
                        <technique_common>
                            <instance_material symbol="Material2" target="#ID4">
                                <bind_vertex_input semantic="UVSET0" input_semantic="TEXCOORD" input_set="0" />
                            </instance_material>
                            <instance_material symbol="Material3" target="#ID48">
                                <bind_vertex_input semantic="UVSET0" input_semantic="TEXCOORD" input_set="0" />
                            </instance_material>
                        </technique_common>
                    </bind_material>
                </instance_geometry>
                <instance_geometry url="#ID73">
                    <bind_material>
                        <technique_common>
                            <instance_material symbol="Material2" target="#ID4">
                                <bind_vertex_input semantic="UVSET0" input_semantic="TEXCOORD" input_set="0" />
                            </instance_material>
                            <instance_material symbol="Material3" target="#ID48">
                                <bind_vertex_input semantic="UVSET0" input_semantic="TEXCOORD" input_set="0" />
                            </instance_material>
                        </technique_common>
                    </bind_material>
                </instance_geometry>
                <instance_geometry url="#ID81">
                    <bind_material>
                        <technique_common>
                            <instance_material symbol="Material2" target="#ID4">
                                <bind_vertex_input semantic="UVSET0" input_semantic="TEXCOORD" input_set="0" />
                            </instance_material>
                            <instance_material symbol="Material3" target="#ID48">
                                <bind_vertex_input semantic="UVSET0" input_semantic="TEXCOORD" input_set="0" />
                            </instance_material>
                        </technique_common>
                    </bind_material>
                </instance_geometry>
                <node name="skp_camera_Last_Saved_SketchUp_View">
                    <matrix>0.2118955 -0.6176946 0.7573332 938.0932007 0.9772924 0.1339279 -0.1642042 -156.3107910 0.0000000 0.7749301 0.6320469 669.1813965 0.0000000 0.0000000 0.0000000 1.0000000</matrix>
                    <instance_camera url="#ID1" />
                </node>
            </node>
        </visual_scene>
    </library_visual_scenes>
    <library_geometries>
        <geometry id="ID3">
            <mesh>
                <source id="ID6">
                    <float_array id="ID15" count="30">-236.2204725 236.2204723 2.6643332 236.2204724 236.2204724 0.0000000 -236.2204725 236.2204724 0.0000000 236.2204724 236.2204720 9.9061678 -236.2204725 236.2204720 9.9061678 -236.2204725 236.2204720 9.9061678 -236.2204725 236.2204723 2.6643332 236.2204724 236.2204720 9.9061678 236.2204724 236.2204724 0.0000000 -236.2204725 236.2204724 0.0000000</float_array>
                    <technique_common>
                        <accessor count="10" source="#ID15" stride="3">
                            <param name="X" type="float" />
                            <param name="Y" type="float" />
                            <param name="Z" type="float" />
                        </accessor>
                    </technique_common>
                </source>
                <source id="ID7">
                    <float_array id="ID16" count="30">0.0000000 1.0000000 0.0000000 0.0000000 1.0000000 0.0000000 0.0000000 1.0000000 0.0000000 0.0000000 1.0000000 0.0000000 0.0000000 1.0000000 0.0000000 -0.0000000 -1.0000000 -0.0000000 -0.0000000 -1.0000000 -0.0000000 -0.0000000 -1.0000000 -0.0000000 -0.0000000 -1.0000000 -0.0000000 -0.0000000 -1.0000000 -0.0000000</float_array>
                    <technique_common>
                        <accessor count="10" source="#ID16" stride="3">
                            <param name="X" type="float" />
                            <param name="Y" type="float" />
                            <param name="Z" type="float" />
                        </accessor>
                    </technique_common>
                </source>
                <source id="ID14">
                    <float_array id="ID17" count="10">1.0000000 1.0000000 1.0000000 0.2689570 0.0000000 1.0000000 0.0000000 0.0000000 1.0000000 0.0000000</float_array>
                    <technique_common>
                        <accessor count="5" source="#ID17" stride="2">
                            <param name="S" type="float" />
                            <param name="T" type="float" />
                        </accessor>
                    </technique_common>
                </source>
                <vertices id="ID8">
                    <input semantic="POSITION" source="#ID6" />
                    <input semantic="NORMAL" source="#ID7" />
                </vertices>
                <triangles count="3" material="Material2">
                    <input offset="0" semantic="VERTEX" source="#ID8" />
                    <p>0 1 2 1 0 3 3 0 4</p>
                </triangles>
                <triangles count="3" material="Material3">
                    <input offset="0" semantic="VERTEX" source="#ID8" />
                    <input offset="1" semantic="TEXCOORD" source="#ID14" />
                    <p>5 0 6 1 7 2 7 2 6 1 8 3 9 4 8 3 6 1</p>
                </triangles>
            </mesh>
        </geometry>
        <geometry id="ID18">
            <mesh>
                <source id="ID19">
                    <float_array id="ID28" count="24">287.3830708 -287.3830704 -10.9238157 -287.3830709 287.3830713 -10.9238142 -287.3830709 -287.3830704 -10.9238157 287.3830708 287.3830713 -10.9238142 287.3830708 287.3830713 -10.9238142 287.3830708 -287.3830704 -10.9238157 -287.3830709 287.3830713 -10.9238142 -287.3830709 -287.3830704 -10.9238157</float_array>
                    <technique_common>
                        <accessor count="8" source="#ID28" stride="3">
                            <param name="X" type="float" />
                            <param name="Y" type="float" />
                            <param name="Z" type="float" />
                        </accessor>
                    </technique_common>
                </source>
                <source id="ID20">
                    <float_array id="ID29" count="24">0.0000000 -0.0000000 1.0000000 0.0000000 -0.0000000 1.0000000 0.0000000 -0.0000000 1.0000000 0.0000000 -0.0000000 1.0000000 -0.0000000 0.0000000 -1.0000000 -0.0000000 0.0000000 -1.0000000 -0.0000000 0.0000000 -1.0000000 -0.0000000 0.0000000 -1.0000000</float_array>
                    <technique_common>
                        <accessor count="8" source="#ID29" stride="3">
                            <param name="X" type="float" />
                            <param name="Y" type="float" />
                            <param name="Z" type="float" />
                        </accessor>
                    </technique_common>
                </source>
                <source id="ID27">
                    <float_array id="ID30" count="8">1.0000000 1.0000000 1.0000000 -0.0000000 0.0000000 1.0000000 0.0000000 -0.0000000</float_array>
                    <technique_common>
                        <accessor count="4" source="#ID30" stride="2">
                            <param name="S" type="float" />
                            <param name="T" type="float" />
                        </accessor>
                    </technique_common>
                </source>
                <vertices id="ID21">
                    <input semantic="POSITION" source="#ID19" />
                    <input semantic="NORMAL" source="#ID20" />
                </vertices>
                <triangles count="2" material="Material2">
                    <input offset="0" semantic="VERTEX" source="#ID21" />
                    <p>0 1 2 1 0 3</p>
                </triangles>
                <triangles count="2" material="Material3">
                    <input offset="0" semantic="VERTEX" source="#ID21" />
                    <input offset="1" semantic="TEXCOORD" source="#ID27" />
                    <p>4 0 5 1 6 2 7 3 6 2 5 1</p>
                </triangles>
            </mesh>
        </geometry>
        <geometry id="ID31">
            <mesh>
                <source id="ID32">
                    <float_array id="ID41" count="96">287.3830708 287.3830704 9.9061701 -287.3830709 287.3830713 -10.9238142 287.3830708 287.3830713 -10.9238142 -287.3830709 287.3830704 9.9061701 -287.3830709 287.3830704 9.9061701 287.3830708 287.3830704 9.9061701 -287.3830709 287.3830713 -10.9238142 287.3830708 287.3830713 -10.9238142 287.3830708 287.3830704 9.9061701 287.3830708 -287.3830704 -10.9238157 287.3830708 -287.3830713 9.9061686 287.3830708 287.3830713 -10.9238142 287.3830708 287.3830713 -10.9238142 287.3830708 287.3830704 9.9061701 287.3830708 -287.3830704 -10.9238157 287.3830708 -287.3830713 9.9061686 -287.3830709 -287.3830704 -10.9238157 -287.3830709 287.3830704 9.9061701 -287.3830709 -287.3830713 9.9061686 -287.3830709 287.3830713 -10.9238142 -287.3830709 287.3830713 -10.9238142 -287.3830709 -287.3830704 -10.9238157 -287.3830709 287.3830704 9.9061701 -287.3830709 -287.3830713 9.9061686 -287.3830709 -287.3830713 9.9061686 287.3830708 -287.3830704 -10.9238157 -287.3830709 -287.3830704 -10.9238157 287.3830708 -287.3830713 9.9061686 287.3830708 -287.3830713 9.9061686 -287.3830709 -287.3830713 9.9061686 287.3830708 -287.3830704 -10.9238157 -287.3830709 -287.3830704 -10.9238157</float_array>
                    <technique_common>
                        <accessor count="32" source="#ID41" stride="3">
                            <param name="X" type="float" />
                            <param name="Y" type="float" />
                            <param name="Z" type="float" />
                        </accessor>
                    </technique_common>
                </source>
                <source id="ID33">
                    <float_array id="ID42" count="96">0.0000000 -1.0000000 -0.0000000 0.0000000 -1.0000000 -0.0000000 0.0000000 -1.0000000 -0.0000000 0.0000000 -1.0000000 -0.0000000 -0.0000000 1.0000000 0.0000000 -0.0000000 1.0000000 0.0000000 -0.0000000 1.0000000 0.0000000 -0.0000000 1.0000000 0.0000000 -1.0000000 0.0000000 0.0000000 -1.0000000 0.0000000 0.0000000 -1.0000000 0.0000000 0.0000000 -1.0000000 0.0000000 0.0000000 1.0000000 -0.0000000 -0.0000000 1.0000000 -0.0000000 -0.0000000 1.0000000 -0.0000000 -0.0000000 1.0000000 -0.0000000 -0.0000000 1.0000000 0.0000000 0.0000000 1.0000000 0.0000000 0.0000000 1.0000000 0.0000000 0.0000000 1.0000000 0.0000000 0.0000000 -1.0000000 -0.0000000 -0.0000000 -1.0000000 -0.0000000 -0.0000000 -1.0000000 -0.0000000 -0.0000000 -1.0000000 -0.0000000 -0.0000000 -0.0000000 1.0000000 0.0000000 -0.0000000 1.0000000 0.0000000 -0.0000000 1.0000000 0.0000000 -0.0000000 1.0000000 0.0000000 0.0000000 -1.0000000 -0.0000000 0.0000000 -1.0000000 -0.0000000 0.0000000 -1.0000000 -0.0000000 0.0000000 -1.0000000 -0.0000000</float_array>
                    <technique_common>
                        <accessor count="32" source="#ID42" stride="3">
                            <param name="X" type="float" />
                            <param name="Y" type="float" />
                            <param name="Z" type="float" />
                        </accessor>
                    </technique_common>
                </source>
                <source id="ID40">
                    <float_array id="ID43" count="32">6.0419499 4.9184416 6.0439952 6.0047930 6.0419890 4.9578435 6.0440343 6.0441949 6.0440343 6.0441949 6.0439952 6.0047930 4.9568110 6.0452720 4.9567719 6.0058701 5.9592090 5.9988531 5.9602860 7.0858950 5.9986042 5.9988140 5.9996812 7.0858560 5.0191156 6.1068283 4.9850999 5.0612231 4.9903957 5.9858114 4.9563800 4.9402062</float_array>
                    <technique_common>
                        <accessor count="16" source="#ID43" stride="2">
                            <param name="S" type="float" />
                            <param name="T" type="float" />
                        </accessor>
                    </technique_common>
                </source>
                <vertices id="ID34">
                    <input semantic="POSITION" source="#ID32" />
                    <input semantic="NORMAL" source="#ID33" />
                </vertices>
                <triangles count="8" material="Material2">
                    <input offset="0" semantic="VERTEX" source="#ID34" />
                    <p>0 1 2 1 0 3 8 9 10 9 8 11 16 17 18 17 16 19 24 25 26 25 24 27</p>
                </triangles>
                <triangles count="8" material="Material3">
                    <input offset="0" semantic="VERTEX" source="#ID34" />
                    <input offset="1" semantic="TEXCOORD" source="#ID40" />
                    <p>4 0 5 1 6 2 7 3 6 2 5 1 12 4 13 5 14 6 15 7 14 6 13 5 20 8 21 9 22 10 23 11 22 10 21 9 28 12 29 13 30 14 31 15 30 14 29 13</p>
                </triangles>
            </mesh>
        </geometry>
        <geometry id="ID44">
            <mesh>
                <source id="ID45">
                    <float_array id="ID54" count="48">-287.3830709 287.3830704 9.9061701 -281.6381890 281.6381885 9.9061698 -287.3830709 -287.3830713 9.9061686 287.3830708 287.3830704 9.9061701 281.6381889 281.6381885 9.9061698 281.6381889 -281.6381894 9.9061688 -281.6381890 -281.6381894 9.9061688 287.3830708 -287.3830713 9.9061686 287.3830708 287.3830704 9.9061701 281.6381889 -281.6381894 9.9061688 287.3830708 -287.3830713 9.9061686 -281.6381890 -281.6381894 9.9061688 -281.6381890 281.6381885 9.9061698 -287.3830709 -287.3830713 9.9061686 281.6381889 281.6381885 9.9061698 -287.3830709 287.3830704 9.9061701</float_array>
                    <technique_common>
                        <accessor count="16" source="#ID54" stride="3">
                            <param name="X" type="float" />
                            <param name="Y" type="float" />
                            <param name="Z" type="float" />
                        </accessor>
                    </technique_common>
                </source>
                <source id="ID46">
                    <float_array id="ID55" count="48">0.0000000 0.0000000 -1.0000000 0.0000000 0.0000000 -1.0000000 0.0000000 0.0000000 -1.0000000 0.0000000 0.0000000 -1.0000000 0.0000000 0.0000000 -1.0000000 0.0000000 0.0000000 -1.0000000 0.0000000 0.0000000 -1.0000000 0.0000000 0.0000000 -1.0000000 -0.0000000 -0.0000000 1.0000000 -0.0000000 -0.0000000 1.0000000 -0.0000000 -0.0000000 1.0000000 -0.0000000 -0.0000000 1.0000000 -0.0000000 -0.0000000 1.0000000 -0.0000000 -0.0000000 1.0000000 -0.0000000 -0.0000000 1.0000000 -0.0000000 -0.0000000 1.0000000</float_array>
                    <technique_common>
                        <accessor count="16" source="#ID55" stride="3">
                            <param name="X" type="float" />
                            <param name="Y" type="float" />
                            <param name="Z" type="float" />
                        </accessor>
                    </technique_common>
                </source>
                <source id="ID53">
                    <float_array id="ID56" count="16">-0.0000036 0.9999964 0.0099916 0.0099916 -0.0000036 -0.0000036 0.9900048 0.0099951 0.9900048 0.9900048 1.0000000 -0.0000000 0.0099916 0.9900013 1.0000000 1.0000000</float_array>
                    <technique_common>
                        <accessor count="8" source="#ID56" stride="2">
                            <param name="S" type="float" />
                            <param name="T" type="float" />
                        </accessor>
                    </technique_common>
                </source>
                <vertices id="ID47">
                    <input semantic="POSITION" source="#ID45" />
                    <input semantic="NORMAL" source="#ID46" />
                </vertices>
                <triangles count="8" material="Material2">
                    <input offset="0" semantic="VERTEX" source="#ID47" />
                    <p>0 1 2 1 0 3 1 3 4 4 3 5 2 6 7 6 2 1 7 6 5 7 5 3</p>
                </triangles>
                <triangles count="8" material="Material3">
                    <input offset="0" semantic="VERTEX" source="#ID47" />
                    <input offset="1" semantic="TEXCOORD" source="#ID53" />
                    <p>8 0 9 1 10 2 9 1 11 3 10 2 12 4 13 5 11 3 10 2 11 3 13 5 9 1 8 0 14 6 14 6 8 0 12 4 8 0 15 7 12 4 13 5 12 4 15 7</p>
                </triangles>
            </mesh>
        </geometry>
        <geometry id="ID57">
            <mesh>
                <source id="ID58">
                    <float_array id="ID62" count="84">-236.2204725 236.2204724 0.0000000 -236.2204725 -177.1653543 0.0000000 -236.2204725 236.2204723 2.6643332 -236.2204725 236.2204723 2.6643332 -236.2204725 -177.1653543 0.0000000 -236.2204725 236.2204724 0.0000000 -236.2204725 236.2204720 9.9061678 -236.2204725 -236.2204724 0.0000000 -236.2204725 -236.2204729 9.9061708 -236.2204725 236.2204720 9.9061678 -236.2204725 -236.2204724 0.0000000 -236.2204725 -236.2204729 9.9061708 236.2204724 -236.2204729 9.9061708 -236.2204725 -236.2204724 0.0000000 236.2204724 -236.2204724 0.0000000 -236.2204725 -236.2204729 9.9061708 -236.2204725 -236.2204729 9.9061708 236.2204724 -236.2204729 9.9061708 -236.2204725 -236.2204724 0.0000000 236.2204724 -236.2204724 0.0000000 236.2204724 -236.2204724 0.0000000 236.2204724 236.2204720 9.9061678 236.2204724 -236.2204729 9.9061708 236.2204724 236.2204724 0.0000000 236.2204724 236.2204724 0.0000000 236.2204724 -236.2204724 0.0000000 236.2204724 236.2204720 9.9061678 236.2204724 -236.2204729 9.9061708</float_array>
                    <technique_common>
                        <accessor count="28" source="#ID62" stride="3">
                            <param name="X" type="float" />
                            <param name="Y" type="float" />
                            <param name="Z" type="float" />
                        </accessor>
                    </technique_common>
                </source>
                <source id="ID59">
                    <float_array id="ID63" count="84">-1.0000000 0.0000000 0.0000000 -1.0000000 0.0000000 0.0000000 -1.0000000 0.0000000 0.0000000 1.0000000 -0.0000000 -0.0000000 1.0000000 -0.0000000 -0.0000000 1.0000000 -0.0000000 -0.0000000 -1.0000000 0.0000000 0.0000000 -1.0000000 0.0000000 0.0000000 -1.0000000 0.0000000 0.0000000 1.0000000 -0.0000000 -0.0000000 1.0000000 -0.0000000 -0.0000000 1.0000000 -0.0000000 -0.0000000 0.0000000 -1.0000000 -0.0000001 0.0000000 -1.0000000 -0.0000001 0.0000000 -1.0000000 -0.0000001 0.0000000 -1.0000000 -0.0000001 -0.0000000 1.0000000 0.0000001 -0.0000000 1.0000000 0.0000001 -0.0000000 1.0000000 0.0000001 -0.0000000 1.0000000 0.0000001 1.0000000 -0.0000000 -0.0000000 1.0000000 -0.0000000 -0.0000000 1.0000000 -0.0000000 -0.0000000 1.0000000 -0.0000000 -0.0000000 -1.0000000 0.0000000 0.0000000 -1.0000000 0.0000000 0.0000000 -1.0000000 0.0000000 0.0000000 -1.0000000 0.0000000 0.0000000</float_array>
                    <technique_common>
                        <accessor count="28" source="#ID63" stride="3">
                            <param name="X" type="float" />
                            <param name="Y" type="float" />
                            <param name="Z" type="float" />
                        </accessor>
                    </technique_common>
                </source>
                <source id="ID61">
                    <float_array id="ID64" count="32">3.0004623 -0.0066710 4.0498596 -0.0038525 3.0005240 -0.0134341 3.0004604 -0.0066710 2.9999979 0.0000000 4.0499677 0.0004563 4.1998731 0.0018251 4.1992404 0.0109504 2.5647960 -0.0301733 2.9999996 0.0000000 2.5654286 -0.0392986 3.0006323 -0.0091253 4.1998764 0.0018250 3.0006329 -0.0091254 4.1992436 0.0109505 3.0000001 0.0000001</float_array>
                    <technique_common>
                        <accessor count="16" source="#ID64" stride="2">
                            <param name="S" type="float" />
                            <param name="T" type="float" />
                        </accessor>
                    </technique_common>
                </source>
                <vertices id="ID60">
                    <input semantic="POSITION" source="#ID58" />
                    <input semantic="NORMAL" source="#ID59" />
                </vertices>
                <triangles count="8" material="Material2">
                    <input offset="0" semantic="VERTEX" source="#ID60" />
                    <p>0 1 2 6 7 8 7 6 1 1 6 2 12 13 14 13 12 15 20 21 22 21 20 23</p>
                </triangles>
                <triangles count="8" material="Material3">
                    <input offset="0" semantic="VERTEX" source="#ID60" />
                    <input offset="1" semantic="TEXCOORD" source="#ID61" />
                    <p>3 0 4 1 5 2 3 3 9 4 4 5 4 5 9 4 10 6 11 7 10 6 9 4 16 8 17 9 18 10 19 11 18 10 17 9 24 12 25 13 26 14 27 15 26 14 25 13</p>
                </triangles>
            </mesh>
        </geometry>
        <geometry id="ID65">
            <mesh>
                <source id="ID66">
                    <float_array id="ID70" count="30">236.2204724 236.2204724 0.0000000 -236.2204725 -177.1653543 0.0000000 -236.2204725 236.2204724 0.0000000 -236.2204725 -236.2204724 0.0000000 236.2204724 -236.2204724 0.0000000 236.2204724 -236.2204724 0.0000000 236.2204724 236.2204724 0.0000000 -236.2204725 -236.2204724 0.0000000 -236.2204725 -177.1653543 0.0000000 -236.2204725 236.2204724 0.0000000</float_array>
                    <technique_common>
                        <accessor count="10" source="#ID70" stride="3">
                            <param name="X" type="float" />
                            <param name="Y" type="float" />
                            <param name="Z" type="float" />
                        </accessor>
                    </technique_common>
                </source>
                <source id="ID67">
                    <float_array id="ID71" count="30">0.0000000 0.0000000 -1.0000000 0.0000000 0.0000000 -1.0000000 0.0000000 0.0000000 -1.0000000 0.0000000 0.0000000 -1.0000000 0.0000000 0.0000000 -1.0000000 -0.0000000 -0.0000000 1.0000000 -0.0000000 -0.0000000 1.0000000 -0.0000000 -0.0000000 1.0000000 -0.0000000 -0.0000000 1.0000000 -0.0000000 -0.0000000 1.0000000</float_array>
                    <technique_common>
                        <accessor count="10" source="#ID71" stride="3">
                            <param name="X" type="float" />
                            <param name="Y" type="float" />
                            <param name="Z" type="float" />
                        </accessor>
                    </technique_common>
                </source>
                <source id="ID69">
                    <float_array id="ID72" count="10">0.0890148 0.0890143 0.0890148 0.9109855 0.9109852 0.0890143 0.9109852 0.1917607 0.9109852 0.9109855</float_array>
                    <technique_common>
                        <accessor count="5" source="#ID72" stride="2">
                            <param name="S" type="float" />
                            <param name="T" type="float" />
                        </accessor>
                    </technique_common>
                </source>
                <vertices id="ID68">
                    <input semantic="POSITION" source="#ID66" />
                    <input semantic="NORMAL" source="#ID67" />
                </vertices>
                <triangles count="3" material="Material2">
                    <input offset="0" semantic="VERTEX" source="#ID68" />
                    <p>0 1 2 1 0 3 3 0 4</p>
                </triangles>
                <triangles count="3" material="Material3">
                    <input offset="0" semantic="VERTEX" source="#ID68" />
                    <input offset="1" semantic="TEXCOORD" source="#ID69" />
                    <p>5 0 6 1 7 2 7 2 6 1 8 3 9 4 8 3 6 1</p>
                </triangles>
            </mesh>
        </geometry>
        <geometry id="ID73">
            <mesh>
                <source id="ID74">
                    <float_array id="ID78" count="48">-242.8446457 242.8446452 9.9061681 -236.2204725 236.2204720 9.9061678 -242.8446457 -242.8446461 9.9061705 242.8446456 242.8446452 9.9061681 236.2204724 236.2204720 9.9061678 236.2204724 -236.2204729 9.9061708 -236.2204725 -236.2204729 9.9061708 242.8446456 -242.8446461 9.9061705 242.8446456 242.8446452 9.9061681 236.2204724 -236.2204729 9.9061708 242.8446456 -242.8446461 9.9061705 -236.2204725 -236.2204729 9.9061708 -236.2204725 236.2204720 9.9061678 -242.8446457 -242.8446461 9.9061705 236.2204724 236.2204720 9.9061678 -242.8446457 242.8446452 9.9061681</float_array>
                    <technique_common>
                        <accessor count="16" source="#ID78" stride="3">
                            <param name="X" type="float" />
                            <param name="Y" type="float" />
                            <param name="Z" type="float" />
                        </accessor>
                    </technique_common>
                </source>
                <source id="ID75">
                    <float_array id="ID79" count="48">0.0000000 -0.0000000 -1.0000000 0.0000000 -0.0000000 -1.0000000 0.0000000 -0.0000000 -1.0000000 0.0000000 -0.0000000 -1.0000000 0.0000000 -0.0000000 -1.0000000 0.0000000 -0.0000000 -1.0000000 0.0000000 -0.0000000 -1.0000000 0.0000000 -0.0000000 -1.0000000 -0.0000000 0.0000000 1.0000000 -0.0000000 0.0000000 1.0000000 -0.0000000 0.0000000 1.0000000 -0.0000000 0.0000000 1.0000000 -0.0000000 0.0000000 1.0000000 -0.0000000 0.0000000 1.0000000 -0.0000000 0.0000000 1.0000000 -0.0000000 0.0000000 1.0000000</float_array>
                    <technique_common>
                        <accessor count="16" source="#ID79" stride="3">
                            <param name="X" type="float" />
                            <param name="Y" type="float" />
                            <param name="Z" type="float" />
                        </accessor>
                    </technique_common>
                </source>
                <source id="ID77">
                    <float_array id="ID80" count="16">0.0774896 0.9225104 0.0890139 0.0890139 0.0774889 0.0774889 0.9109847 0.0890139 0.9109854 0.9109854 0.9225097 0.0774889 0.0890146 0.9109854 0.9225104 0.9225104</float_array>
                    <technique_common>
                        <accessor count="8" source="#ID80" stride="2">
                            <param name="S" type="float" />
                            <param name="T" type="float" />
                        </accessor>
                    </technique_common>
                </source>
                <vertices id="ID76">
                    <input semantic="POSITION" source="#ID74" />
                    <input semantic="NORMAL" source="#ID75" />
                </vertices>
                <triangles count="8" material="Material2">
                    <input offset="0" semantic="VERTEX" source="#ID76" />
                    <p>0 1 2 1 0 3 1 3 4 4 3 5 2 6 7 6 2 1 7 6 5 7 5 3</p>
                </triangles>
                <triangles count="8" material="Material3">
                    <input offset="0" semantic="VERTEX" source="#ID76" />
                    <input offset="1" semantic="TEXCOORD" source="#ID77" />
                    <p>8 0 9 1 10 2 9 1 11 3 10 2 12 4 13 5 11 3 10 2 11 3 13 5 9 1 8 0 14 6 14 6 8 0 12 4 8 0 15 7 12 4 13 5 12 4 15 7</p>
                </triangles>
            </mesh>
        </geometry>
        <geometry id="ID81">
            <mesh>
                <source id="ID82">
                    <float_array id="ID86" count="48">-281.6381890 281.6381885 9.9061698 -242.8446457 242.8446452 9.9061681 -281.6381890 -281.6381894 9.9061688 281.6381889 281.6381885 9.9061698 242.8446456 242.8446452 9.9061681 242.8446456 -242.8446461 9.9061705 -242.8446457 -242.8446461 9.9061705 281.6381889 -281.6381894 9.9061688 281.6381889 281.6381885 9.9061698 242.8446456 -242.8446461 9.9061705 281.6381889 -281.6381894 9.9061688 -242.8446457 -242.8446461 9.9061705 -242.8446457 242.8446452 9.9061681 -281.6381890 -281.6381894 9.9061688 242.8446456 242.8446452 9.9061681 -281.6381890 281.6381885 9.9061698</float_array>
                    <technique_common>
                        <accessor count="16" source="#ID86" stride="3">
                            <param name="X" type="float" />
                            <param name="Y" type="float" />
                            <param name="Z" type="float" />
                        </accessor>
                    </technique_common>
                </source>
                <source id="ID83">
                    <float_array id="ID87" count="48">0.0000000 0.0000000 -1.0000000 0.0000000 0.0000000 -1.0000000 0.0000000 0.0000000 -1.0000000 0.0000000 0.0000000 -1.0000000 0.0000000 0.0000000 -1.0000000 0.0000000 0.0000000 -1.0000000 0.0000000 0.0000000 -1.0000000 0.0000000 0.0000000 -1.0000000 -0.0000000 -0.0000000 1.0000000 -0.0000000 -0.0000000 1.0000000 -0.0000000 -0.0000000 1.0000000 -0.0000000 -0.0000000 1.0000000 -0.0000000 -0.0000000 1.0000000 -0.0000000 -0.0000000 1.0000000 -0.0000000 -0.0000000 1.0000000 -0.0000000 -0.0000000 1.0000000</float_array>
                    <technique_common>
                        <accessor count="16" source="#ID87" stride="3">
                            <param name="X" type="float" />
                            <param name="Y" type="float" />
                            <param name="Z" type="float" />
                        </accessor>
                    </technique_common>
                </source>
                <source id="ID85">
                    <float_array id="ID88" count="16">0.0099952 0.9900048 0.0774907 0.0774907 0.0099963 0.0099963 0.9225114 0.0774907 0.9225104 0.9225104 0.9900059 0.0099963 0.0774898 0.9225104 0.9900048 0.9900048</float_array>
                    <technique_common>
                        <accessor count="8" source="#ID88" stride="2">
                            <param name="S" type="float" />
                            <param name="T" type="float" />
                        </accessor>
                    </technique_common>
                </source>
                <vertices id="ID84">
                    <input semantic="POSITION" source="#ID82" />
                    <input semantic="NORMAL" source="#ID83" />
                </vertices>
                <triangles count="8" material="Material2">
                    <input offset="0" semantic="VERTEX" source="#ID84" />
                    <p>0 1 2 1 0 3 1 3 4 4 3 5 2 6 7 6 2 1 7 6 5 7 5 3</p>
                </triangles>
                <triangles count="8" material="Material3">
                    <input offset="0" semantic="VERTEX" source="#ID84" />
                    <input offset="1" semantic="TEXCOORD" source="#ID85" />
                    <p>8 0 9 1 10 2 9 1 11 3 10 2 12 4 13 5 11 3 10 2 11 3 13 5 9 1 8 0 14 6 14 6 8 0 12 4 8 0 15 7 12 4 13 5 12 4 15 7</p>
                </triangles>
            </mesh>
        </geometry>
    </library_geometries>
    <library_materials>
        <material id="ID4" name="__auto_1">
            <instance_effect url="#ID5" />
        </material>
        <material id="ID9" name="__auto_3">
            <instance_effect url="#ID10" />
        </material>
        <material id="ID22" name="__auto_5">
            <instance_effect url="#ID23" />
        </material>
        <material id="ID35" name="__auto_4">
            <instance_effect url="#ID36" />
        </material>
        <material id="ID48" name="__auto_2">
            <instance_effect url="#ID49" />
        </material>
    </library_materials>
    <library_effects>
        <effect id="ID5">
            <profile_COMMON>
                <technique sid="COMMON">
                    <lambert>
                        <diffuse>
                            <color>0.6392157 0.6392157 0.6392157 1.0000000</color>
                        </diffuse>
                    </lambert>
                </technique>
            </profile_COMMON>
        </effect>
        <effect id="ID10">
            <profile_COMMON>
                <newparam sid="ID12">
                    <surface type="2D">
                        <init_from>ID11</init_from>
                    </surface>
                </newparam>
                <newparam sid="ID13">
                    <sampler2D>
                        <source>ID12</source>
                    </sampler2D>
                </newparam>
                <technique sid="COMMON">
                    <lambert>
                        <diffuse>
                            <texture texture="ID13" texcoord="UVSET0" />
                        </diffuse>
                    </lambert>
                </technique>
            </profile_COMMON>
        </effect>
        <effect id="ID23">
            <profile_COMMON>
                <newparam sid="ID25">
                    <surface type="2D">
                        <init_from>ID24</init_from>
                    </surface>
                </newparam>
                <newparam sid="ID26">
                    <sampler2D>
                        <source>ID25</source>
                    </sampler2D>
                </newparam>
                <technique sid="COMMON">
                    <lambert>
                        <diffuse>
                            <texture texture="ID26" texcoord="UVSET0" />
                        </diffuse>
                    </lambert>
                </technique>
            </profile_COMMON>
        </effect>
        <effect id="ID36">
            <profile_COMMON>
                <newparam sid="ID38">
                    <surface type="2D">
                        <init_from>ID37</init_from>
                    </surface>
                </newparam>
                <newparam sid="ID39">
                    <sampler2D>
                        <source>ID38</source>
                    </sampler2D>
                </newparam>
                <technique sid="COMMON">
                    <lambert>
                        <diffuse>
                            <texture texture="ID39" texcoord="UVSET0" />
                        </diffuse>
                    </lambert>
                </technique>
            </profile_COMMON>
        </effect>
        <effect id="ID49">
            <profile_COMMON>
                <newparam sid="ID51">
                    <surface type="2D">
                        <init_from>ID50</init_from>
                    </surface>
                </newparam>
                <newparam sid="ID52">
                    <sampler2D>
                        <source>ID51</source>
                    </sampler2D>
                </newparam>
                <technique sid="COMMON">
                    <lambert>
                        <diffuse>
                            <texture texture="ID52" texcoord="UVSET0" />
                        </diffuse>
                    </lambert>
                </technique>
            </profile_COMMON>
        </effect>
    </library_effects>
    <library_images>
        <image id="ID11">
            <init_from>board_expl/__auto_3.png</init_from>
        </image>
        <image id="ID24">
            <init_from>board_expl/__auto_5.png</init_from>
        </image>
        <image id="ID37">
            <init_from>board_expl/__auto_4.png</init_from>
        </image>
        <image id="ID50">
            <init_from>board_expl/__auto_2.png</init_from>
        </image>
    </library_images>
    <scene>
        <instance_visual_scene url="#ID2" />
    </scene>
</COLLADA>
