<?xml version="1.0" encoding="UTF-8" standalone="no" ?>
<COLLADA xmlns="http://www.collada.org/2005/11/COLLADASchema" version="1.4.1">
    <asset>
        <contributor>
            <authoring_tool>SketchUp 17.0.18898</authoring_tool>
        </contributor>
        <created>2016-11-12T18:02:22Z</created>
        <modified>2016-11-12T18:02:22Z</modified>
        <unit meter="0.0254000" name="inch" />
        <up_axis>Z_UP</up_axis>
    </asset>
    <library_cameras>
        <camera id="ID1" name="skp_camera_Last_Saved_SketchUp_View">
            <optics>
                <technique_common>
                    <perspective>
                        <yfov>35.0000000</yfov>
                        <aspect_ratio>0.0000000</aspect_ratio>
                        <znear>1.0000000</znear>
                        <zfar>1000.0000000</zfar>
                    </perspective>
                </technique_common>
            </optics>
        </camera>
    </library_cameras>
    <library_visual_scenes>
        <visual_scene id="ID2">
            <node name="SketchUp">
                <node name="skp_camera_Last_Saved_SketchUp_View">
                    <matrix>-0.5439121 0.4617448 -0.7006792 -990.8021851 -0.8391422 -0.2992920 0.4541637 615.5954590 0.0000000 0.8349946 0.5502581 644.8909912 0.0000000 0.0000000 0.0000000 1.0000000</matrix>
                    <instance_camera url="#ID1" />
                </node>
                <node id="ID3" name="group_0">
                    <matrix>1.0000000 0.0000000 0.0000000 -287.3830709 0.0000000 1.0000000 0.0000000 -287.3830713 0.0000000 0.0000000 1.0000000 -10.9238157 0.0000000 0.0000000 0.0000000 1.0000000</matrix>
                    <instance_geometry url="#ID4">
                        <bind_material>
                            <technique_common>
                                <instance_material symbol="Material2" target="#ID5">
                                    <bind_vertex_input semantic="UVSET0" input_semantic="TEXCOORD" input_set="0" />
                                </instance_material>
                                <instance_material symbol="Material3" target="#ID10">
                                    <bind_vertex_input semantic="UVSET0" input_semantic="TEXCOORD" input_set="0" />
                                </instance_material>
                                <instance_material symbol="Material4" target="#ID16">
                                    <bind_vertex_input semantic="UVSET0" input_semantic="TEXCOORD" input_set="0" />
                                </instance_material>
                                <instance_material symbol="Material5" target="#ID21">
                                    <bind_vertex_input semantic="UVSET0" input_semantic="TEXCOORD" input_set="0" />
                                </instance_material>
                            </technique_common>
                        </bind_material>
                    </instance_geometry>
                    <instance_geometry url="#ID29">
                        <bind_material>
                            <technique_common>
                                <instance_material symbol="Material2" target="#ID5">
                                    <bind_vertex_input semantic="UVSET0" input_semantic="TEXCOORD" input_set="0" />
                                </instance_material>
                                <instance_material symbol="Material3" target="#ID10">
                                    <bind_vertex_input semantic="UVSET0" input_semantic="TEXCOORD" input_set="0" />
                                </instance_material>
                                <instance_material symbol="Material4" target="#ID21">
                                    <bind_vertex_input semantic="UVSET0" input_semantic="TEXCOORD" input_set="0" />
                                </instance_material>
                                <instance_material symbol="Material5" target="#ID34">
                                    <bind_vertex_input semantic="UVSET0" input_semantic="TEXCOORD" input_set="0" />
                                </instance_material>
                            </technique_common>
                        </bind_material>
                    </instance_geometry>
                    <instance_geometry url="#ID42">
                        <bind_material>
                            <technique_common>
                                <instance_material symbol="Material2" target="#ID5">
                                    <bind_vertex_input semantic="UVSET0" input_semantic="TEXCOORD" input_set="0" />
                                </instance_material>
                                <instance_material symbol="Material3" target="#ID10">
                                    <bind_vertex_input semantic="UVSET0" input_semantic="TEXCOORD" input_set="0" />
                                </instance_material>
                            </technique_common>
                        </bind_material>
                    </instance_geometry>
                    <instance_geometry url="#ID50">
                        <bind_material>
                            <technique_common>
                                <instance_material symbol="Material2" target="#ID5">
                                    <bind_vertex_input semantic="UVSET0" input_semantic="TEXCOORD" input_set="0" />
                                </instance_material>
                                <instance_material symbol="Material3" target="#ID10">
                                    <bind_vertex_input semantic="UVSET0" input_semantic="TEXCOORD" input_set="0" />
                                </instance_material>
                            </technique_common>
                        </bind_material>
                    </instance_geometry>
                </node>
            </node>
        </visual_scene>
    </library_visual_scenes>
    <library_geometries>
        <geometry id="ID4">
            <mesh>
                <source id="ID7">
                    <float_array id="ID26" count="1578">287.3830709 405.4933075 10.9238157 228.3279528 346.4381894 10.9238183 228.3279528 405.4933075 10.9238157 287.3830709 346.4381894 10.9238183 287.3830709 346.4381894 10.9238183 287.3830709 405.4933075 10.9238157 228.3279528 346.4381894 10.9238183 228.3279528 405.4933075 10.9238157 228.3279528 287.3830713 10.9238157 228.3279528 346.4381894 10.9238183 287.3830709 287.3830713 10.9238157 287.3830709 287.3830713 10.9238157 287.3830709 346.4381894 10.9238183 228.3279528 287.3830713 10.9238157 228.3279528 346.4381894 10.9238183 228.3279528 405.4933075 10.9238157 169.2728346 346.4381894 10.9238183 169.2728346 405.4933075 10.9238157 228.3279528 346.4381894 10.9238183 228.3279528 346.4381894 10.9238183 228.3279528 405.4933075 10.9238157 169.2728346 346.4381894 10.9238183 169.2728346 405.4933075 10.9238157 287.3830709 464.5484256 10.9238157 228.3279528 405.4933075 10.9238157 228.3279528 464.5484256 10.9238157 287.3830709 405.4933075 10.9238157 287.3830709 405.4933075 10.9238157 287.3830709 464.5484256 10.9238157 228.3279528 405.4933075 10.9238157 228.3279528 464.5484256 10.9238157 346.4381890 405.4933075 10.9238157 346.4381890 346.4381894 10.9238183 346.4381890 346.4381894 10.9238183 346.4381890 405.4933075 10.9238157 228.3279528 228.3279532 10.9238131 287.3830709 228.3279532 10.9238131 287.3830709 228.3279532 10.9238131 228.3279528 228.3279532 10.9238131 169.2728346 287.3830713 10.9238157 169.2728346 346.4381894 10.9238183 169.2728346 287.3830713 10.9238157 169.2728346 346.4381894 10.9238183 346.4381890 346.4381894 10.9238183 287.3830709 346.4381894 10.9238183 346.4381890 287.3830713 10.9238157 346.4381890 287.3830713 10.9238157 346.4381890 346.4381894 10.9238183 169.2728346 405.4933075 10.9238157 110.2177165 346.4381894 10.9238183 110.2177165 405.4933075 10.9238157 169.2728346 346.4381894 10.9238183 169.2728346 346.4381894 10.9238183 169.2728346 405.4933075 10.9238157 110.2177165 346.4381894 10.9238183 110.2177165 405.4933075 10.9238157 169.2728346 464.5484256 10.9238157 169.2728346 405.4933075 10.9238157 169.2728346 464.5484256 10.9238157 287.3830709 523.6035437 10.9238157 228.3279528 464.5484256 10.9238157 228.3279528 523.6035437 10.9238157 287.3830709 464.5484256 10.9238157 287.3830709 464.5484256 10.9238157 287.3830709 523.6035437 10.9238157 228.3279528 464.5484256 10.9238157 228.3279528 523.6035437 10.9238157 346.4381890 464.5484256 10.9238157 346.4381890 405.4933075 10.9238157 346.4381890 405.4933075 10.9238157 346.4381890 464.5484256 10.9238157 405.4933071 405.4933075 10.9238157 346.4381890 346.4381894 10.9238183 346.4381890 405.4933075 10.9238157 405.4933071 346.4381894 10.9238183 405.4933071 346.4381894 10.9238183 405.4933071 405.4933075 10.9238157 346.4381890 346.4381894 10.9238183 346.4381890 405.4933075 10.9238157 287.3830709 228.3279532 10.9238131 228.3279528 169.2728351 10.9238157 228.3279528 228.3279532 10.9238131 287.3830709 169.2728351 10.9238157 287.3830709 169.2728351 10.9238157 287.3830709 228.3279532 10.9238131 228.3279528 169.2728351 10.9238157 228.3279528 228.3279532 10.9238131 169.2728346 228.3279532 10.9238131 169.2728346 228.3279532 10.9238131 346.4381890 228.3279532 10.9238131 346.4381890 228.3279532 10.9238131 169.2728346 346.4381894 10.9238183 110.2177165 287.3830713 10.9238157 110.2177165 346.4381894 10.9238183 169.2728346 287.3830713 10.9238157 169.2728346 287.3830713 10.9238157 169.2728346 346.4381894 10.9238183 110.2177165 287.3830713 10.9238157 110.2177165 346.4381894 10.9238183 405.4933071 346.4381894 10.9238183 346.4381890 346.4381894 10.9238183 405.4933071 287.3830713 10.9238157 405.4933071 287.3830713 10.9238157 405.4933071 346.4381894 10.9238183 110.2177165 405.4933075 10.9238157 51.1625984 346.4381894 10.9238183 51.1625984 405.4933075 10.9238157 110.2177165 346.4381894 10.9238183 110.2177165 346.4381894 10.9238183 110.2177165 405.4933075 10.9238157 51.1625984 346.4381894 10.9238183 51.1625984 405.4933075 10.9238157 169.2728346 464.5484256 10.9238157 110.2177165 405.4933075 10.9238157 110.2177165 464.5484256 10.9238157 169.2728346 405.4933075 10.9238157 169.2728346 405.4933075 10.9238157 169.2728346 464.5484256 10.9238157 110.2177165 405.4933075 10.9238157 110.2177165 464.5484256 10.9238157 228.3279528 523.6035437 10.9238157 169.2728346 464.5484256 10.9238157 169.2728346 523.6035437 10.9238157 228.3279528 464.5484256 10.9238157 228.3279528 464.5484256 10.9238157 228.3279528 523.6035437 10.9238157 169.2728346 464.5484256 10.9238157 169.2728346 523.6035437 10.9238157 51.1625984 523.6035436 13.5881489 110.2177165 523.6035437 10.9238157 51.1625984 523.6035437 10.9238157 169.2728346 523.6035437 10.9238157 228.3279528 523.6035437 10.9238157 287.3830709 523.6035437 10.9238157 346.4381890 523.6035437 10.9238157 405.4933071 523.6035437 10.9238157 464.5484252 523.6035437 10.9238157 523.6035433 523.6035437 10.9238157 523.6035433 523.6035436 13.5881489 523.6035433 523.6035436 13.5881489 51.1625984 523.6035436 13.5881489 523.6035433 523.6035437 10.9238157 464.5484252 523.6035437 10.9238157 405.4933071 523.6035437 10.9238157 346.4381890 523.6035437 10.9238157 287.3830709 523.6035437 10.9238157 228.3279528 523.6035437 10.9238157 169.2728346 523.6035437 10.9238157 110.2177165 523.6035437 10.9238157 51.1625984 523.6035437 10.9238157 346.4381890 523.6035437 10.9238157 346.4381890 464.5484256 10.9238157 346.4381890 464.5484256 10.9238157 346.4381890 523.6035437 10.9238157 405.4933071 464.5484256 10.9238157 405.4933071 405.4933075 10.9238157 405.4933071 405.4933075 10.9238157 405.4933071 464.5484256 10.9238157 464.5484252 405.4933075 10.9238157 405.4933071 346.4381894 10.9238183 405.4933071 405.4933075 10.9238157 464.5484252 346.4381894 10.9238183 464.5484252 346.4381894 10.9238183 464.5484252 405.4933075 10.9238157 405.4933071 346.4381894 10.9238183 405.4933071 405.4933075 10.9238157 287.3830709 169.2728351 10.9238157 228.3279528 110.2177170 10.9238157 228.3279528 169.2728351 10.9238157 287.3830709 110.2177170 10.9238157 287.3830709 110.2177170 10.9238157 287.3830709 169.2728351 10.9238157 228.3279528 110.2177170 10.9238157 228.3279528 169.2728351 10.9238157 228.3279528 228.3279532 10.9238131 169.2728346 169.2728351 10.9238157 169.2728346 228.3279532 10.9238131 228.3279528 169.2728351 10.9238157 228.3279528 169.2728351 10.9238157 228.3279528 228.3279532 10.9238131 169.2728346 169.2728351 10.9238157 169.2728346 228.3279532 10.9238131 346.4381890 228.3279532 10.9238131 346.4381890 169.2728351 10.9238157 346.4381890 169.2728351 10.9238157 346.4381890 228.3279532 10.9238131 287.3830709 228.3279532 10.9238131 110.2177165 228.3279532 10.9238131 169.2728346 228.3279532 10.9238131 169.2728346 228.3279532 10.9238131 110.2177165 228.3279532 10.9238131 405.4933071 228.3279532 10.9238131 405.4933071 228.3279532 10.9238131 110.2177165 346.4381894 10.9238183 51.1625984 287.3830713 10.9238157 51.1625984 346.4381894 10.9238183 110.2177165 287.3830713 10.9238157 110.2177165 287.3830713 10.9238157 110.2177165 346.4381894 10.9238183 51.1625984 287.3830713 10.9238157 51.1625984 346.4381894 10.9238183 464.5484252 346.4381894 10.9238183 405.4933071 287.3830713 10.9238157 405.4933071 346.4381894 10.9238183 464.5484252 287.3830713 10.9238157 464.5484252 287.3830713 10.9238157 464.5484252 346.4381894 10.9238183 405.4933071 287.3830713 10.9238157 405.4933071 346.4381894 10.9238183 51.1625984 523.6035436 13.5881489 51.1625984 51.1625989 10.9238157 51.1625984 51.1625987 13.5881491 51.1625984 110.2177170 10.9238157 51.1625984 169.2728351 10.9238157 51.1625984 228.3279532 10.9238131 51.1625984 287.3830713 10.9238157 51.1625984 346.4381894 10.9238183 51.1625984 405.4933075 10.9238157 51.1625984 464.5484256 10.9238157 51.1625984 523.6035437 10.9238157 51.1625984 523.6035437 10.9238157 51.1625984 523.6035436 13.5881489 51.1625984 464.5484256 10.9238157 51.1625984 405.4933075 10.9238157 51.1625984 346.4381894 10.9238183 51.1625984 287.3830713 10.9238157 51.1625984 228.3279532 10.9238131 51.1625984 169.2728351 10.9238157 51.1625984 110.2177170 10.9238157 51.1625984 51.1625989 10.9238157 51.1625984 51.1625987 13.5881491 51.1625984 405.4933075 10.9238157 51.1625984 464.5484256 10.9238157 51.1625984 405.4933075 10.9238157 51.1625984 464.5484256 10.9238157 169.2728346 523.6035437 10.9238157 110.2177165 464.5484256 10.9238157 110.2177165 523.6035437 10.9238157 169.2728346 464.5484256 10.9238157 169.2728346 464.5484256 10.9238157 169.2728346 523.6035437 10.9238157 110.2177165 464.5484256 10.9238157 110.2177165 523.6035437 10.9238157 464.5484252 523.6035437 10.9238157 405.4933071 464.5484256 10.9238157 405.4933071 523.6035437 10.9238157 464.5484252 464.5484256 10.9238157 464.5484252 464.5484256 10.9238157 464.5484252 523.6035437 10.9238157 405.4933071 464.5484256 10.9238157 405.4933071 523.6035437 10.9238157 405.4933071 523.6035437 10.9238157 346.4381890 464.5484256 10.9238157 405.4933071 464.5484256 10.9238157 405.4933071 464.5484256 10.9238157 405.4933071 523.6035437 10.9238157 346.4381890 464.5484256 10.9238157 346.4381890 523.6035437 10.9238157 110.2177165 523.6035437 10.9238157 51.1625984 464.5484256 10.9238157 51.1625984 523.6035437 10.9238157 110.2177165 464.5484256 10.9238157 110.2177165 464.5484256 10.9238157 110.2177165 523.6035437 10.9238157 51.1625984 464.5484256 10.9238157 51.1625984 523.6035437 10.9238157 51.1625984 523.6035433 20.8299835 523.6035433 523.6035436 13.5881489 51.1625984 523.6035436 13.5881489 523.6035433 523.6035433 20.8299835 523.6035433 523.6035433 20.8299835 51.1625984 523.6035433 20.8299835 523.6035433 523.6035436 13.5881489 51.1625984 523.6035436 13.5881489 523.6035433 51.1625989 10.9238157 523.6035433 523.6035436 13.5881489 523.6035433 51.1625987 13.5881491 523.6035433 110.2177170 10.9238157 523.6035433 169.2728351 10.9238157 523.6035433 228.3279532 10.9238131 523.6035433 287.3830713 10.9238157 523.6035433 346.4381894 10.9238183 523.6035433 405.4933075 10.9238157 523.6035433 464.5484256 10.9238157 523.6035433 523.6035437 10.9238157 523.6035433 523.6035437 10.9238157 523.6035433 464.5484256 10.9238157 523.6035433 523.6035436 13.5881489 523.6035433 405.4933075 10.9238157 523.6035433 346.4381894 10.9238183 523.6035433 287.3830713 10.9238157 523.6035433 228.3279532 10.9238131 523.6035433 169.2728351 10.9238157 523.6035433 110.2177170 10.9238157 523.6035433 51.1625989 10.9238157 523.6035433 51.1625987 13.5881491 523.6035433 523.6035437 10.9238157 464.5484252 464.5484256 10.9238157 464.5484252 523.6035437 10.9238157 523.6035433 464.5484256 10.9238157 523.6035433 464.5484256 10.9238157 523.6035433 523.6035437 10.9238157 464.5484252 464.5484256 10.9238157 464.5484252 523.6035437 10.9238157 464.5484252 464.5484256 10.9238157 405.4933071 405.4933075 10.9238157 405.4933071 464.5484256 10.9238157 464.5484252 405.4933075 10.9238157 464.5484252 405.4933075 10.9238157 464.5484252 464.5484256 10.9238157 405.4933071 405.4933075 10.9238157 405.4933071 464.5484256 10.9238157 523.6035433 405.4933075 10.9238157 464.5484252 346.4381894 10.9238183 464.5484252 405.4933075 10.9238157 523.6035433 346.4381894 10.9238183 523.6035433 346.4381894 10.9238183 523.6035433 405.4933075 10.9238157 464.5484252 346.4381894 10.9238183 464.5484252 405.4933075 10.9238157 287.3830709 110.2177170 10.9238157 228.3279528 51.1625989 10.9238157 228.3279528 110.2177170 10.9238157 287.3830709 51.1625989 10.9238157 287.3830709 51.1625989 10.9238157 287.3830709 110.2177170 10.9238157 228.3279528 51.1625989 10.9238157 228.3279528 110.2177170 10.9238157 169.2728346 110.2177170 10.9238157 169.2728346 169.2728351 10.9238157 169.2728346 110.2177170 10.9238157 169.2728346 169.2728351 10.9238157 346.4381890 169.2728351 10.9238157 346.4381890 110.2177170 10.9238157 346.4381890 110.2177170 10.9238157 346.4381890 169.2728351 10.9238157 169.2728346 228.3279532 10.9238131 110.2177165 169.2728351 10.9238157 110.2177165 228.3279532 10.9238131 169.2728346 169.2728351 10.9238157 169.2728346 169.2728351 10.9238157 169.2728346 228.3279532 10.9238131 110.2177165 169.2728351 10.9238157 110.2177165 228.3279532 10.9238131 405.4933071 228.3279532 10.9238131 346.4381890 169.2728351 10.9238157 346.4381890 228.3279532 10.9238131 405.4933071 169.2728351 10.9238157 405.4933071 169.2728351 10.9238157 405.4933071 228.3279532 10.9238131 346.4381890 169.2728351 10.9238157 346.4381890 228.3279532 10.9238131 51.1625984 228.3279532 10.9238131 110.2177165 228.3279532 10.9238131 110.2177165 228.3279532 10.9238131 51.1625984 228.3279532 10.9238131 405.4933071 228.3279532 10.9238131 464.5484252 228.3279532 10.9238131 464.5484252 228.3279532 10.9238131 405.4933071 228.3279532 10.9238131 523.6035433 346.4381894 10.9238183 464.5484252 287.3830713 10.9238157 464.5484252 346.4381894 10.9238183 523.6035433 287.3830713 10.9238157 523.6035433 287.3830713 10.9238157 523.6035433 346.4381894 10.9238183 464.5484252 287.3830713 10.9238157 464.5484252 346.4381894 10.9238183 110.2177165 228.3279532 10.9238131 51.1625984 169.2728351 10.9238157 51.1625984 228.3279532 10.9238131 110.2177165 169.2728351 10.9238157 110.2177165 169.2728351 10.9238157 110.2177165 228.3279532 10.9238131 51.1625984 169.2728351 10.9238157 51.1625984 228.3279532 10.9238131 110.2177165 169.2728351 10.9238157 51.1625984 110.2177170 10.9238157 51.1625984 169.2728351 10.9238157 110.2177165 110.2177170 10.9238157 110.2177165 110.2177170 10.9238157 110.2177165 169.2728351 10.9238157 51.1625984 110.2177170 10.9238157 51.1625984 169.2728351 10.9238157 110.2177165 110.2177170 10.9238157 51.1625984 51.1625989 10.9238157 51.1625984 110.2177170 10.9238157 110.2177165 51.1625989 10.9238157 110.2177165 51.1625989 10.9238157 110.2177165 110.2177170 10.9238157 51.1625984 51.1625989 10.9238157 51.1625984 110.2177170 10.9238157 523.6035433 51.1625987 13.5881491 464.5484252 51.1625989 10.9238157 523.6035433 51.1625989 10.9238157 405.4933071 51.1625989 10.9238157 346.4381890 51.1625989 10.9238157 287.3830709 51.1625989 10.9238157 228.3279528 51.1625989 10.9238157 169.2728346 51.1625989 10.9238157 110.2177165 51.1625989 10.9238157 51.1625984 51.1625989 10.9238157 51.1625984 51.1625987 13.5881491 51.1625984 51.1625987 13.5881491 523.6035433 51.1625987 13.5881491 51.1625984 51.1625989 10.9238157 110.2177165 51.1625989 10.9238157 169.2728346 51.1625989 10.9238157 228.3279528 51.1625989 10.9238157 287.3830709 51.1625989 10.9238157 346.4381890 51.1625989 10.9238157 405.4933071 51.1625989 10.9238157 464.5484252 51.1625989 10.9238157 523.6035433 51.1625989 10.9238157 51.1625984 523.6035433 20.8299835 51.1625984 51.1625987 13.5881491 51.1625984 51.1625984 20.8299865 51.1625984 523.6035436 13.5881489 51.1625984 523.6035436 13.5881489 51.1625984 523.6035433 20.8299835 51.1625984 51.1625987 13.5881491 51.1625984 51.1625984 20.8299865 523.6035433 51.1625987 13.5881491 523.6035433 523.6035433 20.8299835 523.6035433 51.1625984 20.8299865 523.6035433 523.6035436 13.5881489 523.6035433 523.6035436 13.5881489 523.6035433 51.1625987 13.5881491 523.6035433 523.6035433 20.8299835 523.6035433 51.1625984 20.8299865 464.5484252 228.3279532 10.9238131 523.6035433 228.3279532 10.9238131 523.6035433 228.3279532 10.9238131 464.5484252 228.3279532 10.9238131 523.6035433 464.5484256 10.9238157 523.6035433 405.4933075 10.9238157 523.6035433 405.4933075 10.9238157 523.6035433 464.5484256 10.9238157 523.6035433 110.2177170 10.9238157 464.5484252 51.1625989 10.9238157 464.5484252 110.2177170 10.9238157 523.6035433 51.1625989 10.9238157 523.6035433 51.1625989 10.9238157 523.6035433 110.2177170 10.9238157 464.5484252 51.1625989 10.9238157 464.5484252 110.2177170 10.9238157 523.6035433 169.2728351 10.9238157 464.5484252 110.2177170 10.9238157 464.5484252 169.2728351 10.9238157 523.6035433 110.2177170 10.9238157 523.6035433 110.2177170 10.9238157 523.6035433 169.2728351 10.9238157 464.5484252 110.2177170 10.9238157 464.5484252 169.2728351 10.9238157 523.6035433 228.3279532 10.9238131 464.5484252 169.2728351 10.9238157 464.5484252 228.3279532 10.9238131 523.6035433 169.2728351 10.9238157 523.6035433 169.2728351 10.9238157 523.6035433 228.3279532 10.9238131 464.5484252 169.2728351 10.9238157 464.5484252 228.3279532 10.9238131 228.3279528 110.2177170 10.9238157 169.2728346 51.1625989 10.9238157 169.2728346 110.2177170 10.9238157 228.3279528 51.1625989 10.9238157 228.3279528 51.1625989 10.9238157 228.3279528 110.2177170 10.9238157 169.2728346 51.1625989 10.9238157 169.2728346 110.2177170 10.9238157 346.4381890 110.2177170 10.9238157 346.4381890 51.1625989 10.9238157 346.4381890 51.1625989 10.9238157 346.4381890 110.2177170 10.9238157 169.2728346 169.2728351 10.9238157 169.2728346 110.2177170 10.9238157 169.2728346 110.2177170 10.9238157 169.2728346 169.2728351 10.9238157 405.4933071 169.2728351 10.9238157 405.4933071 110.2177170 10.9238157 405.4933071 110.2177170 10.9238157 405.4933071 169.2728351 10.9238157 464.5484252 228.3279532 10.9238131 405.4933071 169.2728351 10.9238157 405.4933071 228.3279532 10.9238131 464.5484252 169.2728351 10.9238157 464.5484252 169.2728351 10.9238157 464.5484252 228.3279532 10.9238131 405.4933071 169.2728351 10.9238157 405.4933071 228.3279532 10.9238131 169.2728346 110.2177170 10.9238157 110.2177165 51.1625989 10.9238157 110.2177165 110.2177170 10.9238157 169.2728346 51.1625989 10.9238157 169.2728346 51.1625989 10.9238157 169.2728346 110.2177170 10.9238157 110.2177165 51.1625989 10.9238157 110.2177165 110.2177170 10.9238157 405.4933071 110.2177170 10.9238157 346.4381890 51.1625989 10.9238157 346.4381890 110.2177170 10.9238157 405.4933071 51.1625989 10.9238157 405.4933071 51.1625989 10.9238157 405.4933071 110.2177170 10.9238157 346.4381890 51.1625989 10.9238157 346.4381890 110.2177170 10.9238157 464.5484252 110.2177170 10.9238157 405.4933071 51.1625989 10.9238157 405.4933071 110.2177170 10.9238157 464.5484252 51.1625989 10.9238157 464.5484252 51.1625989 10.9238157 464.5484252 110.2177170 10.9238157 405.4933071 51.1625989 10.9238157 405.4933071 110.2177170 10.9238157 523.6035433 51.1625984 20.8299865 51.1625984 51.1625987 13.5881491 523.6035433 51.1625987 13.5881491 51.1625984 51.1625984 20.8299865 51.1625984 51.1625984 20.8299865 523.6035433 51.1625984 20.8299865 51.1625984 51.1625987 13.5881491 523.6035433 51.1625987 13.5881491 405.4933071 110.2177170 10.9238157 405.4933071 169.2728351 10.9238157 405.4933071 110.2177170 10.9238157 405.4933071 169.2728351 10.9238157</float_array>
                    <technique_common>
                        <accessor count="526" source="#ID26" stride="3">
                            <param name="X" type="float" />
                            <param name="Y" type="float" />
                            <param name="Z" type="float" />
                        </accessor>
                    </technique_common>
                </source>
                <source id="ID8">
                    <float_array id="ID27" count="1578">-0.0000000 -0.0000000 -1.0000000 -0.0000000 -0.0000000 -1.0000000 -0.0000000 -0.0000000 -1.0000000 -0.0000000 -0.0000000 -1.0000000 0.0000000 0.0000000 1.0000000 0.0000000 0.0000000 1.0000000 0.0000000 0.0000000 1.0000000 0.0000000 0.0000000 1.0000000 0.0000000 0.0000000 -1.0000000 0.0000000 0.0000000 -1.0000000 0.0000000 0.0000000 -1.0000000 -0.0000000 -0.0000000 1.0000000 -0.0000000 -0.0000000 1.0000000 -0.0000000 -0.0000000 1.0000000 -0.0000000 -0.0000000 1.0000000 -0.0000000 -0.0000000 -1.0000000 -0.0000000 -0.0000000 -1.0000000 -0.0000000 -0.0000000 -1.0000000 -0.0000000 -0.0000000 -1.0000000 0.0000000 0.0000000 1.0000000 0.0000000 0.0000000 1.0000000 0.0000000 0.0000000 1.0000000 0.0000000 0.0000000 1.0000000 0.0000000 0.0000000 -1.0000000 0.0000000 0.0000000 -1.0000000 0.0000000 0.0000000 -1.0000000 0.0000000 0.0000000 -1.0000000 -0.0000000 -0.0000000 1.0000000 -0.0000000 -0.0000000 1.0000000 -0.0000000 -0.0000000 1.0000000 -0.0000000 -0.0000000 1.0000000 -0.0000000 -0.0000000 -1.0000000 -0.0000000 -0.0000000 -1.0000000 0.0000000 0.0000000 1.0000000 0.0000000 0.0000000 1.0000000 0.0000000 0.0000000 -1.0000000 0.0000000 0.0000000 -1.0000000 -0.0000000 -0.0000000 1.0000000 -0.0000000 -0.0000000 1.0000000 0.0000000 0.0000000 -1.0000000 0.0000000 0.0000000 -1.0000000 -0.0000000 -0.0000000 1.0000000 -0.0000000 -0.0000000 1.0000000 0.0000000 0.0000000 -1.0000000 0.0000000 0.0000000 -1.0000000 0.0000000 0.0000000 -1.0000000 -0.0000000 -0.0000000 1.0000000 -0.0000000 -0.0000000 1.0000000 -0.0000000 -0.0000000 -1.0000000 -0.0000000 -0.0000000 -1.0000000 -0.0000000 -0.0000000 -1.0000000 -0.0000000 -0.0000000 -1.0000000 0.0000000 0.0000000 1.0000000 0.0000000 0.0000000 1.0000000 0.0000000 0.0000000 1.0000000 0.0000000 0.0000000 1.0000000 0.0000000 0.0000000 -1.0000000 -0.0000000 -0.0000000 1.0000000 -0.0000000 -0.0000000 1.0000000 0.0000000 0.0000000 -1.0000000 0.0000000 0.0000000 -1.0000000 0.0000000 0.0000000 -1.0000000 0.0000000 0.0000000 -1.0000000 -0.0000000 -0.0000000 1.0000000 -0.0000000 -0.0000000 1.0000000 -0.0000000 -0.0000000 1.0000000 -0.0000000 -0.0000000 1.0000000 0.0000000 0.0000000 -1.0000000 0.0000000 0.0000000 -1.0000000 -0.0000000 -0.0000000 1.0000000 -0.0000000 -0.0000000 1.0000000 -0.0000000 -0.0000000 -1.0000000 -0.0000000 -0.0000000 -1.0000000 -0.0000000 -0.0000000 -1.0000000 -0.0000000 -0.0000000 -1.0000000 0.0000000 0.0000000 1.0000000 0.0000000 0.0000000 1.0000000 0.0000000 0.0000000 1.0000000 0.0000000 0.0000000 1.0000000 -0.0000000 -0.0000000 -1.0000000 -0.0000000 -0.0000000 -1.0000000 -0.0000000 -0.0000000 -1.0000000 -0.0000000 -0.0000000 -1.0000000 0.0000000 0.0000000 1.0000000 0.0000000 0.0000000 1.0000000 0.0000000 0.0000000 1.0000000 0.0000000 0.0000000 1.0000000 0.0000000 0.0000000 -1.0000000 -0.0000000 -0.0000000 1.0000000 0.0000000 0.0000000 -1.0000000 -0.0000000 -0.0000000 1.0000000 0.0000000 0.0000000 -1.0000000 0.0000000 0.0000000 -1.0000000 0.0000000 0.0000000 -1.0000000 0.0000000 0.0000000 -1.0000000 -0.0000000 -0.0000000 1.0000000 -0.0000000 -0.0000000 1.0000000 -0.0000000 -0.0000000 1.0000000 -0.0000000 -0.0000000 1.0000000 0.0000000 0.0000000 -1.0000000 0.0000000 0.0000000 -1.0000000 0.0000000 0.0000000 -1.0000000 -0.0000000 -0.0000000 1.0000000 -0.0000000 -0.0000000 1.0000000 -0.0000000 -0.0000000 -1.0000000 -0.0000000 -0.0000000 -1.0000000 -0.0000000 -0.0000000 -1.0000000 -0.0000000 -0.0000000 -1.0000000 0.0000000 0.0000000 1.0000000 0.0000000 0.0000000 1.0000000 0.0000000 0.0000000 1.0000000 0.0000000 0.0000000 1.0000000 0.0000000 0.0000000 -1.0000000 0.0000000 0.0000000 -1.0000000 0.0000000 0.0000000 -1.0000000 0.0000000 0.0000000 -1.0000000 -0.0000000 -0.0000000 1.0000000 -0.0000000 -0.0000000 1.0000000 -0.0000000 -0.0000000 1.0000000 -0.0000000 -0.0000000 1.0000000 0.0000000 0.0000000 -1.0000000 0.0000000 0.0000000 -1.0000000 0.0000000 0.0000000 -1.0000000 0.0000000 0.0000000 -1.0000000 -0.0000000 -0.0000000 1.0000000 -0.0000000 -0.0000000 1.0000000 -0.0000000 -0.0000000 1.0000000 -0.0000000 -0.0000000 1.0000000 0.0000000 1.0000000 0.0000000 0.0000000 1.0000000 0.0000000 0.0000000 1.0000000 0.0000000 0.0000000 1.0000000 0.0000000 0.0000000 1.0000000 0.0000000 0.0000000 1.0000000 0.0000000 0.0000000 1.0000000 0.0000000 0.0000000 1.0000000 0.0000000 0.0000000 1.0000000 0.0000000 0.0000000 1.0000000 0.0000000 0.0000000 1.0000000 0.0000000 -0.0000000 -1.0000000 -0.0000000 -0.0000000 -1.0000000 -0.0000000 -0.0000000 -1.0000000 -0.0000000 -0.0000000 -1.0000000 -0.0000000 -0.0000000 -1.0000000 -0.0000000 -0.0000000 -1.0000000 -0.0000000 -0.0000000 -1.0000000 -0.0000000 -0.0000000 -1.0000000 -0.0000000 -0.0000000 -1.0000000 -0.0000000 -0.0000000 -1.0000000 -0.0000000 -0.0000000 -1.0000000 -0.0000000 0.0000000 0.0000000 -1.0000000 0.0000000 0.0000000 -1.0000000 -0.0000000 -0.0000000 1.0000000 -0.0000000 -0.0000000 1.0000000 0.0000000 0.0000000 -1.0000000 0.0000000 0.0000000 -1.0000000 -0.0000000 -0.0000000 1.0000000 -0.0000000 -0.0000000 1.0000000 -0.0000000 -0.0000000 -1.0000000 -0.0000000 -0.0000000 -1.0000000 -0.0000000 -0.0000000 -1.0000000 -0.0000000 -0.0000000 -1.0000000 0.0000000 0.0000000 1.0000000 0.0000000 0.0000000 1.0000000 0.0000000 0.0000000 1.0000000 0.0000000 0.0000000 1.0000000 0.0000000 0.0000000 -1.0000000 0.0000000 0.0000000 -1.0000000 0.0000000 0.0000000 -1.0000000 0.0000000 0.0000000 -1.0000000 -0.0000000 -0.0000000 1.0000000 -0.0000000 -0.0000000 1.0000000 -0.0000000 -0.0000000 1.0000000 -0.0000000 -0.0000000 1.0000000 -0.0000000 -0.0000000 -1.0000000 -0.0000000 -0.0000000 -1.0000000 -0.0000000 -0.0000000 -1.0000000 -0.0000000 -0.0000000 -1.0000000 0.0000000 0.0000000 1.0000000 0.0000000 0.0000000 1.0000000 0.0000000 0.0000000 1.0000000 0.0000000 0.0000000 1.0000000 -0.0000000 -0.0000000 -1.0000000 -0.0000000 -0.0000000 -1.0000000 0.0000000 0.0000000 1.0000000 0.0000000 0.0000000 1.0000000 0.0000000 0.0000000 1.0000000 0.0000000 0.0000000 -1.0000000 0.0000000 0.0000000 -1.0000000 -0.0000000 -0.0000000 1.0000000 -0.0000000 -0.0000000 1.0000000 0.0000000 0.0000000 -1.0000000 -0.0000000 -0.0000000 1.0000000 0.0000000 0.0000000 -1.0000000 0.0000000 0.0000000 -1.0000000 0.0000000 0.0000000 -1.0000000 0.0000000 0.0000000 -1.0000000 -0.0000000 -0.0000000 1.0000000 -0.0000000 -0.0000000 1.0000000 -0.0000000 -0.0000000 1.0000000 -0.0000000 -0.0000000 1.0000000 0.0000000 0.0000000 -1.0000000 0.0000000 0.0000000 -1.0000000 0.0000000 0.0000000 -1.0000000 0.0000000 0.0000000 -1.0000000 -0.0000000 -0.0000000 1.0000000 -0.0000000 -0.0000000 1.0000000 -0.0000000 -0.0000000 1.0000000 -0.0000000 -0.0000000 1.0000000 -1.0000000 -0.0000000 -0.0000000 -1.0000000 -0.0000000 -0.0000000 -1.0000000 -0.0000000 -0.0000000 -1.0000000 -0.0000000 -0.0000000 -1.0000000 -0.0000000 -0.0000000 -1.0000000 -0.0000000 -0.0000000 -1.0000000 -0.0000000 -0.0000000 -1.0000000 -0.0000000 -0.0000000 -1.0000000 -0.0000000 -0.0000000 -1.0000000 -0.0000000 -0.0000000 -1.0000000 -0.0000000 -0.0000000 1.0000000 0.0000000 0.0000000 1.0000000 0.0000000 0.0000000 1.0000000 0.0000000 0.0000000 1.0000000 0.0000000 0.0000000 1.0000000 0.0000000 0.0000000 1.0000000 0.0000000 0.0000000 1.0000000 0.0000000 0.0000000 1.0000000 0.0000000 0.0000000 1.0000000 0.0000000 0.0000000 1.0000000 0.0000000 0.0000000 1.0000000 0.0000000 0.0000000 0.0000000 0.0000000 -1.0000000 0.0000000 0.0000000 -1.0000000 -0.0000000 -0.0000000 1.0000000 -0.0000000 -0.0000000 1.0000000 0.0000000 0.0000000 -1.0000000 0.0000000 0.0000000 -1.0000000 0.0000000 0.0000000 -1.0000000 0.0000000 0.0000000 -1.0000000 -0.0000000 -0.0000000 1.0000000 -0.0000000 -0.0000000 1.0000000 -0.0000000 -0.0000000 1.0000000 -0.0000000 -0.0000000 1.0000000 0.0000000 0.0000000 -1.0000000 0.0000000 0.0000000 -1.0000000 0.0000000 0.0000000 -1.0000000 0.0000000 0.0000000 -1.0000000 -0.0000000 -0.0000000 1.0000000 -0.0000000 -0.0000000 1.0000000 -0.0000000 -0.0000000 1.0000000 -0.0000000 -0.0000000 1.0000000 0.0000000 0.0000000 -1.0000000 0.0000000 0.0000000 -1.0000000 0.0000000 0.0000000 -1.0000000 -0.0000000 -0.0000000 1.0000000 -0.0000000 -0.0000000 1.0000000 -0.0000000 -0.0000000 1.0000000 -0.0000000 -0.0000000 1.0000000 -0.0000000 0.0000000 -1.0000000 -0.0000000 0.0000000 -1.0000000 -0.0000000 0.0000000 -1.0000000 -0.0000000 0.0000000 -1.0000000 0.0000000 -0.0000000 1.0000000 0.0000000 -0.0000000 1.0000000 0.0000000 -0.0000000 1.0000000 0.0000000 -0.0000000 1.0000000 -0.0000000 1.0000000 0.0000000 -0.0000000 1.0000000 0.0000000 -0.0000000 1.0000000 0.0000000 -0.0000000 1.0000000 0.0000000 0.0000000 -1.0000000 -0.0000000 0.0000000 -1.0000000 -0.0000000 0.0000000 -1.0000000 -0.0000000 0.0000000 -1.0000000 -0.0000000 1.0000000 0.0000000 0.0000000 1.0000000 0.0000000 0.0000000 1.0000000 0.0000000 0.0000000 1.0000000 0.0000000 0.0000000 1.0000000 0.0000000 0.0000000 1.0000000 0.0000000 0.0000000 1.0000000 0.0000000 0.0000000 1.0000000 0.0000000 0.0000000 1.0000000 0.0000000 0.0000000 1.0000000 0.0000000 0.0000000 1.0000000 0.0000000 0.0000000 -1.0000000 -0.0000000 -0.0000000 -1.0000000 -0.0000000 -0.0000000 -1.0000000 -0.0000000 -0.0000000 -1.0000000 -0.0000000 -0.0000000 -1.0000000 -0.0000000 -0.0000000 -1.0000000 -0.0000000 -0.0000000 -1.0000000 -0.0000000 -0.0000000 -1.0000000 -0.0000000 -0.0000000 -1.0000000 -0.0000000 -0.0000000 -1.0000000 -0.0000000 -0.0000000 -1.0000000 -0.0000000 -0.0000000 -0.0000000 0.0000000 -1.0000000 -0.0000000 0.0000000 -1.0000000 -0.0000000 0.0000000 -1.0000000 -0.0000000 0.0000000 -1.0000000 0.0000000 -0.0000000 1.0000000 0.0000000 -0.0000000 1.0000000 0.0000000 -0.0000000 1.0000000 0.0000000 -0.0000000 1.0000000 0.0000000 0.0000000 -1.0000000 0.0000000 0.0000000 -1.0000000 0.0000000 0.0000000 -1.0000000 0.0000000 0.0000000 -1.0000000 -0.0000000 -0.0000000 1.0000000 -0.0000000 -0.0000000 1.0000000 -0.0000000 -0.0000000 1.0000000 -0.0000000 -0.0000000 1.0000000 -0.0000000 -0.0000000 -1.0000000 -0.0000000 -0.0000000 -1.0000000 -0.0000000 -0.0000000 -1.0000000 -0.0000000 -0.0000000 -1.0000000 0.0000000 0.0000000 1.0000000 0.0000000 0.0000000 1.0000000 0.0000000 0.0000000 1.0000000 0.0000000 0.0000000 1.0000000 0.0000000 0.0000000 -1.0000000 0.0000000 0.0000000 -1.0000000 0.0000000 0.0000000 -1.0000000 0.0000000 0.0000000 -1.0000000 -0.0000000 -0.0000000 1.0000000 -0.0000000 -0.0000000 1.0000000 -0.0000000 -0.0000000 1.0000000 -0.0000000 -0.0000000 1.0000000 0.0000000 0.0000000 -1.0000000 0.0000000 0.0000000 -1.0000000 -0.0000000 -0.0000000 1.0000000 -0.0000000 -0.0000000 1.0000000 0.0000000 0.0000000 -1.0000000 0.0000000 0.0000000 -1.0000000 -0.0000000 -0.0000000 1.0000000 -0.0000000 -0.0000000 1.0000000 -0.0000000 -0.0000000 -1.0000000 -0.0000000 -0.0000000 -1.0000000 -0.0000000 -0.0000000 -1.0000000 -0.0000000 -0.0000000 -1.0000000 0.0000000 0.0000000 1.0000000 0.0000000 0.0000000 1.0000000 0.0000000 0.0000000 1.0000000 0.0000000 0.0000000 1.0000000 -0.0000000 -0.0000000 -1.0000000 -0.0000000 -0.0000000 -1.0000000 -0.0000000 -0.0000000 -1.0000000 -0.0000000 -0.0000000 -1.0000000 0.0000000 0.0000000 1.0000000 0.0000000 0.0000000 1.0000000 0.0000000 0.0000000 1.0000000 0.0000000 0.0000000 1.0000000 0.0000000 0.0000000 -1.0000000 0.0000000 0.0000000 -1.0000000 -0.0000000 -0.0000000 1.0000000 -0.0000000 -0.0000000 1.0000000 0.0000000 0.0000000 -1.0000000 0.0000000 0.0000000 -1.0000000 -0.0000000 -0.0000000 1.0000000 -0.0000000 -0.0000000 1.0000000 0.0000000 0.0000000 -1.0000000 0.0000000 0.0000000 -1.0000000 0.0000000 0.0000000 -1.0000000 0.0000000 0.0000000 -1.0000000 -0.0000000 -0.0000000 1.0000000 -0.0000000 -0.0000000 1.0000000 -0.0000000 -0.0000000 1.0000000 -0.0000000 -0.0000000 1.0000000 -0.0000000 -0.0000000 -1.0000000 -0.0000000 -0.0000000 -1.0000000 -0.0000000 -0.0000000 -1.0000000 -0.0000000 -0.0000000 -1.0000000 0.0000000 0.0000000 1.0000000 0.0000000 0.0000000 1.0000000 0.0000000 0.0000000 1.0000000 0.0000000 0.0000000 1.0000000 0.0000000 0.0000000 -1.0000000 0.0000000 0.0000000 -1.0000000 0.0000000 0.0000000 -1.0000000 0.0000000 0.0000000 -1.0000000 -0.0000000 -0.0000000 1.0000000 -0.0000000 -0.0000000 1.0000000 -0.0000000 -0.0000000 1.0000000 -0.0000000 -0.0000000 1.0000000 -0.0000000 0.0000000 -1.0000000 -0.0000000 0.0000000 -1.0000000 -0.0000000 0.0000000 -1.0000000 -0.0000000 0.0000000 -1.0000000 0.0000000 -0.0000000 1.0000000 0.0000000 -0.0000000 1.0000000 0.0000000 -0.0000000 1.0000000 0.0000000 -0.0000000 1.0000000 0.0000000 -1.0000000 -0.0000000 0.0000000 -1.0000000 -0.0000000 0.0000000 -1.0000000 -0.0000000 0.0000000 -1.0000000 -0.0000000 0.0000000 -1.0000000 -0.0000000 0.0000000 -1.0000000 -0.0000000 0.0000000 -1.0000000 -0.0000000 0.0000000 -1.0000000 -0.0000000 0.0000000 -1.0000000 -0.0000000 0.0000000 -1.0000000 -0.0000000 0.0000000 -1.0000000 -0.0000000 -0.0000000 1.0000000 0.0000000 -0.0000000 1.0000000 0.0000000 -0.0000000 1.0000000 0.0000000 -0.0000000 1.0000000 0.0000000 -0.0000000 1.0000000 0.0000000 -0.0000000 1.0000000 0.0000000 -0.0000000 1.0000000 0.0000000 -0.0000000 1.0000000 0.0000000 -0.0000000 1.0000000 0.0000000 -0.0000000 1.0000000 0.0000000 -0.0000000 1.0000000 0.0000000 -1.0000000 -0.0000000 0.0000000 -1.0000000 -0.0000000 0.0000000 -1.0000000 -0.0000000 0.0000000 -1.0000000 -0.0000000 0.0000000 1.0000000 0.0000000 -0.0000000 1.0000000 0.0000000 -0.0000000 1.0000000 0.0000000 -0.0000000 1.0000000 0.0000000 -0.0000000 1.0000000 0.0000000 -0.0000000 1.0000000 0.0000000 -0.0000000 1.0000000 0.0000000 -0.0000000 1.0000000 0.0000000 -0.0000000 -1.0000000 -0.0000000 0.0000000 -1.0000000 -0.0000000 0.0000000 -1.0000000 -0.0000000 0.0000000 -1.0000000 -0.0000000 0.0000000 0.0000000 0.0000000 -1.0000000 0.0000000 0.0000000 -1.0000000 -0.0000000 -0.0000000 1.0000000 -0.0000000 -0.0000000 1.0000000 0.0000000 0.0000000 -1.0000000 0.0000000 0.0000000 -1.0000000 -0.0000000 -0.0000000 1.0000000 -0.0000000 -0.0000000 1.0000000 -0.0000000 0.0000000 -1.0000000 -0.0000000 0.0000000 -1.0000000 -0.0000000 0.0000000 -1.0000000 -0.0000000 0.0000000 -1.0000000 0.0000000 -0.0000000 1.0000000 0.0000000 -0.0000000 1.0000000 0.0000000 -0.0000000 1.0000000 0.0000000 -0.0000000 1.0000000 0.0000000 0.0000000 -1.0000000 0.0000000 0.0000000 -1.0000000 0.0000000 0.0000000 -1.0000000 0.0000000 0.0000000 -1.0000000 -0.0000000 -0.0000000 1.0000000 -0.0000000 -0.0000000 1.0000000 -0.0000000 -0.0000000 1.0000000 -0.0000000 -0.0000000 1.0000000 -0.0000000 -0.0000000 -1.0000000 -0.0000000 -0.0000000 -1.0000000 -0.0000000 -0.0000000 -1.0000000 -0.0000000 -0.0000000 -1.0000000 0.0000000 0.0000000 1.0000000 0.0000000 0.0000000 1.0000000 0.0000000 0.0000000 1.0000000 0.0000000 0.0000000 1.0000000 0.0000000 0.0000000 -1.0000000 0.0000000 0.0000000 -1.0000000 0.0000000 0.0000000 -1.0000000 0.0000000 0.0000000 -1.0000000 -0.0000000 -0.0000000 1.0000000 -0.0000000 -0.0000000 1.0000000 -0.0000000 -0.0000000 1.0000000 -0.0000000 -0.0000000 1.0000000 0.0000000 0.0000000 -1.0000000 0.0000000 0.0000000 -1.0000000 -0.0000000 -0.0000000 1.0000000 -0.0000000 -0.0000000 1.0000000 0.0000000 0.0000000 -1.0000000 0.0000000 0.0000000 -1.0000000 -0.0000000 -0.0000000 1.0000000 -0.0000000 -0.0000000 1.0000000 0.0000000 0.0000000 -1.0000000 0.0000000 0.0000000 -1.0000000 -0.0000000 -0.0000000 1.0000000 -0.0000000 -0.0000000 1.0000000 -0.0000000 -0.0000000 -1.0000000 -0.0000000 -0.0000000 -1.0000000 -0.0000000 -0.0000000 -1.0000000 -0.0000000 -0.0000000 -1.0000000 0.0000000 0.0000000 1.0000000 0.0000000 0.0000000 1.0000000 0.0000000 0.0000000 1.0000000 0.0000000 0.0000000 1.0000000 0.0000000 0.0000000 -1.0000000 0.0000000 0.0000000 -1.0000000 0.0000000 0.0000000 -1.0000000 0.0000000 0.0000000 -1.0000000 -0.0000000 -0.0000000 1.0000000 -0.0000000 -0.0000000 1.0000000 -0.0000000 -0.0000000 1.0000000 -0.0000000 -0.0000000 1.0000000 0.0000000 0.0000000 -1.0000000 0.0000000 0.0000000 -1.0000000 0.0000000 0.0000000 -1.0000000 0.0000000 0.0000000 -1.0000000 -0.0000000 -0.0000000 1.0000000 -0.0000000 -0.0000000 1.0000000 -0.0000000 -0.0000000 1.0000000 -0.0000000 -0.0000000 1.0000000 0.0000000 0.0000000 -1.0000000 0.0000000 0.0000000 -1.0000000 0.0000000 0.0000000 -1.0000000 0.0000000 0.0000000 -1.0000000 -0.0000000 -0.0000000 1.0000000 -0.0000000 -0.0000000 1.0000000 -0.0000000 -0.0000000 1.0000000 -0.0000000 -0.0000000 1.0000000 -0.0000000 -1.0000000 -0.0000000 -0.0000000 -1.0000000 -0.0000000 -0.0000000 -1.0000000 -0.0000000 -0.0000000 -1.0000000 -0.0000000 0.0000000 1.0000000 0.0000000 0.0000000 1.0000000 0.0000000 0.0000000 1.0000000 0.0000000 0.0000000 1.0000000 0.0000000 0.0000000 0.0000000 -1.0000000 0.0000000 0.0000000 -1.0000000 -0.0000000 -0.0000000 1.0000000 -0.0000000 -0.0000000 1.0000000</float_array>
                    <technique_common>
                        <accessor count="526" source="#ID27" stride="3">
                            <param name="X" type="float" />
                            <param name="Y" type="float" />
                            <param name="Z" type="float" />
                        </accessor>
                    </technique_common>
                </source>
                <source id="ID15">
                    <float_array id="ID28" count="350">0.5000000 0.6027463 0.5000000 0.7054927 0.6027463 0.6027463 0.6027463 0.7054927 0.5000000 0.5000000 0.5000000 0.6027463 0.6027463 0.5000000 0.7054927 0.6027463 0.7054927 0.7054927 0.5000000 0.7054927 0.5000000 0.8082390 0.6027463 0.7054927 0.6027463 0.8082390 0.3972537 0.6027463 0.3972537 0.7054927 0.5000000 0.3972537 0.6027463 0.3972537 0.6027463 0.6027463 0.7054927 0.5000000 0.3972537 0.5000000 0.3972537 0.6027463 0.8082390 0.6027463 0.8082390 0.7054927 0.7054927 0.7054927 0.7054927 0.8082390 0.5000000 0.9109854 0.6027463 0.9109854 0.3972537 0.7054927 0.3972537 0.8082390 0.2945073 0.6027463 0.2945073 0.7054927 0.5000000 0.2945073 0.5000000 0.3972537 0.6027463 0.2945073 0.6027463 0.3972537 0.7054927 0.3972537 0.3972537 0.3972537 0.7054927 0.6027463 0.8082390 0.5000000 0.8082390 0.6027463 0.2945073 0.5000000 0.2945073 0.6027463 0.9109854 0.6027463 0.9109854 0.7054927 0.8082390 0.7054927 0.8082390 0.8082390 0.7054927 0.9109854 0.0000000 0.2689570 1.0000000 0.2689570 0.0000000 0.0000000 0.1250000 0.0000000 0.2500000 0.0000000 0.3750000 0.0000000 0.5000000 0.0000000 0.6250000 0.0000000 0.7500000 0.0000000 0.8750000 0.0000000 1.0000000 0.0000000 0.3972537 0.9109854 0.2945073 0.7054927 0.2945073 0.8082390 0.1917610 0.6027463 0.1917610 0.7054927 0.5000000 0.1917610 0.5000000 0.2945073 0.6027463 0.1917610 0.6027463 0.2945073 0.7054927 0.2945073 0.7054927 0.3972537 0.3972537 0.2945073 0.3972537 0.3972537 0.8082390 0.3972537 0.2945073 0.3972537 0.9109854 0.5000000 0.9109854 0.6027463 0.1917610 0.5000000 0.1917610 0.6027463 3.0005243 -0.0134342 3.0004625 -0.0066710 3.1504294 -0.0120654 3.3003344 -0.0106966 3.4502395 -0.0093277 3.6001446 -0.0079589 3.7500497 -0.0065901 3.8999548 -0.0052213 4.0498598 -0.0038525 4.1997649 -0.0024837 4.1997032 0.0042794 0.9109854 0.7054927 0.9109854 0.8082390 0.8082390 0.9109854 0.1917610 0.8082390 0.1917610 0.9109854 0.2945073 0.9109854 0.9109854 0.9109854 0.0000000 1.0000000 1.0000000 1.0000000 0.0000000 0.2689570 1.0000000 0.2689570 4.1998763 0.0018251 4.0499709 0.0004563 4.1997062 0.0042794 3.9000655 -0.0009125 3.7501600 -0.0022813 3.6002546 -0.0036502 3.4503492 -0.0050190 3.3004437 -0.0063878 3.1505383 -0.0077566 3.0006329 -0.0091254 3.0004627 -0.0066710 0.0890146 0.8082390 0.0890146 0.9109854 0.1917610 0.7054927 0.0890146 0.6027463 0.0890146 0.7054927 0.5000000 0.0890146 0.6027463 0.0890146 0.7054927 0.1917610 0.7054927 0.2945073 0.3972537 0.1917610 0.3972537 0.2945073 0.8082390 0.2945073 0.8082390 0.3972537 0.2945073 0.2945073 0.2945073 0.3972537 0.9109854 0.3972537 0.1917610 0.3972537 0.0890146 0.5000000 0.0890146 0.6027463 0.9109854 0.2945073 0.9109854 0.3972537 0.8082390 0.1917610 0.8082390 0.2945073 0.9109854 0.1917610 0.9109854 0.2945073 0.8082390 0.0890146 0.9109854 0.0890146 2.5652588 -0.0368443 3.0004625 -0.0066710 2.5654289 -0.0392986 2.6198294 -0.0355269 2.6742299 -0.0317553 2.7286303 -0.0279836 2.7830308 -0.0242120 2.8374313 -0.0204403 2.8918317 -0.0166687 2.9462322 -0.0128970 3.0006327 -0.0091254 3.0004604 -0.0066710 2.9999979 -0.0000000 4.1997029 0.0042794 4.1992404 0.0109504 4.1992436 0.0109505 3.0000002 -0.0000000 0.0890146 0.3972537 0.0890146 0.7054927 0.0890146 0.0890146 0.0890146 0.1917610 0.1917610 0.0890146 0.1917610 0.1917610 0.0890146 0.2945073 0.1917610 0.2945073 0.0890146 0.2945073 0.0890146 0.3972537 0.1917610 0.2945073 0.1917610 0.3972537 0.7054927 0.0890146 0.3972537 0.0890146 0.2945073 0.1917610 0.2945073 0.2945073 0.2945073 0.0890146 2.5647962 -0.0301732 3.0000000 -0.0000000 2.5652588 -0.0368443 3.0004625 -0.0066710</float_array>
                    <technique_common>
                        <accessor count="175" source="#ID28" stride="2">
                            <param name="S" type="float" />
                            <param name="T" type="float" />
                        </accessor>
                    </technique_common>
                </source>
                <vertices id="ID9">
                    <input semantic="POSITION" source="#ID7" />
                    <input semantic="NORMAL" source="#ID8" />
                </vertices>
                <triangles count="172" material="Material2">
                    <input offset="0" semantic="VERTEX" source="#ID9" />
                    <p>0 1 2 1 0 3 3 8 9 8 3 10 15 16 17 16 15 18 23 24 25 24 23 26 31 3 0 3 31 32 10 35 8 35 10 36 9 39 40 39 9 8 43 10 44 10 43 45 48 49 50 49 48 51 25 48 56 48 25 24 59 60 61 60 59 62 67 26 23 26 67 68 71 72 73 72 71 74 79 80 81 80 79 82 8 87 39 87 8 35 45 36 10 36 45 89 91 92 93 92 91 94 99 45 100 45 99 101 104 105 106 105 104 107 112 113 114 113 112 115 120 121 122 121 120 123 128 129 130 129 128 131 131 128 132 132 128 133 133 128 134 134 128 135 135 128 136 136 128 137 137 128 138 150 62 59 62 150 151 154 68 67 68 154 155 158 159 160 159 158 161 166 167 168 167 166 169 174 175 176 175 174 177 182 82 79 82 182 183 94 187 92 187 94 188 101 89 45 89 101 191 193 194 195 194 193 196 201 202 203 202 201 204 209 210 211 210 209 212 212 209 213 213 209 214 214 209 215 215 209 216 216 209 217 217 209 218 218 209 219 114 231 232 231 114 113 235 236 237 236 235 238 243 244 245 244 243 246 251 252 150 252 251 253 258 259 260 259 258 261 266 267 268 267 266 269 274 275 276 275 274 277 275 277 278 275 278 279 275 279 280 275 280 281 275 281 282 275 282 283 275 283 284 296 297 298 297 296 299 304 305 306 305 304 307 312 313 314 313 312 315 320 321 322 321 320 323 168 328 329 328 168 167 332 169 166 169 332 333 336 337 338 337 336 339 344 345 346 345 344 347 196 352 194 352 196 353 204 356 202 356 204 357 360 361 362 361 360 363 368 369 370 369 368 371 376 377 378 377 376 379 384 385 386 385 384 387 392 393 394 393 392 395 395 392 396 396 392 397 397 392 398 398 392 399 399 392 400 400 392 401 401 392 402 414 415 416 415 414 417 422 423 424 423 422 425 363 430 361 430 363 431 434 307 304 307 434 435 438 439 440 439 438 441 446 447 448 447 446 449 454 455 456 455 454 457 462 463 464 463 462 465 470 323 320 323 470 471 474 379 376 379 474 475 478 333 332 333 478 479 482 483 484 483 482 485 490 491 492 491 490 493 498 499 500 499 498 501 506 507 508 507 506 509 514 515 516 515 514 517 448 522 523 522 448 447</p>
                </triangles>
                <triangles count="128" material="Material3">
                    <input offset="0" semantic="VERTEX" source="#ID9" />
                    <input offset="1" semantic="TEXCOORD" source="#ID15" />
                    <p>4 0 5 1 6 2 7 3 6 2 5 1 11 4 12 5 13 6 14 2 13 6 12 5 19 2 20 3 21 7 22 8 21 7 20 3 27 9 28 10 29 11 30 12 29 11 28 10 33 13 34 14 4 0 5 1 4 0 34 14 37 15 11 4 38 16 13 6 38 16 11 4 13 6 14 17 41 18 42 7 41 18 14 17 46 19 47 20 11 4 12 5 11 4 47 20 52 7 53 8 54 21 55 22 54 21 53 8 29 11 30 12 57 23 58 24 57 23 30 12 63 10 64 25 65 12 66 26 65 12 64 25 69 27 70 28 27 1 28 10 27 1 70 28 75 29 76 30 77 13 78 14 77 13 76 30 83 31 84 32 85 33 86 34 85 33 84 32 38 16 13 6 88 35 41 18 88 35 13 6 90 36 46 19 37 15 11 4 37 15 46 19 95 18 96 37 97 38 98 39 97 38 96 37 102 40 103 41 46 19 47 20 46 19 103 41 108 21 109 22 110 42 111 43 110 42 109 22 116 23 117 24 118 44 119 45 118 44 117 24 124 12 125 26 126 24 127 46 126 24 125 26 152 28 153 58 63 10 64 25 63 10 153 58 156 59 157 60 69 27 70 28 69 27 157 60 162 61 163 62 164 29 165 30 164 29 163 62 170 63 171 64 172 65 173 66 172 65 171 64 178 33 179 34 180 67 181 68 180 67 179 34 184 69 185 70 83 31 186 32 83 31 185 70 189 35 95 18 190 71 97 38 190 71 95 18 192 72 102 40 90 36 46 19 90 36 102 40 197 38 198 39 199 73 200 74 199 73 198 39 205 75 206 76 207 40 208 41 207 40 206 76 118 44 119 45 233 88 234 89 233 88 119 45 239 24 240 46 241 45 242 90 241 45 240 46 247 91 248 92 249 60 250 93 249 60 248 92 254 60 255 93 256 28 257 58 256 28 255 93 262 45 263 90 264 89 265 94 264 89 263 90 300 110 301 111 302 91 303 92 302 91 301 111 308 112 309 91 310 59 311 60 310 59 309 91 316 113 317 114 318 61 319 62 318 61 317 114 324 115 325 63 326 116 327 65 326 116 325 63 172 65 173 66 330 117 331 118 330 117 173 66 334 119 335 120 170 63 171 64 170 63 335 120 340 67 341 68 342 121 343 122 342 121 341 68 348 123 349 124 350 69 351 70 350 69 349 124 354 71 197 38 355 125 199 73 355 125 197 38 358 126 205 75 359 72 207 40 359 72 205 75 364 127 365 128 366 75 367 76 366 75 365 128 372 121 373 122 374 129 375 130 374 129 373 122 380 131 381 132 382 133 383 134 382 133 381 132 388 135 389 131 390 136 391 133 390 136 389 131 432 154 364 127 433 126 366 75 433 126 364 127 436 155 437 110 308 112 309 91 308 112 437 110 442 156 443 157 444 158 445 159 444 158 443 157 450 157 451 160 452 159 453 161 452 159 451 160 458 162 459 163 460 164 461 165 460 164 459 163 466 116 467 65 468 166 469 117 468 166 467 65 472 167 473 119 324 115 325 63 324 115 473 119 476 117 477 118 380 131 381 132 380 131 477 118 480 168 481 169 334 119 335 120 334 119 481 169 486 164 487 165 488 123 489 124 488 123 487 165 494 166 495 117 496 135 497 131 496 135 495 117 502 170 503 168 504 167 505 119 504 167 503 168 510 158 511 159 512 170 513 168 512 170 511 159 452 159 453 161 524 168 525 169 524 168 453 161</p>
                </triangles>
                <triangles count="11" material="Material4">
                    <input offset="0" semantic="VERTEX" source="#ID9" />
                    <input offset="1" semantic="TEXCOORD" source="#ID15" />
                    <p>139 47 140 48 141 49 141 49 140 48 142 50 142 50 140 48 143 51 143 51 140 48 144 52 144 52 140 48 145 53 145 53 140 48 146 54 146 54 140 48 147 55 147 55 140 48 148 56 149 57 148 56 140 48 270 95 271 96 272 97 273 98 272 97 271 96</p>
                </triangles>
                <triangles count="33" material="Material5">
                    <input offset="0" semantic="VERTEX" source="#ID9" />
                    <input offset="1" semantic="TEXCOORD" source="#ID15" />
                    <p>220 77 221 78 222 79 222 79 221 78 223 80 223 80 221 78 224 81 224 81 221 78 225 82 225 82 221 78 226 83 226 83 221 78 227 84 227 84 221 78 228 85 228 85 221 78 229 86 230 87 229 86 221 78 285 99 286 100 287 101 286 100 288 102 287 101 288 102 289 103 287 101 289 103 290 104 287 101 290 104 291 105 287 101 291 105 292 106 287 101 292 106 293 107 287 101 293 107 294 108 287 101 295 109 287 101 294 108 403 137 404 138 405 139 405 139 404 138 406 140 406 140 404 138 407 141 407 141 404 138 408 142 408 142 404 138 409 143 409 143 404 138 410 144 410 144 404 138 411 145 411 145 404 138 412 146 413 147 412 146 404 138 418 148 419 149 420 150 421 151 420 150 419 149 426 101 427 109 428 152 429 153 428 152 427 109 518 171 519 172 520 173 521 174 520 173 519 172</p>
                </triangles>
            </mesh>
        </geometry>
        <geometry id="ID29">
            <mesh>
                <source id="ID30">
                    <float_array id="ID39" count="240">574.7661417 574.7661417 20.8299858 0.0000000 574.7661420 15.4141905 574.7661417 574.7661420 15.4141905 0.0000000 574.7661417 20.8299858 0.0000000 574.7661417 20.8299858 574.7661417 574.7661417 20.8299858 0.0000000 574.7661420 15.4141905 574.7661417 574.7661420 15.4141905 0.0000000 574.7661417 20.8299858 5.7448819 569.0212598 20.8299855 0.0000000 0.0000000 20.8299843 574.7661417 574.7661417 20.8299858 569.0212598 569.0212598 20.8299855 569.0212598 5.7448819 20.8299845 5.7448819 5.7448819 20.8299845 574.7661417 0.0000000 20.8299843 574.7661417 574.7661417 20.8299858 569.0212598 5.7448819 20.8299845 574.7661417 0.0000000 20.8299843 5.7448819 5.7448819 20.8299845 5.7448819 569.0212598 20.8299855 0.0000000 0.0000000 20.8299843 569.0212598 569.0212598 20.8299855 0.0000000 574.7661417 20.8299858 0.0000000 0.0000002 15.4141890 0.0000000 574.7661417 20.8299858 0.0000000 0.0000000 20.8299843 0.0000000 574.7661420 15.4141905 0.0000000 574.7661420 15.4141905 0.0000000 0.0000002 15.4141890 0.0000000 574.7661417 20.8299858 0.0000000 0.0000000 20.8299843 574.7661417 574.7661420 15.4141905 0.0000000 574.7661426 0.0000015 574.7661417 574.7661426 0.0000015 0.0000000 574.7661420 15.4141905 0.0000000 574.7661420 15.4141905 574.7661417 574.7661420 15.4141905 0.0000000 574.7661426 0.0000015 574.7661417 574.7661426 0.0000015 574.7661417 574.7661417 20.8299858 574.7661417 0.0000002 15.4141890 574.7661417 0.0000000 20.8299843 574.7661417 574.7661420 15.4141905 574.7661417 574.7661420 15.4141905 574.7661417 574.7661417 20.8299858 574.7661417 0.0000002 15.4141890 574.7661417 0.0000000 20.8299843 0.0000000 0.0000000 20.8299843 574.7661417 0.0000002 15.4141890 0.0000000 0.0000002 15.4141890 574.7661417 0.0000000 20.8299843 574.7661417 0.0000000 20.8299843 0.0000000 0.0000000 20.8299843 574.7661417 0.0000002 15.4141890 0.0000000 0.0000002 15.4141890 0.0000000 0.0000009 0.0000000 0.0000000 574.7661426 0.0000015 0.0000000 574.7661426 0.0000015 0.0000000 0.0000009 0.0000000 574.7661417 0.0000009 0.0000000 0.0000000 574.7661426 0.0000015 0.0000000 0.0000009 0.0000000 574.7661417 574.7661426 0.0000015 574.7661417 574.7661426 0.0000015 574.7661417 0.0000009 0.0000000 0.0000000 574.7661426 0.0000015 0.0000000 0.0000009 0.0000000 574.7661417 0.0000009 0.0000000 574.7661417 574.7661426 0.0000015 574.7661417 574.7661426 0.0000015 574.7661417 0.0000009 0.0000000 0.0000000 0.0000002 15.4141890 574.7661417 0.0000009 0.0000000 0.0000000 0.0000009 0.0000000 574.7661417 0.0000002 15.4141890 574.7661417 0.0000002 15.4141890 0.0000000 0.0000002 15.4141890 574.7661417 0.0000009 0.0000000 0.0000000 0.0000009 0.0000000</float_array>
                    <technique_common>
                        <accessor count="80" source="#ID39" stride="3">
                            <param name="X" type="float" />
                            <param name="Y" type="float" />
                            <param name="Z" type="float" />
                        </accessor>
                    </technique_common>
                </source>
                <source id="ID31">
                    <float_array id="ID40" count="240">-0.0000000 -1.0000000 -0.0000000 -0.0000000 -1.0000000 -0.0000000 -0.0000000 -1.0000000 -0.0000000 -0.0000000 -1.0000000 -0.0000000 0.0000000 1.0000000 0.0000000 0.0000000 1.0000000 0.0000000 0.0000000 1.0000000 0.0000000 0.0000000 1.0000000 0.0000000 -0.0000000 0.0000000 -1.0000000 -0.0000000 0.0000000 -1.0000000 -0.0000000 0.0000000 -1.0000000 -0.0000000 0.0000000 -1.0000000 -0.0000000 0.0000000 -1.0000000 -0.0000000 0.0000000 -1.0000000 -0.0000000 0.0000000 -1.0000000 -0.0000000 0.0000000 -1.0000000 0.0000000 -0.0000000 1.0000000 0.0000000 -0.0000000 1.0000000 0.0000000 -0.0000000 1.0000000 0.0000000 -0.0000000 1.0000000 0.0000000 -0.0000000 1.0000000 0.0000000 -0.0000000 1.0000000 0.0000000 -0.0000000 1.0000000 0.0000000 -0.0000000 1.0000000 1.0000000 0.0000000 0.0000000 1.0000000 0.0000000 0.0000000 1.0000000 0.0000000 0.0000000 1.0000000 0.0000000 0.0000000 -1.0000000 -0.0000000 -0.0000000 -1.0000000 -0.0000000 -0.0000000 -1.0000000 -0.0000000 -0.0000000 -1.0000000 -0.0000000 -0.0000000 -0.0000000 -1.0000000 -0.0000000 -0.0000000 -1.0000000 -0.0000000 -0.0000000 -1.0000000 -0.0000000 -0.0000000 -1.0000000 -0.0000000 0.0000000 1.0000000 0.0000000 0.0000000 1.0000000 0.0000000 0.0000000 1.0000000 0.0000000 0.0000000 1.0000000 0.0000000 -1.0000000 -0.0000000 -0.0000000 -1.0000000 -0.0000000 -0.0000000 -1.0000000 -0.0000000 -0.0000000 -1.0000000 -0.0000000 -0.0000000 1.0000000 0.0000000 0.0000000 1.0000000 0.0000000 0.0000000 1.0000000 0.0000000 0.0000000 1.0000000 0.0000000 0.0000000 -0.0000000 1.0000000 0.0000000 -0.0000000 1.0000000 0.0000000 -0.0000000 1.0000000 0.0000000 -0.0000000 1.0000000 0.0000000 0.0000000 -1.0000000 -0.0000000 0.0000000 -1.0000000 -0.0000000 0.0000000 -1.0000000 -0.0000000 0.0000000 -1.0000000 -0.0000000 1.0000000 0.0000000 0.0000000 1.0000000 0.0000000 0.0000000 -1.0000000 -0.0000000 -0.0000000 -1.0000000 -0.0000000 -0.0000000 -0.0000000 -0.0000000 1.0000000 -0.0000000 -0.0000000 1.0000000 -0.0000000 -0.0000000 1.0000000 -0.0000000 -0.0000000 1.0000000 0.0000000 0.0000000 -1.0000000 0.0000000 0.0000000 -1.0000000 0.0000000 0.0000000 -1.0000000 0.0000000 0.0000000 -1.0000000 -1.0000000 -0.0000000 -0.0000000 -1.0000000 -0.0000000 -0.0000000 1.0000000 0.0000000 0.0000000 1.0000000 0.0000000 0.0000000 -0.0000000 1.0000000 0.0000000 -0.0000000 1.0000000 0.0000000 -0.0000000 1.0000000 0.0000000 -0.0000000 1.0000000 0.0000000 0.0000000 -1.0000000 -0.0000000 0.0000000 -1.0000000 -0.0000000 0.0000000 -1.0000000 -0.0000000 0.0000000 -1.0000000 -0.0000000</float_array>
                    <technique_common>
                        <accessor count="80" source="#ID40" stride="3">
                            <param name="X" type="float" />
                            <param name="Y" type="float" />
                            <param name="Z" type="float" />
                        </accessor>
                    </technique_common>
                </source>
                <source id="ID33">
                    <float_array id="ID41" count="78">6.0419499 4.9184417 6.0439952 6.0047930 6.0419601 4.9286861 6.0440054 6.0150375 0.0000000 1.0000000 0.0099952 0.0099952 0.0000000 0.0000000 0.9900048 0.0099952 0.9900048 0.9900048 1.0000000 0.0000000 0.0099952 0.9900048 1.0000000 1.0000000 5.9868342 6.0026501 5.9879112 7.0896925 5.9970770 6.0026399 5.9981540 7.0896823 6.0419601 4.9286861 6.0419890 4.9578435 6.0440343 6.0441949 6.0440054 6.0150375 6.0439952 6.0047930 4.9567821 6.0161146 4.9567720 6.0058701 5.0191156 6.1068283 4.9850999 5.0612231 5.0116484 6.0753639 4.9776327 5.0297587 5.9592115 5.9988556 5.9602885 7.0858980 5.9883640 5.9988267 5.9894410 7.0858691 1.0000000 1.0000000 0.0000000 0.0000000 6.0440343 6.0441949 4.9568110 6.0452720 5.0116484 6.0753639 4.9776327 5.0297587 4.9903957 5.9858114 4.9563799 4.9402062</float_array>
                    <technique_common>
                        <accessor count="39" source="#ID41" stride="2">
                            <param name="S" type="float" />
                            <param name="T" type="float" />
                        </accessor>
                    </technique_common>
                </source>
                <vertices id="ID32">
                    <input semantic="POSITION" source="#ID30" />
                    <input semantic="NORMAL" source="#ID31" />
                </vertices>
                <triangles count="26" material="Material2">
                    <input offset="0" semantic="VERTEX" source="#ID32" />
                    <p>0 1 2 1 0 3 8 9 10 9 8 11 9 11 12 12 11 13 10 14 15 14 10 9 15 14 13 15 13 11 24 25 26 25 24 27 32 33 34 33 32 35 40 41 42 41 40 43 48 49 50 49 48 51 56 27 24 27 56 57 60 61 62 61 60 63 43 68 41 68 43 69 72 73 74 73 72 75</p>
                </triangles>
                <triangles count="16" material="Material4">
                    <input offset="0" semantic="VERTEX" source="#ID32" />
                    <input offset="1" semantic="TEXCOORD" source="#ID33" />
                    <p>4 0 5 1 6 2 7 3 6 2 5 1 28 12 29 13 30 14 31 15 30 14 29 13 36 16 37 3 38 17 39 18 38 17 37 3 44 19 45 20 46 21 47 22 46 21 45 20 52 23 53 24 54 25 55 26 54 25 53 24 58 27 59 28 28 29 29 30 28 29 59 28 70 33 44 19 71 34 46 21 71 34 44 19 76 35 77 36 78 37 79 38 78 37 77 36</p>
                </triangles>
                <triangles count="8" material="Material3">
                    <input offset="0" semantic="VERTEX" source="#ID32" />
                    <input offset="1" semantic="TEXCOORD" source="#ID33" />
                    <p>16 4 17 5 18 6 17 5 19 7 18 6 20 8 21 9 19 7 18 6 19 7 21 9 17 5 16 4 22 10 22 10 16 4 20 8 16 4 23 11 20 8 21 9 20 8 23 11</p>
                </triangles>
                <triangles count="2" material="Material5">
                    <input offset="0" semantic="VERTEX" source="#ID32" />
                    <input offset="1" semantic="TEXCOORD" source="#ID33" />
                    <p>64 31 65 9 66 4 67 32 66 4 65 9</p>
                </triangles>
            </mesh>
        </geometry>
        <geometry id="ID42">
            <mesh>
                <source id="ID43">
                    <float_array id="ID47" count="48">44.5384252 530.2277165 20.8299838 51.1625984 523.6035433 20.8299835 44.5384252 44.5384252 20.8299862 530.2277165 530.2277165 20.8299838 523.6035433 523.6035433 20.8299835 523.6035433 51.1625984 20.8299865 51.1625984 51.1625984 20.8299865 530.2277165 44.5384252 20.8299862 530.2277165 530.2277165 20.8299838 523.6035433 51.1625984 20.8299865 530.2277165 44.5384252 20.8299862 51.1625984 51.1625984 20.8299865 51.1625984 523.6035433 20.8299835 44.5384252 44.5384252 20.8299862 523.6035433 523.6035433 20.8299835 44.5384252 530.2277165 20.8299838</float_array>
                    <technique_common>
                        <accessor count="16" source="#ID47" stride="3">
                            <param name="X" type="float" />
                            <param name="Y" type="float" />
                            <param name="Z" type="float" />
                        </accessor>
                    </technique_common>
                </source>
                <source id="ID44">
                    <float_array id="ID48" count="48">0.0000000 -0.0000000 -1.0000000 0.0000000 -0.0000000 -1.0000000 0.0000000 -0.0000000 -1.0000000 0.0000000 -0.0000000 -1.0000000 0.0000000 -0.0000000 -1.0000000 0.0000000 -0.0000000 -1.0000000 0.0000000 -0.0000000 -1.0000000 0.0000000 -0.0000000 -1.0000000 -0.0000000 0.0000000 1.0000000 -0.0000000 0.0000000 1.0000000 -0.0000000 0.0000000 1.0000000 -0.0000000 0.0000000 1.0000000 -0.0000000 0.0000000 1.0000000 -0.0000000 0.0000000 1.0000000 -0.0000000 0.0000000 1.0000000 -0.0000000 0.0000000 1.0000000</float_array>
                    <technique_common>
                        <accessor count="16" source="#ID48" stride="3">
                            <param name="X" type="float" />
                            <param name="Y" type="float" />
                            <param name="Z" type="float" />
                        </accessor>
                    </technique_common>
                </source>
                <source id="ID46">
                    <float_array id="ID49" count="16">0.0774896 0.9225104 0.0890146 0.0890146 0.0774896 0.0774896 0.9109854 0.0890146 0.9109854 0.9109854 0.9225104 0.0774896 0.0890146 0.9109854 0.9225104 0.9225104</float_array>
                    <technique_common>
                        <accessor count="8" source="#ID49" stride="2">
                            <param name="S" type="float" />
                            <param name="T" type="float" />
                        </accessor>
                    </technique_common>
                </source>
                <vertices id="ID45">
                    <input semantic="POSITION" source="#ID43" />
                    <input semantic="NORMAL" source="#ID44" />
                </vertices>
                <triangles count="8" material="Material2">
                    <input offset="0" semantic="VERTEX" source="#ID45" />
                    <p>0 1 2 1 0 3 1 3 4 4 3 5 2 6 7 6 2 1 7 6 5 7 5 3</p>
                </triangles>
                <triangles count="8" material="Material3">
                    <input offset="0" semantic="VERTEX" source="#ID45" />
                    <input offset="1" semantic="TEXCOORD" source="#ID46" />
                    <p>8 0 9 1 10 2 9 1 11 3 10 2 12 4 13 5 11 3 10 2 11 3 13 5 9 1 8 0 14 6 14 6 8 0 12 4 8 0 15 7 12 4 13 5 12 4 15 7</p>
                </triangles>
            </mesh>
        </geometry>
        <geometry id="ID50">
            <mesh>
                <source id="ID51">
                    <float_array id="ID55" count="48">5.7448819 569.0212598 20.8299855 44.5384252 530.2277165 20.8299838 5.7448819 5.7448819 20.8299845 569.0212598 569.0212598 20.8299855 530.2277165 530.2277165 20.8299838 530.2277165 44.5384252 20.8299862 44.5384252 44.5384252 20.8299862 569.0212598 5.7448819 20.8299845 569.0212598 569.0212598 20.8299855 530.2277165 44.5384252 20.8299862 569.0212598 5.7448819 20.8299845 44.5384252 44.5384252 20.8299862 44.5384252 530.2277165 20.8299838 5.7448819 5.7448819 20.8299845 530.2277165 530.2277165 20.8299838 5.7448819 569.0212598 20.8299855</float_array>
                    <technique_common>
                        <accessor count="16" source="#ID55" stride="3">
                            <param name="X" type="float" />
                            <param name="Y" type="float" />
                            <param name="Z" type="float" />
                        </accessor>
                    </technique_common>
                </source>
                <source id="ID52">
                    <float_array id="ID56" count="48">-0.0000000 -0.0000000 -1.0000000 -0.0000000 -0.0000000 -1.0000000 -0.0000000 -0.0000000 -1.0000000 -0.0000000 -0.0000000 -1.0000000 -0.0000000 -0.0000000 -1.0000000 -0.0000000 -0.0000000 -1.0000000 -0.0000000 -0.0000000 -1.0000000 -0.0000000 -0.0000000 -1.0000000 0.0000000 0.0000000 1.0000000 0.0000000 0.0000000 1.0000000 0.0000000 0.0000000 1.0000000 0.0000000 0.0000000 1.0000000 0.0000000 0.0000000 1.0000000 0.0000000 0.0000000 1.0000000 0.0000000 0.0000000 1.0000000 0.0000000 0.0000000 1.0000000</float_array>
                    <technique_common>
                        <accessor count="16" source="#ID56" stride="3">
                            <param name="X" type="float" />
                            <param name="Y" type="float" />
                            <param name="Z" type="float" />
                        </accessor>
                    </technique_common>
                </source>
                <source id="ID54">
                    <float_array id="ID57" count="16">0.0099952 0.9900048 0.0774896 0.0774896 0.0099952 0.0099952 0.9225104 0.0774896 0.9225104 0.9225104 0.9900048 0.0099952 0.0774896 0.9225104 0.9900048 0.9900048</float_array>
                    <technique_common>
                        <accessor count="8" source="#ID57" stride="2">
                            <param name="S" type="float" />
                            <param name="T" type="float" />
                        </accessor>
                    </technique_common>
                </source>
                <vertices id="ID53">
                    <input semantic="POSITION" source="#ID51" />
                    <input semantic="NORMAL" source="#ID52" />
                </vertices>
                <triangles count="8" material="Material2">
                    <input offset="0" semantic="VERTEX" source="#ID53" />
                    <p>0 1 2 1 0 3 1 3 4 4 3 5 2 6 7 6 2 1 7 6 5 7 5 3</p>
                </triangles>
                <triangles count="8" material="Material3">
                    <input offset="0" semantic="VERTEX" source="#ID53" />
                    <input offset="1" semantic="TEXCOORD" source="#ID54" />
                    <p>8 0 9 1 10 2 9 1 11 3 10 2 12 4 13 5 11 3 10 2 11 3 13 5 9 1 8 0 14 6 14 6 8 0 12 4 8 0 15 7 12 4 13 5 12 4 15 7</p>
                </triangles>
            </mesh>
        </geometry>
    </library_geometries>
    <library_materials>
        <material id="ID5" name="__auto_">
            <instance_effect url="#ID6" />
        </material>
        <material id="ID10" name="board10">
            <instance_effect url="#ID11" />
        </material>
        <material id="ID16" name="board10_0">
            <instance_effect url="#ID17" />
        </material>
        <material id="ID21" name="board10_1">
            <instance_effect url="#ID22" />
        </material>
        <material id="ID34" name="board10_2">
            <instance_effect url="#ID35" />
        </material>
    </library_materials>
    <library_effects>
        <effect id="ID6">
            <profile_COMMON>
                <technique sid="COMMON">
                    <lambert>
                        <diffuse>
                            <color>0.6392157 0.6392157 0.6392157 1.0000000</color>
                        </diffuse>
                    </lambert>
                </technique>
            </profile_COMMON>
        </effect>
        <effect id="ID11">
            <profile_COMMON>
                <newparam sid="ID13">
                    <surface type="2D">
                        <init_from>ID12</init_from>
                    </surface>
                </newparam>
                <newparam sid="ID14">
                    <sampler2D>
                        <source>ID13</source>
                    </sampler2D>
                </newparam>
                <technique sid="COMMON">
                    <lambert>
                        <diffuse>
                            <texture texture="ID14" texcoord="UVSET0" />
                        </diffuse>
                    </lambert>
                </technique>
            </profile_COMMON>
        </effect>
        <effect id="ID17">
            <profile_COMMON>
                <newparam sid="ID19">
                    <surface type="2D">
                        <init_from>ID18</init_from>
                    </surface>
                </newparam>
                <newparam sid="ID20">
                    <sampler2D>
                        <source>ID19</source>
                    </sampler2D>
                </newparam>
                <technique sid="COMMON">
                    <lambert>
                        <diffuse>
                            <texture texture="ID20" texcoord="UVSET0" />
                        </diffuse>
                    </lambert>
                </technique>
            </profile_COMMON>
        </effect>
        <effect id="ID22">
            <profile_COMMON>
                <newparam sid="ID24">
                    <surface type="2D">
                        <init_from>ID23</init_from>
                    </surface>
                </newparam>
                <newparam sid="ID25">
                    <sampler2D>
                        <source>ID24</source>
                    </sampler2D>
                </newparam>
                <technique sid="COMMON">
                    <lambert>
                        <diffuse>
                            <texture texture="ID25" texcoord="UVSET0" />
                        </diffuse>
                    </lambert>
                </technique>
            </profile_COMMON>
        </effect>
        <effect id="ID35">
            <profile_COMMON>
                <newparam sid="ID37">
                    <surface type="2D">
                        <init_from>ID36</init_from>
                    </surface>
                </newparam>
                <newparam sid="ID38">
                    <sampler2D>
                        <source>ID37</source>
                    </sampler2D>
                </newparam>
                <technique sid="COMMON">
                    <lambert>
                        <diffuse>
                            <texture texture="ID38" texcoord="UVSET0" />
                        </diffuse>
                    </lambert>
                </technique>
            </profile_COMMON>
        </effect>
    </library_effects>
    <library_images>
        <image id="ID12">
            <init_from>board/board10.png</init_from>
        </image>
        <image id="ID18">
            <init_from>board/board10_0.png</init_from>
        </image>
        <image id="ID23">
            <init_from>board/board10_1.png</init_from>
        </image>
        <image id="ID36">
            <init_from>board/board10_2.png</init_from>
        </image>
    </library_images>
    <scene>
        <instance_visual_scene url="#ID2" />
    </scene>
</COLLADA>
