<?xml version="1.0" encoding="UTF-8" standalone="no" ?>
<COLLADA xmlns="http://www.collada.org/2005/11/COLLADASchema" version="1.4.1">
    <asset>
        <contributor>
            <authoring_tool>SketchUp 17.0.18898</authoring_tool>
        </contributor>
        <created>2016-11-12T17:44:38Z</created>
        <modified>2016-11-12T17:44:38Z</modified>
        <unit meter="0.0254000" name="inch" />
        <up_axis>Z_UP</up_axis>
    </asset>
    <library_cameras>
        <camera id="ID1" name="skp_camera_Last_Saved_SketchUp_View">
            <optics>
                <technique_common>
                    <perspective>
                        <yfov>35.0000000</yfov>
                        <aspect_ratio>0.0000000</aspect_ratio>
                        <znear>1.0000000</znear>
                        <zfar>1000.0000000</zfar>
                    </perspective>
                </technique_common>
            </optics>
        </camera>
    </library_cameras>
    <library_visual_scenes>
        <visual_scene id="ID2">
            <node name="SketchUp">
                <node name="skp_camera_Last_Saved_SketchUp_View">
                    <matrix>0.5453676 0.3282265 -0.7712597 -92.6060944 -0.8381970 0.2135585 -0.5018153 -60.3927345 0.0000000 0.9201413 0.3915864 75.6396255 0.0000000 0.0000000 0.0000000 1.0000000</matrix>
                    <instance_camera url="#ID1" />
                </node>
                <node id="ID3" name="group_0">
                    <matrix>1.0000000 0.0000000 0.0000000 -19.8357342 0.0000000 1.0000000 0.0000000 -18.9270237 0.0000000 0.0000000 1.0000000 -0.0000008 0.0000000 0.0000000 0.0000000 1.0000000</matrix>
                    <instance_geometry url="#ID4">
                        <bind_material>
                            <technique_common>
                                <instance_material symbol="Material2" target="#ID5">
                                    <bind_vertex_input semantic="UVSET0" input_semantic="TEXCOORD" input_set="0" />
                                </instance_material>
                                <instance_material symbol="Material3" target="#ID10">
                                    <bind_vertex_input semantic="UVSET0" input_semantic="TEXCOORD" input_set="0" />
                                </instance_material>
                            </technique_common>
                        </bind_material>
                    </instance_geometry>
                    <instance_geometry url="#ID19">
                        <bind_material>
                            <technique_common>
                                <instance_material symbol="Material2" target="#ID5">
                                    <bind_vertex_input semantic="UVSET0" input_semantic="TEXCOORD" input_set="0" />
                                </instance_material>
                                <instance_material symbol="Material3" target="#ID10">
                                    <bind_vertex_input semantic="UVSET0" input_semantic="TEXCOORD" input_set="0" />
                                </instance_material>
                            </technique_common>
                        </bind_material>
                    </instance_geometry>
                </node>
            </node>
        </visual_scene>
    </library_visual_scenes>
    <library_geometries>
        <geometry id="ID4">
            <mesh>
                <source id="ID7">
                    <float_array id="ID16" count="2862">12.4377625 27.7435188 21.7681075 13.6504553 20.0176278 23.1611229 8.5014047 20.9255452 21.7681072 15.7985653 23.7382707 23.1611231 15.7985653 23.7382707 23.1611231 12.4377625 27.7435188 21.7681075 13.6504553 20.0176278 23.1611229 8.5014047 20.9255452 21.7681072 12.4978767 27.6718812 17.8901351 8.5014047 20.9255452 21.7681072 8.5935031 20.9093068 17.8901348 12.4377625 27.7435188 21.7681075 12.4377625 27.7435188 21.7681075 12.4978767 27.6718812 17.8901351 8.5014047 20.9255452 21.7681072 8.5935031 20.9093068 17.8901348 19.8356970 30.4361487 21.7681076 15.7985653 23.7382707 23.1611231 12.4377625 27.7435188 21.7681075 19.8356974 25.2076644 23.1611231 19.8356974 25.2076644 23.1611231 19.8356970 30.4361487 21.7681076 15.7985653 23.7382707 23.1611231 12.4377625 27.7435188 21.7681075 13.6504553 20.0176278 23.1611229 15.8850417 23.6352153 29.2157609 13.7829396 19.9942669 29.2157607 15.7985653 23.7382707 23.1611231 15.7985653 23.7382707 23.1611231 13.6504553 20.0176278 23.1611229 15.8850417 23.6352153 29.2157609 13.7829396 19.9942669 29.2157607 13.6504553 20.0176278 23.1611229 9.8684911 13.1724322 21.7681069 8.5014047 20.9255452 21.7681072 14.3964867 15.7866723 23.1611227 14.3964867 15.7866723 23.1611227 13.6504553 20.0176278 23.1611229 9.8684911 13.1724322 21.7681069 8.5014047 20.9255452 21.7681072 8.1949283 32.7999365 13.1364187 8.5935031 20.9093068 17.8901348 2.0009998 22.0717404 13.1364183 12.4978767 27.6718812 17.8901351 12.4978767 27.6718812 17.8901351 8.1949283 32.7999365 13.1364187 8.5935031 20.9093068 17.8901348 2.0009998 22.0717404 13.1364183 19.8356970 30.3426331 17.8901352 12.4377625 27.7435188 21.7681075 12.4978767 27.6718812 17.8901351 19.8356970 30.4361487 21.7681076 19.8356970 30.4361487 21.7681076 19.8356970 30.3426331 17.8901352 12.4377625 27.7435188 21.7681075 12.4978767 27.6718812 17.8901351 9.9494793 13.2191883 17.8901344 8.5014047 20.9255452 21.7681072 9.8684911 13.1724322 21.7681069 8.5935031 20.9093068 17.8901348 8.5935031 20.9093068 17.8901348 9.9494793 13.2191883 17.8901344 8.5014047 20.9255452 21.7681072 9.8684911 13.1724322 21.7681069 27.2336311 27.7435188 21.7681075 19.8356974 25.2076644 23.1611231 19.8356970 30.4361487 21.7681076 23.8728283 23.7382707 23.1611231 23.8728283 23.7382707 23.1611231 27.2336311 27.7435188 21.7681075 19.8356974 25.2076644 23.1611231 19.8356970 30.4361487 21.7681076 19.8356974 25.2076644 23.1611231 15.8850417 23.6352153 29.2157609 15.7985653 23.7382707 23.1611231 19.8356973 25.0731366 29.2157609 19.8356973 25.0731366 29.2157609 19.8356974 25.2076644 23.1611231 15.8850417 23.6352153 29.2157609 15.7985653 23.7382707 23.1611231 13.7829396 19.9942669 29.2157607 12.6915066 27.4411168 31.8189854 8.8901645 20.8569971 31.8189851 15.8850417 23.6352153 29.2157609 15.8850417 23.6352153 29.2157609 13.7829396 19.9942669 29.2157607 12.6915066 27.4411168 31.8189854 8.8901645 20.8569971 31.8189851 13.6504553 20.0176278 23.1611229 14.5129946 15.8539385 29.2157605 14.3964867 15.7866723 23.1611227 13.7829396 19.9942669 29.2157607 13.7829396 19.9942669 29.2157607 13.6504553 20.0176278 23.1611229 14.5129946 15.8539385 29.2157605 14.3964867 15.7866723 23.1611227 14.3964867 15.7866723 23.1611227 15.8993409 8.1119440 21.7681066 9.8684911 13.1724322 21.7681069 17.6875856 13.0251093 23.1611226 17.6875856 13.0251093 23.1611226 14.3964867 15.7866723 23.1611227 15.8993409 8.1119440 21.7681066 9.8684911 13.1724322 21.7681069 0.5674566 22.3245138 9.4232254 8.1949283 32.7999365 13.1364187 2.0009998 22.0717404 13.1364183 7.2592473 33.9150351 9.4232259 7.2592473 33.9150351 9.4232259 0.5674566 22.3245138 9.4232254 8.1949283 32.7999365 13.1364187 2.0009998 22.0717404 13.1364183 19.8356968 37.0368302 13.1364189 12.4978767 27.6718812 17.8901351 8.1949283 32.7999365 13.1364187 19.8356970 30.3426331 17.8901352 19.8356970 30.3426331 17.8901352 19.8356968 37.0368302 13.1364189 12.4978767 27.6718812 17.8901351 8.1949283 32.7999365 13.1364187 8.5935031 20.9093068 17.8901348 4.1521295 9.8720900 13.1364177 2.0009998 22.0717404 13.1364183 9.9494793 13.2191883 17.8901344 9.9494793 13.2191883 17.8901344 8.5935031 20.9093068 17.8901348 4.1521295 9.8720900 13.1364177 2.0009998 22.0717404 13.1364183 27.2336311 27.7435188 21.7681075 19.8356970 30.3426331 17.8901352 27.1735209 27.6718772 17.8901351 19.8356970 30.4361487 21.7681076 19.8356970 30.4361487 21.7681076 27.2336311 27.7435188 21.7681075 19.8356970 30.3426331 17.8901352 27.1735209 27.6718772 17.8901351 9.9494793 13.2191883 17.8901344 15.8993409 8.1119440 21.7681066 15.9313256 8.1998221 17.8901342 9.8684911 13.1724322 21.7681069 9.8684911 13.1724322 21.7681069 9.9494793 13.2191883 17.8901344 15.8993409 8.1119440 21.7681066 15.9313256 8.1998221 17.8901342 27.2336311 27.7435188 21.7681075 26.0209423 20.0176278 23.1611229 23.8728283 23.7382707 23.1611231 31.1699890 20.9255452 21.7681072 31.1699890 20.9255452 21.7681072 27.2336311 27.7435188 21.7681075 26.0209423 20.0176278 23.1611229 23.8728283 23.7382707 23.1611231 23.7863559 23.6352114 29.2157609 19.8356974 25.2076644 23.1611231 23.8728283 23.7382707 23.1611231 19.8356973 25.0731366 29.2157609 19.8356973 25.0731366 29.2157609 23.7863559 23.6352114 29.2157609 19.8356974 25.2076644 23.1611231 23.8728283 23.7382707 23.1611231 15.8850417 23.6352153 29.2157609 19.8356970 30.0413924 31.8189855 12.6915066 27.4411168 31.8189854 19.8356973 25.0731366 29.2157609 19.8356973 25.0731366 29.2157609 15.8850417 23.6352153 29.2157609 19.8356970 30.0413924 31.8189855 12.6915066 27.4411168 31.8189854 8.8901645 20.8569971 31.8189851 12.7828806 27.3322269 33.4441508 9.0301566 20.8323128 33.4441505 12.6915066 27.4411168 31.8189854 12.6915066 27.4411168 31.8189854 8.8901645 20.8569971 31.8189851 12.7828806 27.3322269 33.4441508 9.0301566 20.8323128 33.4441505 10.2103572 13.3698097 31.8189848 13.7829396 19.9942669 29.2157607 8.8901645 20.8569971 31.8189851 14.5129946 15.8539385 29.2157605 14.5129946 15.8539385 29.2157605 10.2103572 13.3698097 31.8189848 13.7829396 19.9942669 29.2157607 8.8901645 20.8569971 31.8189851 14.3964867 15.7866723 23.1611227 17.7335986 13.1515303 29.2157604 17.6875856 13.0251093 23.1611226 14.5129946 15.8539385 29.2157605 14.5129946 15.8539385 29.2157605 14.3964867 15.7866723 23.1611227 17.7335986 13.1515303 29.2157604 17.6875856 13.0251093 23.1611226 17.6875856 13.0251093 23.1611226 23.7720571 8.1119440 21.7681066 15.8993409 8.1119440 21.7681066 21.9838100 13.0251093 23.1611226 21.9838100 13.0251093 23.1611226 17.6875856 13.0251093 23.1611226 23.7720571 8.1119440 21.7681066 15.8993409 8.1119440 21.7681066 2.1567281 22.0442828 8.7016663 7.2592473 33.9150351 9.4232259 0.5674566 22.3245138 9.4232254 8.2965700 32.6788028 8.7016668 8.2965700 32.6788028 8.7016668 2.1567281 22.0442828 8.7016663 7.2592473 33.9150351 9.4232259 0.5674566 22.3245138 9.4232254 19.8356967 38.4924918 9.4232261 8.1949283 32.7999365 13.1364187 7.2592473 33.9150351 9.4232259 19.8356968 37.0368302 13.1364189 19.8356968 37.0368302 13.1364189 19.8356967 38.4924918 9.4232261 8.1949283 32.7999365 13.1364187 7.2592473 33.9150351 9.4232259 0.5674566 22.3245138 9.4232254 4.1521295 9.8720900 13.1364177 2.8914918 9.1442595 9.4232248 2.0009998 22.0717404 13.1364183 2.0009998 22.0717404 13.1364183 0.5674566 22.3245138 9.4232254 4.1521295 9.8720900 13.1364177 2.8914918 9.1442595 9.4232248 31.4764693 32.7999326 13.1364187 19.8356970 30.3426331 17.8901352 19.8356968 37.0368302 13.1364189 27.1735209 27.6718772 17.8901351 27.1735209 27.6718772 17.8901351 31.4764693 32.7999326 13.1364187 19.8356970 30.3426331 17.8901352 19.8356968 37.0368302 13.1364189 9.9494793 13.2191883 17.8901344 13.6417742 1.9093341 13.1364174 4.1521295 9.8720900 13.1364177 15.9313256 8.1998221 17.8901342 15.9313256 8.1998221 17.8901342 9.9494793 13.2191883 17.8901344 13.6417742 1.9093341 13.1364174 4.1521295 9.8720900 13.1364177 31.1699890 20.9255452 21.7681072 27.1735209 27.6718772 17.8901351 31.0778945 20.9093068 17.8901348 27.2336311 27.7435188 21.7681075 27.2336311 27.7435188 21.7681075 31.1699890 20.9255452 21.7681072 27.1735209 27.6718772 17.8901351 31.0778945 20.9093068 17.8901348 15.8993409 8.1119440 21.7681066 23.7400724 8.1998221 17.8901342 15.9313256 8.1998221 17.8901342 23.7720571 8.1119440 21.7681066 23.7720571 8.1119440 21.7681066 15.8993409 8.1119440 21.7681066 23.7400724 8.1998221 17.8901342 15.9313256 8.1998221 17.8901342 26.0209423 20.0176278 23.1611229 29.8029025 13.1724361 21.7681069 25.2749109 15.7866746 23.1611227 31.1699890 20.9255452 21.7681072 31.1699890 20.9255452 21.7681072 26.0209423 20.0176278 23.1611229 29.8029025 13.1724361 21.7681069 25.2749109 15.7866746 23.1611227 23.7863559 23.6352114 29.2157609 26.0209423 20.0176278 23.1611229 25.8884541 19.9942693 29.2157607 23.8728283 23.7382707 23.1611231 23.8728283 23.7382707 23.1611231 23.7863559 23.6352114 29.2157609 26.0209423 20.0176278 23.1611229 25.8884541 19.9942693 29.2157607 19.8356973 25.0731366 29.2157609 26.9798871 27.4411128 31.8189854 19.8356970 30.0413924 31.8189855 23.7863559 23.6352114 29.2157609 23.7863559 23.6352114 29.2157609 19.8356973 25.0731366 29.2157609 26.9798871 27.4411128 31.8189854 19.8356970 30.0413924 31.8189855 19.8356970 30.0413924 31.8189855 12.7828806 27.3322269 33.4441508 12.6915066 27.4411168 31.8189854 19.8356971 29.8992388 33.4441391 19.8356971 29.8992388 33.4441391 19.8356970 30.0413924 31.8189855 12.7828806 27.3322269 33.4441508 12.6915066 27.4411168 31.8189854 12.7828806 27.3322269 33.4441508 14.5728332 19.8549886 37.1380560 9.0301566 20.8323128 33.4441505 16.4006066 23.0207858 37.1380561 16.4006066 23.0207858 37.1380561 12.7828806 27.3322269 33.4441508 14.5728332 19.8549886 37.1380560 9.0301566 20.8323128 33.4441505 8.8901645 20.8569971 31.8189851 10.3334635 13.4408844 33.4441502 10.2103572 13.3698097 31.8189848 9.0301566 20.8323128 33.4441505 9.0301566 20.8323128 33.4441505 8.8901645 20.8569971 31.8189851 10.3334635 13.4408844 33.4441502 10.2103572 13.3698097 31.8189848 16.0343547 8.4828924 31.8189846 14.5129946 15.8539385 29.2157605 10.2103572 13.3698097 31.8189848 17.7335986 13.1515303 29.2157604 17.7335986 13.1515303 29.2157604 16.0343547 8.4828924 31.8189846 14.5129946 15.8539385 29.2157605 10.2103572 13.3698097 31.8189848 17.7335986 13.1515303 29.2157604 21.9838100 13.0251093 23.1611226 17.6875856 13.0251093 23.1611226 21.9377994 13.1515303 29.2157604 21.9377994 13.1515303 29.2157604 17.7335986 13.1515303 29.2157604 21.9838100 13.0251093 23.1611226 17.6875856 13.0251093 23.1611226 25.2749109 15.7866746 23.1611227 23.7720571 8.1119440 21.7681066 21.9838100 13.0251093 23.1611226 29.8029025 13.1724361 21.7681069 29.8029025 13.1724361 21.7681069 25.2749109 15.7866746 23.1611227 23.7720571 8.1119440 21.7681066 21.9838100 13.0251093 23.1611226 7.2592473 33.9150351 7.9801078 2.1567281 22.0442828 8.7016663 0.5674566 22.3245139 7.9801073 8.2965700 32.6788028 8.7016668 8.2965700 32.6788028 8.7016668 7.2592473 33.9150351 7.9801078 2.1567281 22.0442828 8.7016663 0.5674566 22.3245139 7.9801073 8.2965700 32.6788028 8.7016668 19.8356967 38.4924918 9.4232261 7.2592473 33.9150351 9.4232259 19.8356968 36.8787044 8.7016669 19.8356968 36.8787044 8.7016669 8.2965700 32.6788028 8.7016668 19.8356967 38.4924918 9.4232261 7.2592473 33.9150351 9.4232259 2.8914918 9.1442595 9.4232248 2.1567281 22.0442828 8.7016663 0.5674566 22.3245138 9.4232254 4.2890704 9.9511532 8.7016658 4.2890704 9.9511532 8.7016658 2.8914918 9.1442595 9.4232248 2.1567281 22.0442828 8.7016663 0.5674566 22.3245138 9.4232254 31.4764693 32.7999326 13.1364187 19.8356967 38.4924918 9.4232261 32.4121503 33.9150351 9.4232259 19.8356968 37.0368302 13.1364189 19.8356968 37.0368302 13.1364189 31.4764693 32.7999326 13.1364187 19.8356967 38.4924918 9.4232261 32.4121503 33.9150351 9.4232259 2.8914918 9.1442595 9.4232248 13.6417742 1.9093341 13.1364174 13.1439121 0.5414603 9.4232244 4.1521295 9.8720900 13.1364177 4.1521295 9.8720900 13.1364177 2.8914918 9.1442595 9.4232248 13.6417742 1.9093341 13.1364174 13.1439121 0.5414603 9.4232244 31.4764693 32.7999326 13.1364187 31.0778945 20.9093068 17.8901348 27.1735209 27.6718772 17.8901351 37.6703899 22.0717428 13.1364183 37.6703899 22.0717428 13.1364183 31.4764693 32.7999326 13.1364187 31.0778945 20.9093068 17.8901348 27.1735209 27.6718772 17.8901351 15.9313256 8.1998221 17.8901342 26.0296273 1.9093341 13.1364174 13.6417742 1.9093341 13.1364174 23.7400724 8.1998221 17.8901342 23.7400724 8.1998221 17.8901342 15.9313256 8.1998221 17.8901342 26.0296273 1.9093341 13.1364174 13.6417742 1.9093341 13.1364174 31.1699890 20.9255452 21.7681072 29.7219183 13.2191922 17.8901344 29.8029025 13.1724361 21.7681069 31.0778945 20.9093068 17.8901348 31.0778945 20.9093068 17.8901348 31.1699890 20.9255452 21.7681072 29.7219183 13.2191922 17.8901344 29.8029025 13.1724361 21.7681069 23.7720571 8.1119440 21.7681066 29.7219183 13.2191922 17.8901344 23.7400724 8.1998221 17.8901342 29.8029025 13.1724361 21.7681069 29.8029025 13.1724361 21.7681069 23.7720571 8.1119440 21.7681066 29.7219183 13.2191922 17.8901344 23.7400724 8.1998221 17.8901342 25.1584030 15.8539385 29.2157605 26.0209423 20.0176278 23.1611229 25.2749109 15.7866746 23.1611227 25.8884541 19.9942693 29.2157607 25.8884541 19.9942693 29.2157607 25.1584030 15.8539385 29.2157605 26.0209423 20.0176278 23.1611229 25.2749109 15.7866746 23.1611227 25.8884541 19.9942693 29.2157607 26.9798871 27.4411128 31.8189854 23.7863559 23.6352114 29.2157609 30.7812292 20.8569971 31.8189851 30.7812292 20.8569971 31.8189851 25.8884541 19.9942693 29.2157607 26.9798871 27.4411128 31.8189854 23.7863559 23.6352114 29.2157609 26.8885131 27.3322230 33.4441508 19.8356970 30.0413924 31.8189855 26.9798871 27.4411128 31.8189854 19.8356971 29.8992388 33.4441391 19.8356971 29.8992388 33.4441391 26.8885131 27.3322230 33.4441508 19.8356970 30.0413924 31.8189855 26.9798871 27.4411128 31.8189854 19.8356971 29.8992388 33.4441391 16.4006066 23.0207858 37.1380561 12.7828806 27.3322269 33.4441508 19.8356973 24.2710575 37.1380562 19.8356973 24.2710575 37.1380562 19.8356971 29.8992388 33.4441391 16.4006066 23.0207858 37.1380561 12.7828806 27.3322269 33.4441508 14.5728332 19.8549886 37.1380560 16.6771157 22.6912570 39.3222490 14.9964670 19.7802905 39.3222489 16.4006066 23.0207858 37.1380561 16.4006066 23.0207858 37.1380561 14.5728332 19.8549886 37.1380560 16.6771157 22.6912570 39.3222490 14.9964670 19.7802905 39.3222489 14.5728332 19.8549886 37.1380560 10.3334635 13.4408844 33.4441502 9.0301566 20.8323128 33.4441505 15.2076127 16.2549764 37.1380558 15.2076127 16.2549764 37.1380558 14.5728332 19.8549886 37.1380560 10.3334635 13.4408844 33.4441502 9.0301566 20.8323128 33.4441505 10.2103572 13.3698097 31.8189848 16.0829724 8.6164710 33.4441382 16.0343547 8.4828924 31.8189846 10.3334635 13.4408844 33.4441502 10.3334635 13.4408844 33.4441502 10.2103572 13.3698097 31.8189848 16.0829724 8.6164710 33.4441382 16.0343547 8.4828924 31.8189846 23.6370433 8.4828924 31.8189846 17.7335986 13.1515303 29.2157604 16.0343547 8.4828924 31.8189846 21.9377994 13.1515303 29.2157604 21.9377994 13.1515303 29.2157604 23.6370433 8.4828924 31.8189846 17.7335986 13.1515303 29.2157604 16.0343547 8.4828924 31.8189846 21.9377994 13.1515303 29.2157604 25.2749109 15.7866746 23.1611227 21.9838100 13.0251093 23.1611226 25.1584030 15.8539385 29.2157605 25.1584030 15.8539385 29.2157605 21.9377994 13.1515303 29.2157604 25.2749109 15.7866746 23.1611227 21.9838100 13.0251093 23.1611226 0.0000000 22.4245724 1.4431159 7.2592473 33.9150351 7.9801078 0.5674566 22.3245139 7.9801073 6.8888655 34.3564409 1.4431164 6.8888655 34.3564409 1.4431164 0.0000000 22.4245724 1.4431159 7.2592473 33.9150351 7.9801078 0.5674566 22.3245139 7.9801073 19.8356967 38.4924918 7.9801080 8.2965700 32.6788028 8.7016668 7.2592473 33.9150351 7.9801078 19.8356968 36.8787044 8.7016669 19.8356968 36.8787044 8.7016669 19.8356967 38.4924918 7.9801080 8.2965700 32.6788028 8.7016668 7.2592473 33.9150351 7.9801078 2.1567281 22.0442828 8.7016663 2.8914918 9.1442596 7.9801067 0.5674566 22.3245139 7.9801073 4.2890704 9.9511532 8.7016658 4.2890704 9.9511532 8.7016658 2.1567281 22.0442828 8.7016663 2.8914918 9.1442596 7.9801067 0.5674566 22.3245139 7.9801073 19.8356968 36.8787044 8.7016669 32.4121503 33.9150351 9.4232259 19.8356967 38.4924918 9.4232261 31.3748276 32.6787989 8.7016668 31.3748276 32.6787989 8.7016668 19.8356968 36.8787044 8.7016669 32.4121503 33.9150351 9.4232259 19.8356967 38.4924918 9.4232261 13.1439121 0.5414603 9.4232244 4.2890704 9.9511532 8.7016658 2.8914918 9.1442595 9.4232248 13.6958569 2.0579249 8.7016654 13.6958569 2.0579249 8.7016654 13.1439121 0.5414603 9.4232244 4.2890704 9.9511532 8.7016658 2.8914918 9.1442595 9.4232248 31.4764693 32.7999326 13.1364187 39.1039370 22.3245158 9.4232254 37.6703899 22.0717428 13.1364183 32.4121503 33.9150351 9.4232259 32.4121503 33.9150351 9.4232259 31.4764693 32.7999326 13.1364187 39.1039370 22.3245158 9.4232254 37.6703899 22.0717428 13.1364183 13.6417742 1.9093341 13.1364174 26.5274895 0.5414603 9.4232244 13.1439121 0.5414603 9.4232244 26.0296273 1.9093341 13.1364174 26.0296273 1.9093341 13.1364174 13.6417742 1.9093341 13.1364174 26.5274895 0.5414603 9.4232244 13.1439121 0.5414603 9.4232244 31.0778945 20.9093068 17.8901348 35.5192681 9.8720940 13.1364177 29.7219183 13.2191922 17.8901344 37.6703899 22.0717428 13.1364183 37.6703899 22.0717428 13.1364183 31.0778945 20.9093068 17.8901348 35.5192681 9.8720940 13.1364177 29.7219183 13.2191922 17.8901344 29.7219183 13.2191922 17.8901344 26.0296273 1.9093341 13.1364174 23.7400724 8.1998221 17.8901342 35.5192681 9.8720940 13.1364177 35.5192681 9.8720940 13.1364177 29.7219183 13.2191922 17.8901344 26.0296273 1.9093341 13.1364174 23.7400724 8.1998221 17.8901342 29.4610325 13.3698136 31.8189848 25.8884541 19.9942693 29.2157607 25.1584030 15.8539385 29.2157605 30.7812292 20.8569971 31.8189851 30.7812292 20.8569971 31.8189851 29.4610325 13.3698136 31.8189848 25.8884541 19.9942693 29.2157607 25.1584030 15.8539385 29.2157605 26.8885131 27.3322230 33.4441508 30.7812292 20.8569971 31.8189851 30.6412371 20.8323128 33.4441387 26.9798871 27.4411128 31.8189854 26.9798871 27.4411128 31.8189854 26.8885131 27.3322230 33.4441508 30.7812292 20.8569971 31.8189851 30.6412371 20.8323128 33.4441387 26.8885131 27.3322230 33.4441508 19.8356973 24.2710575 37.1380562 19.8356971 29.8992388 33.4441391 23.2707894 23.0207858 37.1380561 23.2707894 23.0207858 37.1380561 26.8885131 27.3322230 33.4441508 19.8356973 24.2710575 37.1380562 19.8356971 29.8992388 33.4441391 19.8356973 24.2710575 37.1380562 16.6771157 22.6912570 39.3222490 16.4006066 23.0207858 37.1380561 19.8356973 23.8408881 39.3222491 19.8356973 23.8408881 39.3222491 19.8356973 24.2710575 37.1380562 16.6771157 22.6912570 39.3222490 16.4006066 23.0207858 37.1380561 14.5728332 19.8549886 37.1380560 15.5801520 16.4700625 39.3222487 15.2076127 16.2549764 37.1380558 14.9964670 19.7802905 39.3222489 14.9964670 19.7802905 39.3222489 14.5728332 19.8549886 37.1380560 15.5801520 16.4700625 39.3222487 15.2076127 16.2549764 37.1380558 15.2076127 16.2549764 37.1380558 16.0829724 8.6164710 33.4441382 10.3334635 13.4408844 33.4441502 18.0079254 13.9052347 37.1380557 18.0079254 13.9052347 37.1380557 15.2076127 16.2549764 37.1380558 16.0829724 8.6164710 33.4441382 10.3334635 13.4408844 33.4441502 16.0829724 8.6164710 33.4441382 23.6370433 8.4828924 31.8189846 16.0343547 8.4828924 31.8189846 23.5884256 8.6164710 33.4441500 23.5884256 8.6164710 33.4441500 16.0829724 8.6164710 33.4441382 23.6370433 8.4828924 31.8189846 16.0343547 8.4828924 31.8189846 23.6370433 8.4828924 31.8189846 25.1584030 15.8539385 29.2157605 21.9377994 13.1515303 29.2157604 29.4610325 13.3698136 31.8189848 29.4610325 13.3698136 31.8189848 23.6370433 8.4828924 31.8189846 25.1584030 15.8539385 29.2157605 21.9377994 13.1515303 29.2157604 7.1562906 34.0377323 0.0000015 0.0000000 22.4245724 1.4431159 0.4097204 22.3523264 0.0000010 6.8888655 34.3564409 1.4431164 6.8888655 34.3564409 1.4431164 7.1562906 34.0377323 0.0000015 0.0000000 22.4245724 1.4431159 0.4097204 22.3523264 0.0000010 19.8356967 39.0687047 1.4431167 7.2592473 33.9150351 7.9801078 6.8888655 34.3564409 1.4431164 19.8356967 38.4924918 7.9801080 19.8356967 38.4924918 7.9801080 19.8356967 39.0687047 1.4431167 7.2592473 33.9150351 7.9801078 6.8888655 34.3564409 1.4431164 0.0000000 22.4245724 1.4431159 2.8914918 9.1442596 7.9801067 2.3924801 8.8561535 1.4431177 0.5674566 22.3245139 7.9801073 0.5674566 22.3245139 7.9801073 0.0000000 22.4245724 1.4431159 2.8914918 9.1442596 7.9801067 2.3924801 8.8561535 1.4431177 32.4121503 33.9150351 7.9801078 19.8356968 36.8787044 8.7016669 19.8356967 38.4924918 7.9801080 31.3748276 32.6787989 8.7016668 31.3748276 32.6787989 8.7016668 32.4121503 33.9150351 7.9801078 19.8356968 36.8787044 8.7016669 19.8356967 38.4924918 7.9801080 4.2890704 9.9511532 8.7016658 13.1439121 0.5414603 7.9801063 2.8914918 9.1442596 7.9801067 13.6958569 2.0579249 8.7016654 13.6958569 2.0579249 8.7016654 4.2890704 9.9511532 8.7016658 13.1439121 0.5414603 7.9801063 2.8914918 9.1442596 7.9801067 37.5146655 22.0442828 8.7016663 32.4121503 33.9150351 9.4232259 31.3748276 32.6787989 8.7016668 39.1039370 22.3245158 9.4232254 39.1039370 22.3245158 9.4232254 37.5146655 22.0442828 8.7016663 32.4121503 33.9150351 9.4232259 31.3748276 32.6787989 8.7016668 26.5274895 0.5414603 9.4232244 13.6958569 2.0579249 8.7016654 13.1439121 0.5414603 9.4232244 25.9755446 2.0579249 8.7016654 25.9755446 2.0579249 8.7016654 26.5274895 0.5414603 9.4232244 13.6958569 2.0579249 8.7016654 13.1439121 0.5414603 9.4232244 35.5192681 9.8720940 13.1364177 39.1039370 22.3245158 9.4232254 36.7799058 9.1442634 9.4232248 37.6703899 22.0717428 13.1364183 37.6703899 22.0717428 13.1364183 35.5192681 9.8720940 13.1364177 39.1039370 22.3245158 9.4232254 36.7799058 9.1442634 9.4232248 26.0296273 1.9093341 13.1364174 36.7799058 9.1442634 9.4232248 26.5274895 0.5414603 9.4232244 35.5192681 9.8720940 13.1364177 35.5192681 9.8720940 13.1364177 26.0296273 1.9093341 13.1364174 36.7799058 9.1442634 9.4232248 26.5274895 0.5414603 9.4232244 29.3379301 13.4408884 33.4441502 30.7812292 20.8569971 31.8189851 29.4610325 13.3698136 31.8189848 30.6412371 20.8323128 33.4441387 30.6412371 20.8323128 33.4441387 29.3379301 13.4408884 33.4441502 30.7812292 20.8569971 31.8189851 29.4610325 13.3698136 31.8189848 26.8885131 27.3322230 33.4441508 25.0985605 19.8549886 37.1380560 23.2707894 23.0207858 37.1380561 30.6412371 20.8323128 33.4441387 30.6412371 20.8323128 33.4441387 26.8885131 27.3322230 33.4441508 25.0985605 19.8549886 37.1380560 23.2707894 23.0207858 37.1380561 22.9942800 22.6912546 39.3222490 19.8356973 24.2710575 37.1380562 23.2707894 23.0207858 37.1380561 19.8356973 23.8408881 39.3222491 19.8356973 23.8408881 39.3222491 22.9942800 22.6912546 39.3222490 19.8356973 24.2710575 37.1380562 23.2707894 23.0207858 37.1380561 15.2076127 16.2549764 37.1380558 18.1550525 14.3094668 39.3222486 18.0079254 13.9052347 37.1380557 15.5801520 16.4700625 39.3222487 15.5801520 16.4700625 39.3222487 15.2076127 16.2549764 37.1380558 18.1550525 14.3094668 39.3222486 18.0079254 13.9052347 37.1380557 18.0079254 13.9052347 37.1380557 23.5884256 8.6164710 33.4441500 16.0829724 8.6164710 33.4441382 21.6634726 13.9052347 37.1380557 21.6634726 13.9052347 37.1380557 18.0079254 13.9052347 37.1380557 23.5884256 8.6164710 33.4441500 16.0829724 8.6164710 33.4441382 23.5884256 8.6164710 33.4441500 29.4610325 13.3698136 31.8189848 23.6370433 8.4828924 31.8189846 29.3379301 13.4408884 33.4441502 29.3379301 13.4408884 33.4441502 23.5884256 8.6164710 33.4441500 29.4610325 13.3698136 31.8189848 23.6370433 8.4828924 31.8189846 2.7527832 9.0641772 0.0000004 7.1562906 34.0377323 0.0000015 0.4097204 22.3523264 0.0000010 13.0891286 0.3909528 0.0000000 19.8356967 38.6526615 0.0000017 26.5822729 0.3909568 0.0000000 32.5151030 34.0377323 0.0000015 36.9186105 9.0641812 0.0000004 39.2616693 22.3523264 0.0000010 39.2616693 22.3523264 0.0000010 36.9186105 9.0641812 0.0000004 32.5151030 34.0377323 0.0000015 26.5822729 0.3909568 0.0000000 19.8356967 38.6526615 0.0000017 13.0891286 0.3909528 0.0000000 7.1562906 34.0377323 0.0000015 2.7527832 9.0641772 0.0000004 0.4097204 22.3523264 0.0000010 19.8356967 38.6526615 0.0000017 6.8888655 34.3564409 1.4431164 7.1562906 34.0377323 0.0000015 19.8356967 39.0687047 1.4431167 19.8356967 39.0687047 1.4431167 19.8356967 38.6526615 0.0000017 6.8888655 34.3564409 1.4431164 7.1562906 34.0377323 0.0000015 2.7527832 9.0641772 0.0000004 0.0000000 22.4245724 1.4431159 2.3924801 8.8561535 1.4431177 0.4097204 22.3523264 0.0000010 0.4097204 22.3523264 0.0000010 2.7527832 9.0641772 0.0000004 0.0000000 22.4245724 1.4431159 2.3924801 8.8561535 1.4431177 32.4121503 33.9150351 7.9801078 19.8356967 39.0687047 1.4431167 32.7825322 34.3564370 1.4431164 19.8356967 38.4924918 7.9801080 19.8356967 38.4924918 7.9801080 32.4121503 33.9150351 7.9801078 19.8356967 39.0687047 1.4431167 32.7825322 34.3564370 1.4431164 2.3924801 8.8561535 1.4431177 13.1439121 0.5414603 7.9801063 12.9468373 0.0000000 1.4431173 2.8914918 9.1442596 7.9801067 2.8914918 9.1442596 7.9801067 2.3924801 8.8561535 1.4431177 13.1439121 0.5414603 7.9801063 12.9468373 0.0000000 1.4431173 32.4121503 33.9150351 7.9801078 37.5146655 22.0442828 8.7016663 31.3748276 32.6787989 8.7016668 39.1039370 22.3245159 7.9801073 39.1039370 22.3245159 7.9801073 32.4121503 33.9150351 7.9801078 37.5146655 22.0442828 8.7016663 31.3748276 32.6787989 8.7016668 13.6958569 2.0579249 8.7016654 26.5274895 0.5414603 7.9801063 13.1439121 0.5414603 7.9801063 25.9755446 2.0579249 8.7016654 25.9755446 2.0579249 8.7016654 13.6958569 2.0579249 8.7016654 26.5274895 0.5414603 7.9801063 13.1439121 0.5414603 7.9801063 36.7799058 9.1442634 9.4232248 37.5146655 22.0442828 8.7016663 35.3823232 9.9511572 8.7016658 39.1039370 22.3245158 9.4232254 39.1039370 22.3245158 9.4232254 36.7799058 9.1442634 9.4232248 37.5146655 22.0442828 8.7016663 35.3823232 9.9511572 8.7016658 26.5274895 0.5414603 9.4232244 35.3823232 9.9511572 8.7016658 25.9755446 2.0579249 8.7016654 36.7799058 9.1442634 9.4232248 36.7799058 9.1442634 9.4232248 26.5274895 0.5414603 9.4232244 35.3823232 9.9511572 8.7016658 25.9755446 2.0579249 8.7016654 25.0985605 19.8549886 37.1380560 29.3379301 13.4408884 33.4441502 24.4637850 16.2549788 37.1380558 30.6412371 20.8323128 33.4441387 30.6412371 20.8323128 33.4441387 25.0985605 19.8549886 37.1380560 29.3379301 13.4408884 33.4441502 24.4637850 16.2549788 37.1380558 22.9942800 22.6912546 39.3222490 25.0985605 19.8549886 37.1380560 24.6749267 19.7802905 39.3222489 23.2707894 23.0207858 37.1380561 23.2707894 23.0207858 37.1380561 22.9942800 22.6912546 39.3222490 25.0985605 19.8549886 37.1380560 24.6749267 19.7802905 39.3222489 18.1550525 14.3094668 39.3222486 21.6634726 13.9052347 37.1380557 18.0079254 13.9052347 37.1380557 21.5163455 14.3094668 39.3222486 21.5163455 14.3094668 39.3222486 18.1550525 14.3094668 39.3222486 21.6634726 13.9052347 37.1380557 18.0079254 13.9052347 37.1380557 24.4637850 16.2549788 37.1380558 23.5884256 8.6164710 33.4441500 21.6634726 13.9052347 37.1380557 29.3379301 13.4408884 33.4441502 29.3379301 13.4408884 33.4441502 24.4637850 16.2549788 37.1380558 23.5884256 8.6164710 33.4441500 21.6634726 13.9052347 37.1380557 2.7527832 9.0641772 0.0000004 12.9468373 0.0000000 1.4431173 13.0891286 0.3909528 0.0000000 2.3924801 8.8561535 1.4431177 2.3924801 8.8561535 1.4431177 2.7527832 9.0641772 0.0000004 12.9468373 0.0000000 1.4431173 13.0891286 0.3909528 0.0000000 12.9468373 0.0000000 1.4431173 26.5822729 0.3909568 0.0000000 13.0891286 0.3909528 0.0000000 26.7245682 0.0000039 1.4431173 26.7245682 0.0000039 1.4431173 12.9468373 0.0000000 1.4431173 26.5822729 0.3909568 0.0000000 13.0891286 0.3909528 0.0000000 26.7245682 0.0000039 1.4431173 36.9186105 9.0641812 0.0000004 26.5822729 0.3909568 0.0000000 37.2789175 8.8561575 1.4431177 37.2789175 8.8561575 1.4431177 26.7245682 0.0000039 1.4431173 36.9186105 9.0641812 0.0000004 26.5822729 0.3909568 0.0000000 39.6713937 22.4245724 1.4431159 36.9186105 9.0641812 0.0000004 37.2789175 8.8561575 1.4431177 39.2616693 22.3523264 0.0000010 39.2616693 22.3523264 0.0000010 39.6713937 22.4245724 1.4431159 36.9186105 9.0641812 0.0000004 37.2789175 8.8561575 1.4431177 39.6713937 22.4245724 1.4431159 32.5151030 34.0377323 0.0000015 39.2616693 22.3523264 0.0000010 32.7825322 34.3564370 1.4431164 32.7825322 34.3564370 1.4431164 39.6713937 22.4245724 1.4431159 32.5151030 34.0377323 0.0000015 39.2616693 22.3523264 0.0000010 32.7825322 34.3564370 1.4431164 19.8356967 38.6526615 0.0000017 32.5151030 34.0377323 0.0000015 19.8356967 39.0687047 1.4431167 19.8356967 39.0687047 1.4431167 32.7825322 34.3564370 1.4431164 19.8356967 38.6526615 0.0000017 32.5151030 34.0377323 0.0000015 32.4121503 33.9150351 7.9801078 39.6713937 22.4245724 1.4431159 39.1039370 22.3245159 7.9801073 32.7825322 34.3564370 1.4431164 32.7825322 34.3564370 1.4431164 32.4121503 33.9150351 7.9801078 39.6713937 22.4245724 1.4431159 39.1039370 22.3245159 7.9801073 13.1439121 0.5414603 7.9801063 26.7245682 0.0000039 1.4431173 12.9468373 0.0000000 1.4431173 26.5274895 0.5414603 7.9801063 26.5274895 0.5414603 7.9801063 13.1439121 0.5414603 7.9801063 26.7245682 0.0000039 1.4431173 12.9468373 0.0000000 1.4431173 37.5146655 22.0442828 8.7016663 36.7799058 9.1442635 7.9801067 35.3823232 9.9511572 8.7016658 39.1039370 22.3245159 7.9801073 39.1039370 22.3245159 7.9801073 37.5146655 22.0442828 8.7016663 36.7799058 9.1442635 7.9801067 35.3823232 9.9511572 8.7016658 35.3823232 9.9511572 8.7016658 26.5274895 0.5414603 7.9801063 25.9755446 2.0579249 8.7016654 36.7799058 9.1442635 7.9801067 36.7799058 9.1442635 7.9801067 35.3823232 9.9511572 8.7016658 26.5274895 0.5414603 7.9801063 25.9755446 2.0579249 8.7016654 24.0912417 16.4700649 39.3222487 25.0985605 19.8549886 37.1380560 24.4637850 16.2549788 37.1380558 24.6749267 19.7802905 39.3222489 24.6749267 19.7802905 39.3222489 24.0912417 16.4700649 39.3222487 25.0985605 19.8549886 37.1380560 24.4637850 16.2549788 37.1380558 21.5163455 14.3094668 39.3222486 24.4637850 16.2549788 37.1380558 21.6634726 13.9052347 37.1380557 24.0912417 16.4700649 39.3222487 24.0912417 16.4700649 39.3222487 21.5163455 14.3094668 39.3222486 24.4637850 16.2549788 37.1380558 21.6634726 13.9052347 37.1380557 26.5274895 0.5414603 7.9801063 37.2789175 8.8561575 1.4431177 26.7245682 0.0000039 1.4431173 36.7799058 9.1442635 7.9801067 36.7799058 9.1442635 7.9801067 26.5274895 0.5414603 7.9801063 37.2789175 8.8561575 1.4431177 26.7245682 0.0000039 1.4431173 36.7799058 9.1442635 7.9801067 39.6713937 22.4245724 1.4431159 37.2789175 8.8561575 1.4431177 39.1039370 22.3245159 7.9801073 39.1039370 22.3245159 7.9801073 36.7799058 9.1442635 7.9801067 39.6713937 22.4245724 1.4431159 37.2789175 8.8561575 1.4431177</float_array>
                    <technique_common>
                        <accessor count="954" source="#ID16" stride="3">
                            <param name="X" type="float" />
                            <param name="Y" type="float" />
                            <param name="Z" type="float" />
                        </accessor>
                    </technique_common>
                </source>
                <source id="ID8">
                    <float_array id="ID17" count="2862">0.2362302 -0.1363875 -0.9620778 0.2362302 -0.1363875 -0.9620778 0.2362302 -0.1363875 -0.9620778 0.2362302 -0.1363875 -0.9620778 -0.2362302 0.1363875 0.9620778 -0.2362302 0.1363875 0.9620778 -0.2362302 0.1363875 0.9620778 -0.2362302 0.1363875 0.9620778 0.8658032 -0.4998716 0.0226553 0.8658032 -0.4998716 0.0226553 0.8658032 -0.4998716 0.0226553 0.8658032 -0.4998716 0.0226553 -0.8658032 0.4998716 -0.0226553 -0.8658032 0.4998716 -0.0226553 -0.8658032 0.4998716 -0.0226553 -0.8658032 0.4998716 -0.0226553 0.0932946 -0.2563247 -0.9620778 0.0932946 -0.2563247 -0.9620778 0.0932946 -0.2563247 -0.9620778 0.0932946 -0.2563247 -0.9620778 -0.0932946 0.2563247 0.9620778 -0.0932946 0.2563247 0.9620778 -0.0932946 0.2563247 0.9620778 -0.0932946 0.2563247 0.9620778 0.8658369 -0.4998906 -0.0208748 0.8658369 -0.4998906 -0.0208748 0.8658369 -0.4998906 -0.0208748 0.8658369 -0.4998906 -0.0208748 -0.8658369 0.4998906 0.0208748 -0.8658369 0.4998906 0.0208748 -0.8658369 0.4998906 0.0208748 -0.8658369 0.4998906 0.0208748 0.2686311 0.0473670 -0.9620778 0.2686311 0.0473670 -0.9620778 0.2686311 0.0473670 -0.9620778 0.2686311 0.0473670 -0.9620778 -0.2686311 -0.0473670 0.9620778 -0.2686311 -0.0473670 0.9620778 -0.2686311 -0.0473670 0.9620778 -0.2686311 -0.0473670 0.9620778 0.5221317 -0.3014529 -0.7978124 0.5221317 -0.3014529 -0.7978124 0.5221317 -0.3014529 -0.7978124 0.5221317 -0.3014529 -0.7978124 -0.5221317 0.3014529 0.7978124 -0.5221317 0.3014529 0.7978124 -0.5221317 0.3014529 0.7978124 -0.5221317 0.3014529 0.7978124 0.3419327 -0.9394513 0.0226547 0.3419327 -0.9394513 0.0226547 0.3419327 -0.9394513 0.0226547 0.3419327 -0.9394513 0.0226547 -0.3419327 0.9394513 -0.0226547 -0.3419327 0.9394513 -0.0226547 -0.3419327 0.9394513 -0.0226547 -0.3419327 0.9394513 -0.0226547 0.9845549 0.1736039 0.0226550 0.9845549 0.1736039 0.0226550 0.9845549 0.1736039 0.0226550 0.9845549 0.1736039 0.0226550 -0.9845549 -0.1736039 -0.0226550 -0.9845549 -0.1736039 -0.0226550 -0.9845549 -0.1736039 -0.0226550 -0.9845549 -0.1736039 -0.0226550 -0.0932946 -0.2563247 -0.9620778 -0.0932946 -0.2563247 -0.9620778 -0.0932946 -0.2563247 -0.9620778 -0.0932946 -0.2563247 -0.9620778 0.0932946 0.2563247 0.9620778 0.0932946 0.2563247 0.9620778 0.0932946 0.2563247 0.9620778 0.0932946 0.2563247 0.9620778 0.3419454 -0.9394879 -0.0208746 0.3419454 -0.9394879 -0.0208746 0.3419454 -0.9394879 -0.0208746 0.3419454 -0.9394879 -0.0208746 -0.3419454 0.9394879 0.0208746 -0.3419454 0.9394879 0.0208746 -0.3419454 0.9394879 0.0208746 -0.3419454 0.9394879 0.0208746 0.4217596 -0.2435030 0.8733986 0.4217596 -0.2435030 0.8733986 0.4217596 -0.2435030 0.8733986 0.4217596 -0.2435030 0.8733986 -0.4217596 0.2435030 -0.8733986 -0.4217596 0.2435030 -0.8733986 -0.4217596 0.2435030 -0.8733986 -0.4217596 0.2435030 -0.8733986 0.9845931 0.1736107 -0.0208748 0.9845931 0.1736107 -0.0208748 0.9845931 0.1736107 -0.0208748 0.9845931 0.1736107 -0.0208748 -0.9845931 -0.1736107 0.0208748 -0.9845931 -0.1736107 0.0208748 -0.9845931 -0.1736107 0.0208748 -0.9845931 -0.1736107 0.0208748 0.1753366 0.2089579 -0.9620778 0.1753366 0.2089579 -0.9620778 0.1753366 0.2089579 -0.9620778 0.1753366 0.2089579 -0.9620778 -0.1753366 -0.2089579 0.9620778 -0.1753366 -0.2089579 0.9620778 -0.1753366 -0.2089579 0.9620778 -0.1753366 -0.2089579 0.9620778 0.8126393 -0.4691776 -0.3456728 0.8126393 -0.4691776 -0.3456728 0.8126393 -0.4691776 -0.3456728 0.8126393 -0.4691776 -0.3456728 -0.8126393 0.4691776 0.3456728 -0.8126393 0.4691776 0.3456728 -0.8126393 0.4691776 0.3456728 -0.8126393 0.4691776 0.3456728 0.2062061 -0.5665462 -0.7978123 0.2062061 -0.5665462 -0.7978123 0.2062061 -0.5665462 -0.7978123 0.2062061 -0.5665462 -0.7978123 -0.2062061 0.5665462 0.7978123 -0.2062061 0.5665462 0.7978123 -0.2062061 0.5665462 0.7978123 -0.2062061 0.5665462 0.7978123 0.5937462 0.1046936 -0.7978124 0.5937462 0.1046936 -0.7978124 0.5937462 0.1046936 -0.7978124 0.5937462 0.1046936 -0.7978124 -0.5937462 -0.1046936 0.7978124 -0.5937462 -0.1046936 0.7978124 -0.5937462 -0.1046936 0.7978124 -0.5937462 -0.1046936 0.7978124 -0.3419328 -0.9394513 0.0226550 -0.3419328 -0.9394513 0.0226550 -0.3419328 -0.9394513 0.0226550 -0.3419328 -0.9394513 0.0226550 0.3419328 0.9394513 -0.0226550 0.3419328 0.9394513 -0.0226550 0.3419328 0.9394513 -0.0226550 0.3419328 0.9394513 -0.0226550 0.6426228 0.7658477 0.0226546 0.6426228 0.7658477 0.0226546 0.6426228 0.7658477 0.0226546 0.6426228 0.7658477 0.0226546 -0.6426228 -0.7658477 -0.0226546 -0.6426228 -0.7658477 -0.0226546 -0.6426228 -0.7658477 -0.0226546 -0.6426228 -0.7658477 -0.0226546 -0.2362303 -0.1363875 -0.9620778 -0.2362303 -0.1363875 -0.9620778 -0.2362303 -0.1363875 -0.9620778 -0.2362303 -0.1363875 -0.9620778 0.2362303 0.1363875 0.9620778 0.2362303 0.1363875 0.9620778 0.2362303 0.1363875 0.9620778 0.2362303 0.1363875 0.9620778 -0.3419457 -0.9394878 -0.0208748 -0.3419457 -0.9394878 -0.0208748 -0.3419457 -0.9394878 -0.0208748 -0.3419457 -0.9394878 -0.0208748 0.3419457 0.9394878 0.0208748 0.3419457 0.9394878 0.0208748 0.3419457 0.9394878 0.0208748 0.3419457 0.9394878 0.0208748 0.1665660 -0.4576360 0.8733985 0.1665660 -0.4576360 0.8733985 0.1665660 -0.4576360 0.8733985 0.1665660 -0.4576360 0.8733985 -0.1665660 0.4576360 -0.8733985 -0.1665660 0.4576360 -0.8733985 -0.1665660 0.4576360 -0.8733985 -0.1665660 0.4576360 -0.8733985 0.8631149 -0.4983194 -0.0819172 0.8631149 -0.4983194 -0.0819172 0.8631149 -0.4983194 -0.0819172 0.8631149 -0.4983194 -0.0819172 -0.8631149 0.4983194 0.0819172 -0.8631149 0.4983194 0.0819172 -0.8631149 0.4983194 0.0819172 -0.8631149 0.4983194 0.0819172 0.4796073 0.0845677 0.8733986 0.4796073 0.0845677 0.8733986 0.4796073 0.0845677 0.8733986 0.4796073 0.0845677 0.8733986 -0.4796073 -0.0845677 -0.8733986 -0.4796073 -0.0845677 -0.8733986 -0.4796073 -0.0845677 -0.8733986 -0.4796073 -0.0845677 -0.8733986 0.6426478 0.7658773 -0.0208753 0.6426478 0.7658773 -0.0208753 0.6426478 0.7658773 -0.0208753 0.6426478 0.7658773 -0.0208753 -0.6426478 -0.7658773 0.0208753 -0.6426478 -0.7658773 0.0208753 -0.6426478 -0.7658773 0.0208753 -0.6426478 -0.7658773 0.0208753 0.0000000 0.2727752 -0.9620778 0.0000000 0.2727752 -0.9620778 0.0000000 0.2727752 -0.9620778 0.0000000 0.2727752 -0.9620778 -0.0000000 -0.2727752 0.9620778 -0.0000000 -0.2727752 0.9620778 -0.0000000 -0.2727752 0.9620778 -0.0000000 -0.2727752 0.9620778 0.3720951 -0.2148292 0.9029915 0.3720951 -0.2148292 0.9029915 0.3720951 -0.2148292 0.9029915 0.3720951 -0.2148292 0.9029915 -0.3720951 0.2148292 -0.9029915 -0.3720951 0.2148292 -0.9029915 -0.3720951 0.2148292 -0.9029915 -0.3720951 0.2148292 -0.9029915 0.3209365 -0.8817653 -0.3456730 0.3209365 -0.8817653 -0.3456730 0.3209365 -0.8817653 -0.3456730 0.3209365 -0.8817653 -0.3456730 -0.3209365 0.8817653 0.3456730 -0.3209365 0.8817653 0.3456730 -0.3209365 0.8817653 0.3456730 -0.3209365 0.8817653 0.3456730 0.9240994 0.1629438 -0.3456727 0.9240994 0.1629438 -0.3456727 0.9240994 0.1629438 -0.3456727 0.9240994 0.1629438 -0.3456727 -0.9240994 -0.1629438 0.3456727 -0.9240994 -0.1629438 0.3456727 -0.9240994 -0.1629438 0.3456727 -0.9240994 -0.1629438 0.3456727 -0.2062062 -0.5665462 -0.7978123 -0.2062062 -0.5665462 -0.7978123 -0.2062062 -0.5665462 -0.7978123 -0.2062062 -0.5665462 -0.7978123 0.2062062 0.5665462 0.7978123 0.2062062 0.5665462 0.7978123 0.2062062 0.5665462 0.7978123 0.2062062 0.5665462 0.7978123 0.3875404 0.4618528 -0.7978123 0.3875404 0.4618528 -0.7978123 0.3875404 0.4618528 -0.7978123 0.3875404 0.4618528 -0.7978123 -0.3875404 -0.4618528 0.7978123 -0.3875404 -0.4618528 0.7978123 -0.3875404 -0.4618528 0.7978123 -0.3875404 -0.4618528 0.7978123 -0.8658031 -0.4998717 0.0226546 -0.8658031 -0.4998717 0.0226546 -0.8658031 -0.4998717 0.0226546 -0.8658031 -0.4998717 0.0226546 0.8658031 0.4998717 -0.0226546 0.8658031 0.4998717 -0.0226546 0.8658031 0.4998717 -0.0226546 0.8658031 0.4998717 -0.0226546 0.0000000 0.9997433 0.0226550 0.0000000 0.9997433 0.0226550 0.0000000 0.9997433 0.0226550 0.0000000 0.9997433 0.0226550 -0.0000000 -0.9997433 -0.0226550 -0.0000000 -0.9997433 -0.0226550 -0.0000000 -0.9997433 -0.0226550 -0.0000000 -0.9997433 -0.0226550 -0.2686313 0.0473671 -0.9620777 -0.2686313 0.0473671 -0.9620777 -0.2686313 0.0473671 -0.9620777 -0.2686313 0.0473671 -0.9620777 0.2686313 -0.0473671 0.9620777 0.2686313 -0.0473671 0.9620777 0.2686313 -0.0473671 0.9620777 0.2686313 -0.0473671 0.9620777 -0.8658367 -0.4998910 -0.0208748 -0.8658367 -0.4998910 -0.0208748 -0.8658367 -0.4998910 -0.0208748 -0.8658367 -0.4998910 -0.0208748 0.8658367 0.4998910 0.0208748 0.8658367 0.4998910 0.0208748 0.8658367 0.4998910 0.0208748 0.8658367 0.4998910 0.0208748 -0.1665663 -0.4576360 0.8733985 -0.1665663 -0.4576360 0.8733985 -0.1665663 -0.4576360 0.8733985 -0.1665663 -0.4576360 0.8733985 0.1665663 0.4576360 -0.8733985 0.1665663 0.4576360 -0.8733985 0.1665663 0.4576360 -0.8733985 0.1665663 0.4576360 -0.8733985 0.3408706 -0.9365345 -0.0819174 0.3408706 -0.9365345 -0.0819174 0.3408706 -0.9365345 -0.0819174 0.3408706 -0.9365345 -0.0819174 -0.3408706 0.9365345 0.0819174 -0.3408706 0.9365345 0.0819174 -0.3408706 0.9365345 0.0819174 -0.3408706 0.9365345 0.0819174 0.4958915 -0.2863028 -0.8198307 0.4958915 -0.2863028 -0.8198307 0.4958915 -0.2863028 -0.8198307 0.4958915 -0.2863028 -0.8198307 -0.4958915 0.2863028 0.8198307 -0.4958915 0.2863028 0.8198307 -0.4958915 0.2863028 0.8198307 -0.4958915 0.2863028 0.8198307 0.9814979 0.1730645 -0.0819175 0.9814979 0.1730645 -0.0819175 0.9814979 0.1730645 -0.0819175 0.9814979 0.1730645 -0.0819175 -0.9814979 -0.1730645 0.0819175 -0.9814979 -0.1730645 0.0819175 -0.9814979 -0.1730645 0.0819175 -0.9814979 -0.1730645 0.0819175 0.3130414 0.3730680 0.8733987 0.3130414 0.3730680 0.8733987 0.3130414 0.3730680 0.8733987 0.3130414 0.3730680 0.8733987 -0.3130414 -0.3730680 -0.8733987 -0.3130414 -0.3730680 -0.8733987 -0.3130414 -0.3730680 -0.8733987 -0.3130414 -0.3730680 -0.8733987 -0.0000000 0.9997821 -0.0208755 -0.0000000 0.9997821 -0.0208755 -0.0000000 0.9997821 -0.0208755 -0.0000000 0.9997821 -0.0208755 0.0000000 -0.9997821 0.0208755 0.0000000 -0.9997821 0.0208755 0.0000000 -0.9997821 0.0208755 0.0000000 -0.9997821 0.0208755 -0.1753368 0.2089579 -0.9620778 -0.1753368 0.2089579 -0.9620778 -0.1753368 0.2089579 -0.9620778 -0.1753368 0.2089579 -0.9620778 0.1753368 -0.2089579 0.9620778 0.1753368 -0.2089579 0.9620778 0.1753368 -0.2089579 0.9620778 0.1753368 -0.2089579 0.9620778 0.3720951 -0.2148291 -0.9029915 0.3720951 -0.2148291 -0.9029915 0.3720951 -0.2148291 -0.9029915 0.3720951 -0.2148291 -0.9029915 -0.3720951 0.2148291 0.9029915 -0.3720951 0.2148291 0.9029915 -0.3720951 0.2148291 0.9029915 -0.3720951 0.2148291 0.9029915 0.1469520 -0.4037470 0.9029914 0.1469520 -0.4037470 0.9029914 0.1469520 -0.4037470 0.9029914 0.1469520 -0.4037470 0.9029914 -0.1469520 0.4037470 -0.9029914 -0.1469520 0.4037470 -0.9029914 -0.1469520 0.4037470 -0.9029914 -0.1469520 0.4037470 -0.9029914 0.4231311 0.0746094 0.9029914 0.4231311 0.0746094 0.9029914 0.4231311 0.0746094 0.9029914 0.4231311 0.0746094 0.9029914 -0.4231311 -0.0746094 -0.9029914 -0.4231311 -0.0746094 -0.9029914 -0.4231311 -0.0746094 -0.9029914 -0.4231311 -0.0746094 -0.9029914 -0.3209364 -0.8817651 -0.3456734 -0.3209364 -0.8817651 -0.3456734 -0.3209364 -0.8817651 -0.3456734 -0.3209364 -0.8817651 -0.3456734 0.3209364 0.8817651 0.3456734 0.3209364 0.8817651 0.3456734 0.3209364 0.8817651 0.3456734 0.3209364 0.8817651 0.3456734 0.6031629 0.7188218 -0.3456728 0.6031629 0.7188218 -0.3456728 0.6031629 0.7188218 -0.3456728 0.6031629 0.7188218 -0.3456728 -0.6031629 -0.7188218 0.3456728 -0.6031629 -0.7188218 0.3456728 -0.6031629 -0.7188218 0.3456728 -0.6031629 -0.7188218 0.3456728 -0.5221319 -0.3014529 -0.7978122 -0.5221319 -0.3014529 -0.7978122 -0.5221319 -0.3014529 -0.7978122 -0.5221319 -0.3014529 -0.7978122 0.5221319 0.3014529 0.7978122 0.5221319 0.3014529 0.7978122 0.5221319 0.3014529 0.7978122 0.5221319 0.3014529 0.7978122 -0.0000000 0.6029060 -0.7978122 -0.0000000 0.6029060 -0.7978122 -0.0000000 0.6029060 -0.7978122 -0.0000000 0.6029060 -0.7978122 0.0000000 -0.6029060 0.7978122 0.0000000 -0.6029060 0.7978122 0.0000000 -0.6029060 0.7978122 0.0000000 -0.6029060 0.7978122 -0.9845550 0.1736040 0.0226540 -0.9845550 0.1736040 0.0226540 -0.9845550 0.1736040 0.0226540 -0.9845550 0.1736040 0.0226540 0.9845550 -0.1736040 -0.0226540 0.9845550 -0.1736040 -0.0226540 0.9845550 -0.1736040 -0.0226540 0.9845550 -0.1736040 -0.0226540 -0.6426233 0.7658473 0.0226543 -0.6426233 0.7658473 0.0226543 -0.6426233 0.7658473 0.0226543 -0.6426233 0.7658473 0.0226543 0.6426233 -0.7658473 -0.0226543 0.6426233 -0.7658473 -0.0226543 0.6426233 -0.7658473 -0.0226543 0.6426233 -0.7658473 -0.0226543 -0.9845932 0.1736103 -0.0208751 -0.9845932 0.1736103 -0.0208751 -0.9845932 0.1736103 -0.0208751 -0.9845932 0.1736103 -0.0208751 0.9845932 -0.1736103 0.0208751 0.9845932 -0.1736103 0.0208751 0.9845932 -0.1736103 0.0208751 0.9845932 -0.1736103 0.0208751 -0.4217598 -0.2435032 0.8733985 -0.4217598 -0.2435032 0.8733985 -0.4217598 -0.2435032 0.8733985 -0.4217598 -0.2435032 0.8733985 0.4217598 0.2435032 -0.8733985 0.4217598 0.2435032 -0.8733985 0.4217598 0.2435032 -0.8733985 0.4217598 0.2435032 -0.8733985 -0.3408710 -0.9365343 -0.0819174 -0.3408710 -0.9365343 -0.0819174 -0.3408710 -0.9365343 -0.0819174 -0.3408710 -0.9365343 -0.0819174 0.3408710 0.9365343 0.0819174 0.3408710 0.9365343 0.0819174 0.3408710 0.9365343 0.0819174 0.3408710 0.9365343 0.0819174 0.1958419 -0.5380746 -0.8198303 0.1958419 -0.5380746 -0.8198303 0.1958419 -0.5380746 -0.8198303 0.1958419 -0.5380746 -0.8198303 -0.1958419 0.5380746 0.8198303 -0.1958419 0.5380746 0.8198303 -0.1958419 0.5380746 0.8198303 -0.1958419 0.5380746 0.8198303 0.8515648 -0.4916513 -0.1819793 0.8515648 -0.4916513 -0.1819793 0.8515648 -0.4916513 -0.1819793 0.8515648 -0.4916513 -0.1819793 -0.8515648 0.4916513 0.1819793 -0.8515648 0.4916513 0.1819793 -0.8515648 0.4916513 0.1819793 -0.8515648 0.4916513 0.1819793 0.5639069 0.0994320 -0.8198306 0.5639069 0.0994320 -0.8198306 0.5639069 0.0994320 -0.8198306 0.5639069 0.0994320 -0.8198306 -0.5639069 -0.0994320 0.8198306 -0.5639069 -0.0994320 0.8198306 -0.5639069 -0.0994320 0.8198306 -0.5639069 -0.0994320 0.8198306 0.6406275 0.7634697 -0.0819174 0.6406275 0.7634697 -0.0819174 0.6406275 0.7634697 -0.0819174 0.6406275 0.7634697 -0.0819174 -0.6406275 -0.7634697 0.0819174 -0.6406275 -0.7634697 0.0819174 -0.6406275 -0.7634697 0.0819174 -0.6406275 -0.7634697 0.0819174 0.0000000 0.4870056 0.8733988 0.0000000 0.4870056 0.8733988 0.0000000 0.4870056 0.8733988 0.0000000 0.4870056 0.8733988 -0.0000000 -0.4870056 -0.8733988 -0.0000000 -0.4870056 -0.8733988 -0.0000000 -0.4870056 -0.8733988 -0.0000000 -0.4870056 -0.8733988 -0.6426479 0.7658772 -0.0208750 -0.6426479 0.7658772 -0.0208750 -0.6426479 0.7658772 -0.0208750 -0.6426479 0.7658772 -0.0208750 0.6426479 -0.7658772 0.0208750 0.6426479 -0.7658772 0.0208750 0.6426479 -0.7658772 0.0208750 0.6426479 -0.7658772 0.0208750 0.8630698 -0.4982935 -0.0825478 0.8630698 -0.4982935 -0.0825478 0.8630698 -0.4982935 -0.0825478 0.8630698 -0.4982935 -0.0825478 -0.8630698 0.4982935 0.0825478 -0.8630698 0.4982935 0.0825478 -0.8630698 0.4982935 0.0825478 -0.8630698 0.4982935 0.0825478 0.1469520 -0.4037469 -0.9029915 0.1469520 -0.4037469 -0.9029915 0.1469520 -0.4037469 -0.9029915 0.1469520 -0.4037469 -0.9029915 -0.1469520 0.4037469 0.9029915 -0.1469520 0.4037469 0.9029915 -0.1469520 0.4037469 0.9029915 -0.1469520 0.4037469 0.9029915 0.4231311 0.0746094 -0.9029914 0.4231311 0.0746094 -0.9029914 0.4231311 0.0746094 -0.9029914 0.4231311 0.0746094 -0.9029914 -0.4231311 -0.0746094 0.9029914 -0.4231311 -0.0746094 0.9029914 -0.4231311 -0.0746094 0.9029914 -0.4231311 -0.0746094 0.9029914 -0.1469518 -0.4037466 0.9029916 -0.1469518 -0.4037466 0.9029916 -0.1469518 -0.4037466 0.9029916 -0.1469518 -0.4037466 0.9029916 0.1469518 0.4037466 -0.9029916 0.1469518 0.4037466 -0.9029916 0.1469518 0.4037466 -0.9029916 0.1469518 0.4037466 -0.9029916 0.2761793 0.3291378 0.9029913 0.2761793 0.3291378 0.9029913 0.2761793 0.3291378 0.9029913 0.2761793 0.3291378 0.9029913 -0.2761793 -0.3291378 -0.9029913 -0.2761793 -0.3291378 -0.9029913 -0.2761793 -0.3291378 -0.9029913 -0.2761793 -0.3291378 -0.9029913 -0.8126393 -0.4691773 -0.3456734 -0.8126393 -0.4691773 -0.3456734 -0.8126393 -0.4691773 -0.3456734 -0.8126393 -0.4691773 -0.3456734 0.8126393 0.4691773 0.3456734 0.8126393 0.4691773 0.3456734 0.8126393 0.4691773 0.3456734 0.8126393 0.4691773 0.3456734 0.0000000 0.9383550 -0.3456732 0.0000000 0.9383550 -0.3456732 0.0000000 0.9383550 -0.3456732 0.0000000 0.9383550 -0.3456732 -0.0000000 -0.9383550 0.3456732 -0.0000000 -0.9383550 0.3456732 -0.0000000 -0.9383550 0.3456732 -0.0000000 -0.9383550 0.3456732 -0.5937465 0.1046934 -0.7978123 -0.5937465 0.1046934 -0.7978123 -0.5937465 0.1046934 -0.7978123 -0.5937465 0.1046934 -0.7978123 0.5937465 -0.1046934 0.7978123 0.5937465 -0.1046934 0.7978123 0.5937465 -0.1046934 0.7978123 0.5937465 -0.1046934 0.7978123 -0.3875406 0.4618526 -0.7978123 -0.3875406 0.4618526 -0.7978123 -0.3875406 0.4618526 -0.7978123 -0.3875406 0.4618526 -0.7978123 0.3875406 -0.4618526 0.7978123 0.3875406 -0.4618526 0.7978123 0.3875406 -0.4618526 0.7978123 0.3875406 -0.4618526 0.7978123 -0.4796076 0.0845679 0.8733984 -0.4796076 0.0845679 0.8733984 -0.4796076 0.0845679 0.8733984 -0.4796076 0.0845679 0.8733984 0.4796076 -0.0845679 -0.8733984 0.4796076 -0.0845679 -0.8733984 0.4796076 -0.0845679 -0.8733984 0.4796076 -0.0845679 -0.8733984 -0.8631148 -0.4983195 -0.0819175 -0.8631148 -0.4983195 -0.0819175 -0.8631148 -0.4983195 -0.0819175 -0.8631148 -0.4983195 -0.0819175 0.8631148 0.4983195 0.0819175 0.8631148 0.4983195 0.0819175 0.8631148 0.4983195 0.0819175 0.8631148 0.4983195 0.0819175 -0.1958421 -0.5380747 -0.8198302 -0.1958421 -0.5380747 -0.8198302 -0.1958421 -0.5380747 -0.8198302 -0.1958421 -0.5380747 -0.8198302 0.1958421 0.5380747 0.8198302 0.1958421 0.5380747 0.8198302 0.1958421 0.5380747 0.8198302 0.1958421 0.5380747 0.8198302 0.3363095 -0.9240019 -0.1819792 0.3363095 -0.9240019 -0.1819792 0.3363095 -0.9240019 -0.1819792 0.3363095 -0.9240019 -0.1819792 -0.3363095 0.9240019 0.1819792 -0.3363095 0.9240019 0.1819792 -0.3363095 0.9240019 0.1819792 -0.3363095 0.9240019 0.1819792 0.9683637 0.1707490 -0.1819794 0.9683637 0.1707490 -0.1819794 0.9683637 0.1707490 -0.1819794 0.9683637 0.1707490 -0.1819794 -0.9683637 -0.1707490 0.1819794 -0.9683637 -0.1707490 0.1819794 -0.9683637 -0.1707490 0.1819794 -0.9683637 -0.1707490 0.1819794 0.3680637 0.4386427 -0.8198303 0.3680637 0.4386427 -0.8198303 0.3680637 0.4386427 -0.8198303 0.3680637 0.4386427 -0.8198303 -0.3680637 -0.4386427 0.8198303 -0.3680637 -0.4386427 0.8198303 -0.3680637 -0.4386427 0.8198303 -0.3680637 -0.4386427 0.8198303 0.0000001 0.9966391 -0.0819179 0.0000001 0.9966391 -0.0819179 0.0000001 0.9966391 -0.0819179 0.0000001 0.9966391 -0.0819179 -0.0000001 -0.9966391 0.0819179 -0.0000001 -0.9966391 0.0819179 -0.0000001 -0.9966391 0.0819179 -0.0000001 -0.9966391 0.0819179 -0.3130419 0.3730680 0.8733986 -0.3130419 0.3730680 0.8733986 -0.3130419 0.3730680 0.8733986 -0.3130419 0.3730680 0.8733986 0.3130419 -0.3730680 -0.8733986 0.3130419 -0.3730680 -0.8733986 0.3130419 -0.3730680 -0.8733986 0.3130419 -0.3730680 -0.8733986 0.8358949 -0.4826040 0.2614826 0.8358949 -0.4826040 0.2614826 0.8358949 -0.4826040 0.2614826 0.8358949 -0.4826040 0.2614826 -0.8358949 0.4826040 -0.2614826 -0.8358949 0.4826040 -0.2614826 -0.8358949 0.4826040 -0.2614826 -0.8358949 0.4826040 -0.2614826 0.3408531 -0.9364855 -0.0825480 0.3408531 -0.9364855 -0.0825480 0.3408531 -0.9364855 -0.0825480 0.3408531 -0.9364855 -0.0825480 -0.3408531 0.9364855 0.0825480 -0.3408531 0.9364855 0.0825480 -0.3408531 0.9364855 0.0825480 -0.3408531 0.9364855 0.0825480 0.9814467 0.1730556 -0.0825475 0.9814467 0.1730556 -0.0825475 0.9814467 0.1730556 -0.0825475 0.9814467 0.1730556 -0.0825475 -0.9814467 -0.1730556 0.0825475 -0.9814467 -0.1730556 0.0825475 -0.9814467 -0.1730556 0.0825475 -0.9814467 -0.1730556 0.0825475 -0.1469518 -0.4037465 -0.9029917 -0.1469518 -0.4037465 -0.9029917 -0.1469518 -0.4037465 -0.9029917 -0.1469518 -0.4037465 -0.9029917 0.1469518 0.4037465 0.9029917 0.1469518 0.4037465 0.9029917 0.1469518 0.4037465 0.9029917 0.1469518 0.4037465 0.9029917 0.2761793 0.3291378 -0.9029913 0.2761793 0.3291378 -0.9029913 0.2761793 0.3291378 -0.9029913 0.2761793 0.3291378 -0.9029913 -0.2761793 -0.3291378 0.9029913 -0.2761793 -0.3291378 0.9029913 -0.2761793 -0.3291378 0.9029913 -0.2761793 -0.3291378 0.9029913 -0.3720948 -0.2148290 0.9029917 -0.3720948 -0.2148290 0.9029917 -0.3720948 -0.2148290 0.9029917 -0.3720948 -0.2148290 0.9029917 0.3720948 0.2148290 -0.9029917 0.3720948 0.2148290 -0.9029917 0.3720948 0.2148290 -0.9029917 0.3720948 0.2148290 -0.9029917 0.0000000 0.4296583 0.9029915 0.0000000 0.4296583 0.9029915 0.0000000 0.4296583 0.9029915 0.0000000 0.4296583 0.9029915 -0.0000000 -0.4296583 -0.9029915 -0.0000000 -0.4296583 -0.9029915 -0.0000000 -0.4296583 -0.9029915 -0.0000000 -0.4296583 -0.9029915 -0.9240993 0.1629434 -0.3456731 -0.9240993 0.1629434 -0.3456731 -0.9240993 0.1629434 -0.3456731 -0.9240993 0.1629434 -0.3456731 0.9240993 -0.1629434 0.3456731 0.9240993 -0.1629434 0.3456731 0.9240993 -0.1629434 0.3456731 0.9240993 -0.1629434 0.3456731 -0.6031632 0.7188215 -0.3456728 -0.6031632 0.7188215 -0.3456728 -0.6031632 0.7188215 -0.3456728 -0.6031632 0.7188215 -0.3456728 0.6031632 -0.7188215 0.3456728 0.6031632 -0.7188215 0.3456728 0.6031632 -0.7188215 0.3456728 0.6031632 -0.7188215 0.3456728 -0.9814980 0.1730648 -0.0819166 -0.9814980 0.1730648 -0.0819166 -0.9814980 0.1730648 -0.0819166 -0.9814980 0.1730648 -0.0819166 0.9814980 -0.1730648 0.0819166 0.9814980 -0.1730648 0.0819166 0.9814980 -0.1730648 0.0819166 0.9814980 -0.1730648 0.0819166 -0.4958926 -0.2863024 -0.8198301 -0.4958926 -0.2863024 -0.8198301 -0.4958926 -0.2863024 -0.8198301 -0.4958926 -0.2863024 -0.8198301 0.4958926 0.2863024 0.8198301 0.4958926 0.2863024 0.8198301 0.4958926 0.2863024 0.8198301 0.4958926 0.2863024 0.8198301 -0.3363096 -0.9240017 -0.1819797 -0.3363096 -0.9240017 -0.1819797 -0.3363096 -0.9240017 -0.1819797 -0.3363096 -0.9240017 -0.1819797 0.3363096 0.9240017 0.1819797 0.3363096 0.9240017 0.1819797 0.3363096 0.9240017 0.1819797 0.3363096 0.9240017 0.1819797 0.6320543 0.7532533 -0.1819805 0.6320543 0.7532533 -0.1819805 0.6320543 0.7532533 -0.1819805 0.6320543 0.7532533 -0.1819805 -0.6320543 -0.7532533 0.1819805 -0.6320543 -0.7532533 0.1819805 -0.6320543 -0.7532533 0.1819805 -0.6320543 -0.7532533 0.1819805 0.0000010 0.5726066 -0.8198303 0.0000010 0.5726066 -0.8198303 0.0000010 0.5726066 -0.8198303 0.0000010 0.5726066 -0.8198303 -0.0000010 -0.5726066 0.8198303 -0.0000010 -0.5726066 0.8198303 -0.0000010 -0.5726066 0.8198303 -0.0000010 -0.5726066 0.8198303 -0.6406283 0.7634691 -0.0819164 -0.6406283 0.7634691 -0.0819164 -0.6406283 0.7634691 -0.0819164 -0.6406283 0.7634691 -0.0819164 0.6406283 -0.7634691 0.0819164 0.6406283 -0.7634691 0.0819164 0.6406283 -0.7634691 0.0819164 0.6406283 -0.7634691 0.0819164 0.0000000 -0.0000000 1.0000000 0.0000000 -0.0000000 1.0000000 0.0000000 -0.0000000 1.0000000 0.0000000 -0.0000000 1.0000000 0.0000000 -0.0000000 1.0000000 0.0000000 -0.0000000 1.0000000 0.0000000 -0.0000000 1.0000000 0.0000000 -0.0000000 1.0000000 0.0000000 -0.0000000 1.0000000 -0.0000000 0.0000000 -1.0000000 -0.0000000 0.0000000 -1.0000000 -0.0000000 0.0000000 -1.0000000 -0.0000000 0.0000000 -1.0000000 -0.0000000 0.0000000 -1.0000000 -0.0000000 0.0000000 -1.0000000 -0.0000000 0.0000000 -1.0000000 -0.0000000 0.0000000 -1.0000000 -0.0000000 0.0000000 -1.0000000 0.3301207 -0.9069987 0.2614835 0.3301207 -0.9069987 0.2614835 0.3301207 -0.9069987 0.2614835 0.3301207 -0.9069987 0.2614835 -0.3301207 0.9069987 -0.2614835 -0.3301207 0.9069987 -0.2614835 -0.3301207 0.9069987 -0.2614835 -0.3301207 0.9069987 -0.2614835 0.9505445 0.1676068 0.2614824 0.9505445 0.1676068 0.2614824 0.9505445 0.1676068 0.2614824 0.9505445 0.1676068 0.2614824 -0.9505445 -0.1676068 -0.2614824 -0.9505445 -0.1676068 -0.2614824 -0.9505445 -0.1676068 -0.2614824 -0.9505445 -0.1676068 -0.2614824 -0.3408531 -0.9364855 -0.0825477 -0.3408531 -0.9364855 -0.0825477 -0.3408531 -0.9364855 -0.0825477 -0.3408531 -0.9364855 -0.0825477 0.3408531 0.9364855 0.0825477 0.3408531 0.9364855 0.0825477 0.3408531 0.9364855 0.0825477 0.3408531 0.9364855 0.0825477 0.6405937 0.7634302 -0.0825475 0.6405937 0.7634302 -0.0825475 0.6405937 0.7634302 -0.0825475 0.6405937 0.7634302 -0.0825475 -0.6405937 -0.7634302 0.0825475 -0.6405937 -0.7634302 0.0825475 -0.6405937 -0.7634302 0.0825475 -0.6405937 -0.7634302 0.0825475 -0.3720948 -0.2148289 -0.9029917 -0.3720948 -0.2148289 -0.9029917 -0.3720948 -0.2148289 -0.9029917 -0.3720948 -0.2148289 -0.9029917 0.3720948 0.2148289 0.9029917 0.3720948 0.2148289 0.9029917 0.3720948 0.2148289 0.9029917 0.3720948 0.2148289 0.9029917 0.0000000 0.4296584 -0.9029915 0.0000000 0.4296584 -0.9029915 0.0000000 0.4296584 -0.9029915 0.0000000 0.4296584 -0.9029915 -0.0000000 -0.4296584 0.9029915 -0.0000000 -0.4296584 0.9029915 -0.0000000 -0.4296584 0.9029915 -0.0000000 -0.4296584 0.9029915 -0.4231307 0.0746092 0.9029916 -0.4231307 0.0746092 0.9029916 -0.4231307 0.0746092 0.9029916 -0.4231307 0.0746092 0.9029916 0.4231307 -0.0746092 -0.9029916 0.4231307 -0.0746092 -0.9029916 0.4231307 -0.0746092 -0.9029916 0.4231307 -0.0746092 -0.9029916 -0.2761793 0.3291374 0.9029915 -0.2761793 0.3291374 0.9029915 -0.2761793 0.3291374 0.9029915 -0.2761793 0.3291374 0.9029915 0.2761793 -0.3291374 -0.9029915 0.2761793 -0.3291374 -0.9029915 0.2761793 -0.3291374 -0.9029915 0.2761793 -0.3291374 -0.9029915 -0.5639079 0.0994310 -0.8198301 -0.5639079 0.0994310 -0.8198301 -0.5639079 0.0994310 -0.8198301 -0.5639079 0.0994310 -0.8198301 0.5639079 -0.0994310 0.8198301 0.5639079 -0.0994310 0.8198301 0.5639079 -0.0994310 0.8198301 0.5639079 -0.0994310 0.8198301 -0.8515649 -0.4916509 -0.1819796 -0.8515649 -0.4916509 -0.1819796 -0.8515649 -0.4916509 -0.1819796 -0.8515649 -0.4916509 -0.1819796 0.8515649 0.4916509 0.1819796 0.8515649 0.4916509 0.1819796 0.8515649 0.4916509 0.1819796 0.8515649 0.4916509 0.1819796 0.0000000 0.9833020 -0.1819813 0.0000000 0.9833020 -0.1819813 0.0000000 0.9833020 -0.1819813 0.0000000 0.9833020 -0.1819813 -0.0000000 -0.9833020 0.1819813 -0.0000000 -0.9833020 0.1819813 -0.0000000 -0.9833020 0.1819813 -0.0000000 -0.9833020 0.1819813 -0.3680645 0.4386414 -0.8198306 -0.3680645 0.4386414 -0.8198306 -0.3680645 0.4386414 -0.8198306 -0.3680645 0.4386414 -0.8198306 0.3680645 -0.4386414 0.8198306 0.3680645 -0.4386414 0.8198306 0.3680645 -0.4386414 0.8198306 0.3680645 -0.4386414 0.8198306 0.6204238 0.7393924 0.2614826 0.6204238 0.7393924 0.2614826 0.6204238 0.7393924 0.2614826 0.6204238 0.7393924 0.2614826 -0.6204238 -0.7393924 -0.2614826 -0.6204238 -0.7393924 -0.2614826 -0.6204238 -0.7393924 -0.2614826 -0.6204238 -0.7393924 -0.2614826 -0.0000003 0.9652081 0.2614831 -0.0000003 0.9652081 0.2614831 -0.0000003 0.9652081 0.2614831 -0.0000003 0.9652081 0.2614831 0.0000003 -0.9652081 -0.2614831 0.0000003 -0.9652081 -0.2614831 0.0000003 -0.9652081 -0.2614831 0.0000003 -0.9652081 -0.2614831 -0.6204238 0.7393919 0.2614842 -0.6204238 0.7393919 0.2614842 -0.6204238 0.7393919 0.2614842 -0.6204238 0.7393919 0.2614842 0.6204238 -0.7393919 -0.2614842 0.6204238 -0.7393919 -0.2614842 0.6204238 -0.7393919 -0.2614842 0.6204238 -0.7393919 -0.2614842 -0.9505439 0.1676065 0.2614848 -0.9505439 0.1676065 0.2614848 -0.9505439 0.1676065 0.2614848 -0.9505439 0.1676065 0.2614848 0.9505439 -0.1676065 -0.2614848 0.9505439 -0.1676065 -0.2614848 0.9505439 -0.1676065 -0.2614848 0.9505439 -0.1676065 -0.2614848 -0.8358946 -0.4826036 0.2614841 -0.8358946 -0.4826036 0.2614841 -0.8358946 -0.4826036 0.2614841 -0.8358946 -0.4826036 0.2614841 0.8358946 0.4826036 -0.2614841 0.8358946 0.4826036 -0.2614841 0.8358946 0.4826036 -0.2614841 0.8358946 0.4826036 -0.2614841 -0.3301209 -0.9069989 0.2614828 -0.3301209 -0.9069989 0.2614828 -0.3301209 -0.9069989 0.2614828 -0.3301209 -0.9069989 0.2614828 0.3301209 0.9069989 -0.2614828 0.3301209 0.9069989 -0.2614828 0.3301209 0.9069989 -0.2614828 0.3301209 0.9069989 -0.2614828 -0.8630699 -0.4982934 -0.0825476 -0.8630699 -0.4982934 -0.0825476 -0.8630699 -0.4982934 -0.0825476 -0.8630699 -0.4982934 -0.0825476 0.8630699 0.4982934 0.0825476 0.8630699 0.4982934 0.0825476 0.8630699 0.4982934 0.0825476 0.8630699 0.4982934 0.0825476 -0.0000001 0.9965872 -0.0825472 -0.0000001 0.9965872 -0.0825472 -0.0000001 0.9965872 -0.0825472 -0.0000001 0.9965872 -0.0825472 0.0000001 -0.9965872 0.0825472 0.0000001 -0.9965872 0.0825472 0.0000001 -0.9965872 0.0825472 0.0000001 -0.9965872 0.0825472 -0.4231307 0.0746093 -0.9029916 -0.4231307 0.0746093 -0.9029916 -0.4231307 0.0746093 -0.9029916 -0.4231307 0.0746093 -0.9029916 0.4231307 -0.0746093 0.9029916 0.4231307 -0.0746093 0.9029916 0.4231307 -0.0746093 0.9029916 0.4231307 -0.0746093 0.9029916 -0.2761793 0.3291375 -0.9029914 -0.2761793 0.3291375 -0.9029914 -0.2761793 0.3291375 -0.9029914 -0.2761793 0.3291375 -0.9029914 0.2761793 -0.3291375 0.9029914 0.2761793 -0.3291375 0.9029914 0.2761793 -0.3291375 0.9029914 0.2761793 -0.3291375 0.9029914 -0.9683636 0.1707485 -0.1819803 -0.9683636 0.1707485 -0.1819803 -0.9683636 0.1707485 -0.1819803 -0.9683636 0.1707485 -0.1819803 0.9683636 -0.1707485 0.1819803 0.9683636 -0.1707485 0.1819803 0.9683636 -0.1707485 0.1819803 0.9683636 -0.1707485 0.1819803 -0.6320549 0.7532526 -0.1819810 -0.6320549 0.7532526 -0.1819810 -0.6320549 0.7532526 -0.1819810 -0.6320549 0.7532526 -0.1819810 0.6320549 -0.7532526 0.1819810 0.6320549 -0.7532526 0.1819810 0.6320549 -0.7532526 0.1819810 0.6320549 -0.7532526 0.1819810 -0.6405940 0.7634299 -0.0825475 -0.6405940 0.7634299 -0.0825475 -0.6405940 0.7634299 -0.0825475 -0.6405940 0.7634299 -0.0825475 0.6405940 -0.7634299 0.0825475 0.6405940 -0.7634299 0.0825475 0.6405940 -0.7634299 0.0825475 0.6405940 -0.7634299 0.0825475 -0.9814468 0.1730554 -0.0825475 -0.9814468 0.1730554 -0.0825475 -0.9814468 0.1730554 -0.0825475 -0.9814468 0.1730554 -0.0825475 0.9814468 -0.1730554 0.0825475 0.9814468 -0.1730554 0.0825475 0.9814468 -0.1730554 0.0825475 0.9814468 -0.1730554 0.0825475</float_array>
                    <technique_common>
                        <accessor count="954" source="#ID17" stride="3">
                            <param name="X" type="float" />
                            <param name="Y" type="float" />
                            <param name="Z" type="float" />
                        </accessor>
                    </technique_common>
                </source>
                <source id="ID15">
                    <float_array id="ID18" count="944">0.5251741 0.0991145 0.5552546 0.0247081 0.4529062 0.0991145 0.4228258 0.0247080 0.5547167 -0.0622906 0.4228259 0.0247080 0.4233639 -0.0622907 0.5591000 0.1486953 0.6174228 0.1155635 0.5251742 0.0991145 0.5721146 0.4265909 0.5251745 0.4253833 0.5703352 0.5148003 0.5244005 0.5136186 0.4529067 0.4253833 0.5251745 0.4253833 0.4228262 0.3108458 0.5552550 0.3108457 0.5547165 0.1222530 0.5932296 0.0073734 0.4233638 0.1222530 0.3848506 0.0073733 0.4228258 0.4104441 0.4233638 0.3539276 0.3368116 0.4080425 0.3380485 0.3515455 0.5547169 0.3539275 0.4233641 0.3539275 0.5552549 0.4104440 0.4228261 0.4104440 0.5251742 0.5249816 0.5552547 0.4104441 0.4529064 0.5249817 0.4228258 0.4104441 0.4536804 0.5136186 0.4529064 0.4253833 0.4077457 0.5148003 0.4059663 0.4265909 0.5244002 0.4194859 0.4536803 0.4194859 0.5529835 0.5393734 0.4250970 0.5393734 0.5244004 0.5136184 0.5251744 0.4253832 0.4536806 0.5136184 0.4529066 0.4253832 0.4529069 0.0991143 0.5251747 0.0991143 0.4228264 0.0247079 0.5552552 0.0247079 0.6016044 -0.0813784 0.3764760 -0.0813784 0.5932297 0.0073734 0.3848507 0.0073733 0.6231967 0.1996229 0.7018669 0.1301135 0.5547166 0.1222530 0.5932297 0.0073734 0.4233642 0.3605244 0.5547170 0.3605244 0.3848511 0.1836845 0.5932301 0.1836844 0.4228257 0.4104440 0.5552545 0.4104440 0.4233637 0.3539275 0.5547165 0.3539274 0.4233642 0.3539276 0.3380489 0.3515455 0.5552549 0.0247090 0.4228262 0.0247090 0.5251745 0.0991154 0.4529067 0.0991154 0.4536803 0.5136185 0.5244002 0.5136185 0.4529063 0.4253832 0.5251741 0.4253832 0.5244000 0.3705952 0.4536801 0.3705952 0.5529834 0.4484771 0.4250967 0.4484771 0.5529834 0.5393733 0.4250969 0.5393733 0.5521657 0.5631318 0.4259147 0.5631318 0.4536807 0.5136186 0.4250974 0.6335061 0.5244005 0.5136186 0.5529840 0.6335060 0.4536807 0.5136186 0.4529067 0.4253833 0.4077460 0.5148004 0.4059666 0.4265909 0.5251755 0.0991150 0.5591013 0.1486958 0.5552561 0.0247086 0.6174242 0.1155641 0.5923198 0.3662075 0.3857604 0.3662075 0.6016043 0.3906761 0.3764759 0.3906760 0.3848508 0.1836846 0.3764761 0.1260292 0.2548391 0.2404507 0.2360141 0.1873581 0.5932299 0.1836844 0.6016046 0.1260291 0.3848510 0.1836844 0.3764763 0.1260290 0.5547167 0.3539275 0.5932296 0.1770876 0.4233638 0.3539276 0.3848507 0.1770877 0.4233645 0.1222528 0.5547172 0.1222528 0.3848514 0.0073732 0.5932303 0.0073732 0.4228263 0.0247090 0.5552552 0.0247090 0.4233644 -0.0622897 0.5547171 -0.0622897 0.4228268 0.4104439 0.5552556 0.4104439 0.4233648 0.3539274 0.5547175 0.3539274 0.4228268 0.4104440 0.4529074 0.5249814 0.5552555 0.4104439 0.5251751 0.5249814 0.4529068 0.0991154 0.4536809 0.2349403 0.5251747 0.0991154 0.5244007 0.2349403 0.5596343 0.3256860 0.5244001 0.3705953 0.6166994 0.3672654 0.5529835 0.4484772 0.5521656 0.4850496 0.5529835 0.4484772 0.4259147 0.4850498 0.4250968 0.4484772 0.5197857 0.7078179 0.5521658 0.5631319 0.4582948 0.7078179 0.4259148 0.5631319 0.4259148 0.5631319 0.4250970 0.5393734 0.3440840 0.5714040 0.3422060 0.5477527 0.5244013 0.3705954 0.5529847 0.4484774 0.5596355 0.3256862 0.6167007 0.3672656 0.4536815 0.3705954 0.5244013 0.3705954 0.4529075 0.2347705 0.5251753 0.2347705 0.4228271 0.0247086 0.4529074 0.0991149 0.5552558 0.0247085 0.5251753 0.0991149 0.3857605 -0.0776715 0.3764760 -0.1021400 0.2847929 0.0570918 0.2664319 0.0447379 0.5923199 -0.0776715 0.3857605 -0.0776715 0.6016044 -0.0400058 0.3764760 -0.0400059 0.3857609 0.0883635 0.3764764 0.1260291 0.5923203 0.0883634 0.6016048 0.1260291 0.3848507 0.1836845 0.5932296 0.1836845 0.3764760 0.1260292 0.6016043 0.1260292 0.5932305 0.0073732 0.6016052 -0.0813785 0.3848516 0.0073732 0.3764768 -0.0813785 0.5932300 0.0073742 0.3848512 0.0073742 0.5547169 0.1222538 0.4233643 0.1222538 0.5547180 0.1222534 0.6231980 0.1996233 0.5932310 0.0073737 0.7018683 0.1301139 0.4233646 0.3539272 0.4228266 0.4104438 0.5547173 0.3539272 0.5552553 0.4104437 0.4228273 0.0247086 0.5552561 0.0247086 0.4233653 -0.0622901 0.5547181 -0.0622902 0.4536813 0.3705950 0.5244011 0.3705950 0.4529074 0.2347701 0.5251751 0.2347701 0.5529841 0.5393734 0.5244007 0.4194859 0.4250976 0.5393734 0.4536809 0.4194860 0.3440845 0.5714036 0.4259153 0.5631319 0.3422065 0.5477524 0.4250976 0.5393734 0.5197852 0.3396479 0.5521651 0.2456561 0.4582944 0.3396480 0.4259142 0.2456564 0.5592890 0.6174647 0.5197860 0.6085456 0.5536343 0.6491109 0.5173112 0.6409097 0.4582952 0.6085456 0.5197860 0.6085456 0.4259151 0.4638596 0.5521661 0.4638597 0.5521663 0.5631316 0.5529841 0.5393731 0.4259153 0.5631314 0.4250975 0.5393731 0.4536813 0.3705952 0.4250979 0.4484772 0.5244011 0.3705952 0.5529845 0.4484772 0.4536817 0.2349399 0.5244015 0.2349399 0.4529077 0.0991150 0.5251755 0.0991150 0.7551312 0.1032866 0.6049198 0.0879849 0.7475189 0.1984190 0.6016048 0.1835551 0.5923198 -0.0776714 0.6016043 -0.1021400 0.3857604 -0.0776715 0.3764760 -0.1021400 0.3857609 0.2212206 0.5923203 0.2212207 0.3764764 0.1835551 0.6016048 0.1835551 0.5923201 0.0883635 0.3857605 0.0883636 0.6016045 0.1260292 0.3764761 0.1260292 0.3857614 -0.0776720 0.3764769 -0.0400064 0.5923209 -0.0776720 0.6016053 -0.0400064 0.3764766 -0.0813776 0.3848513 0.0073742 0.6016049 -0.0813776 0.5932302 0.0073742 0.3848517 0.1836843 0.5932306 0.1836843 0.3764770 0.1260289 0.6016053 0.1260289 0.2762149 0.1301139 0.3548851 0.1996233 0.3848521 0.0073737 0.4233652 0.1222534 0.3848519 0.0073737 0.4233649 0.1222533 0.5932307 0.0073737 0.5547177 0.1222533 0.4250977 0.4484767 0.5529842 0.4484766 0.4536810 0.3705948 0.5244009 0.3705948 0.4250974 0.5393732 0.4259151 0.5631317 0.5529838 0.5393732 0.5521660 0.5631315 0.5514380 0.3767058 0.6171534 0.3217420 0.5197854 0.3396480 0.5521652 0.2456562 0.5173106 0.3894676 0.5197854 0.3396480 0.4607695 0.3894677 0.4582945 0.3396481 0.5173110 0.6409095 0.5197859 0.6085455 0.4607699 0.6409095 0.4582951 0.6085454 0.4582956 0.7078178 0.5197864 0.7078178 0.4259155 0.5631317 0.5521665 0.5631318 0.4259159 0.4850500 0.5521669 0.4850497 0.4250981 0.4484774 0.5529847 0.4484774 0.4250985 0.5393736 0.5529850 0.5393736 0.4536817 0.4194862 0.5244015 0.4194861 0.6049194 0.1821972 0.6025258 0.1604131 0.3731609 0.1821972 0.3755545 0.1604131 0.6016044 -0.1021400 0.6049194 -0.2492558 0.3764760 -0.1021400 0.3731610 -0.2492558 0.6016046 0.1835550 0.6049197 0.0879849 0.3764763 0.1835550 0.3731612 0.0879849 0.5923200 0.2212208 0.6016045 0.1835551 0.3857605 0.2212207 0.3764761 0.1835551 0.3857612 -0.0776719 0.5923206 -0.0776719 0.3764767 -0.1021404 0.6016051 -0.1021404 0.6016048 -0.0400054 0.5923204 -0.0776711 0.3764766 -0.0400054 0.3857610 -0.0776711 0.3857616 0.0883634 0.5923211 0.0883634 0.6016055 0.1260290 0.3848519 0.4794272 0.5932307 0.4794271 0.3764772 0.3906754 0.6016055 0.3906754 0.3848521 0.0073737 0.5932310 0.0073737 0.3764774 -0.0813780 0.6016058 -0.0813780 0.4259157 0.4850493 0.5521666 0.4850495 0.4250979 0.4484769 0.5529845 0.4484768 0.5521662 0.5631317 0.4259153 0.5631319 0.5197862 0.7078179 0.4582954 0.7078178 0.4607696 0.6409097 0.5173107 0.6409097 0.4582947 0.6085456 0.5197856 0.6085456 0.4607701 0.6409097 0.4582952 0.6085456 0.4244470 0.6491109 0.4187923 0.6174648 0.4582956 0.3396476 0.5197864 0.3396475 0.4259154 0.2456560 0.5521663 0.2456557 0.4259160 0.5631318 0.5521669 0.5631318 0.4250982 0.5393733 0.5529848 0.5393733 0.1622726 -0.3321431 0.2016858 -0.0341124 0.2757581 -0.5942271 0.3755558 0.1604133 0.4890413 -0.6977323 0.6025271 0.1604132 0.7023246 -0.5942273 0.7763972 -0.0341126 0.8158103 -0.3321434 0.7520438 0.1341183 0.7466113 0.1133274 0.6049195 0.1821972 0.6025259 0.1604131 0.6025262 0.0544516 0.3755550 0.0544516 0.6049198 0.0879849 0.3731613 0.0879850 0.3764759 0.1835550 0.6016043 0.1835550 0.3731609 0.0879850 0.6049194 0.0879850 0.6016053 -0.1021405 0.6049203 -0.2492562 0.3764769 -0.1021405 0.3731618 -0.2492562 0.6016046 -0.1021396 0.3764764 -0.1021396 0.5923202 -0.0776710 0.3857609 -0.0776710 0.2847938 0.0570914 0.3857614 -0.0776720 0.2664327 0.0447376 0.3764769 -0.1021405 0.3764769 0.3906752 0.6016052 0.3906752 0.3857614 0.3662067 0.5923207 0.3662067 0.3764774 -0.0400058 0.6016058 -0.0400059 0.3857618 -0.0776714 0.5923213 -0.0776714 0.4259159 0.2456566 0.4582958 0.3396483 0.5521668 0.2456569 0.5197865 0.3396484 0.5197857 0.6085457 0.5173109 0.6409098 0.5592886 0.6174649 0.5536340 0.6491110 0.4607707 0.3894674 0.5173118 0.3894673 0.4582958 0.3396477 0.5197867 0.3396476 0.4259162 0.5631321 0.4582962 0.7078180 0.5521672 0.5631321 0.5197871 0.7078181 0.7520450 0.1341190 0.7466125 0.1133280 0.6049207 0.1821974 0.6025271 0.1604132 0.3731620 0.1821973 0.6049204 0.1821973 0.3755556 0.1604132 0.6025269 0.1604132 0.2260379 0.1341187 0.3731622 0.1821974 0.2314705 0.1133276 0.3755558 0.1604133 0.3755557 0.0544517 0.3731621 0.0879850 0.6025269 0.0544517 0.6049205 0.0879850 0.3731613 0.1821973 0.6049197 0.1821973 0.3755549 0.1604132 0.6025261 0.1604132 0.3731610 0.0879850 0.6049195 0.0879850 0.3755546 0.0544517 0.6025259 0.0544517 0.6049195 0.0879850 0.6016045 0.1835551 0.7551308 0.1032866 0.7475185 0.1984190 0.3764773 0.3293131 0.6016056 0.3293131 0.3731622 0.1821974 0.6049207 0.1821974 0.2664333 0.0447380 0.2847943 0.0570919 0.3764774 -0.1021400 0.3857618 -0.0776714 0.3764772 -0.1021399 0.3857616 -0.0776714 0.6016055 -0.1021399 0.5923210 -0.0776714 0.4607708 0.3894681 0.5173119 0.3894682 0.4582960 0.3396485 0.5197868 0.3396485 0.4607708 0.6409092 0.5173118 0.6409092 0.4582959 0.6085451 0.5197867 0.6085451 0.3764774 -0.1021400 0.6016058 -0.1021399 0.3731624 -0.2492557 0.6049207 -0.2492557 0.3764769 0.1835550 0.6016051 0.1835550 0.3731619 0.0879850 0.6049202 0.0879850</float_array>
                    <technique_common>
                        <accessor count="472" source="#ID18" stride="2">
                            <param name="S" type="float" />
                            <param name="T" type="float" />
                        </accessor>
                    </technique_common>
                </source>
                <vertices id="ID9">
                    <input semantic="POSITION" source="#ID7" />
                    <input semantic="NORMAL" source="#ID8" />
                </vertices>
                <triangles count="241" material="Material2">
                    <input offset="0" semantic="VERTEX" source="#ID9" />
                    <p>0 1 2 1 0 3 8 9 10 9 8 11 16 17 18 17 16 19 24 25 26 25 24 27 32 33 34 33 32 35 40 41 42 41 40 43 48 49 50 49 48 51 56 57 58 57 56 59 64 65 66 65 64 67 72 73 74 73 72 75 80 81 82 81 80 83 88 89 90 89 88 91 96 97 98 97 96 99 104 105 106 105 104 107 112 113 114 113 112 115 120 121 122 121 120 123 128 129 130 129 128 131 136 137 138 137 136 139 144 145 146 145 144 147 152 153 154 153 152 155 160 161 162 161 160 163 168 169 170 169 168 171 176 177 178 177 176 179 184 185 186 185 184 187 192 193 194 193 192 195 200 201 202 201 200 203 208 209 210 209 208 211 216 217 218 217 216 219 224 225 226 225 224 227 232 233 234 233 232 235 240 241 242 241 240 243 248 249 250 249 248 251 256 257 258 257 256 259 264 265 266 265 264 267 272 273 274 273 272 275 280 281 282 281 280 283 288 289 290 289 288 291 296 297 298 297 296 299 304 305 306 305 304 307 312 313 314 313 312 315 320 321 322 321 320 323 328 329 330 329 328 331 336 337 338 337 336 339 344 345 346 345 344 347 352 353 354 353 352 355 360 361 362 361 360 363 368 369 370 369 368 371 376 377 378 377 376 379 384 385 386 385 384 387 392 393 394 393 392 395 400 401 402 401 400 403 408 409 410 409 408 411 416 417 418 417 416 419 424 425 426 425 424 427 432 433 434 433 432 435 440 441 442 441 440 443 448 449 450 449 448 451 456 457 458 457 456 459 464 465 466 465 464 467 472 473 474 473 472 475 480 481 482 481 480 483 488 489 490 489 488 491 496 497 498 497 496 499 504 505 506 505 504 507 512 513 514 513 512 515 520 521 522 521 520 523 528 529 530 529 528 531 536 537 538 537 536 539 544 545 546 545 544 547 552 553 554 553 552 555 560 561 562 561 560 563 568 569 570 569 568 571 576 577 578 577 576 579 584 585 586 585 584 587 592 593 594 593 592 595 600 601 602 601 600 603 608 609 610 609 608 611 616 617 618 617 616 619 624 625 626 625 624 627 632 633 634 633 632 635 640 641 642 641 640 643 648 649 650 649 648 651 656 657 658 657 656 659 664 665 666 665 664 667 672 673 674 673 672 675 680 681 682 681 680 683 688 689 690 689 688 691 696 697 698 697 696 699 704 705 706 705 704 707 712 713 714 713 712 715 720 721 722 721 720 723 728 729 730 729 728 731 729 731 732 732 731 733 732 733 734 734 733 735 734 735 736 746 747 748 747 746 749 754 755 756 755 754 757 762 763 764 763 762 765 770 771 772 771 770 773 778 779 780 779 778 781 786 787 788 787 786 789 794 795 796 795 794 797 802 803 804 803 802 805 810 811 812 811 810 813 818 819 820 819 818 821 826 827 828 827 826 829 834 835 836 835 834 837 842 843 844 843 842 845 850 851 852 851 850 853 858 859 860 859 858 861 866 867 868 867 866 869 874 875 876 875 874 877 882 883 884 883 882 885 890 891 892 891 890 893 898 899 900 899 898 901 906 907 908 907 906 909 914 915 916 915 914 917 922 923 924 923 922 925 930 931 932 931 930 933 938 939 940 939 938 941 946 947 948 947 946 949</p>
                </triangles>
                <triangles count="241" material="Material3">
                    <input offset="0" semantic="VERTEX" source="#ID9" />
                    <input offset="1" semantic="TEXCOORD" source="#ID15" />
                    <p>4 0 5 1 6 2 7 3 6 2 5 1 12 1 13 4 14 5 15 6 14 5 13 4 20 7 21 8 22 9 23 1 22 9 21 8 28 10 29 11 30 12 31 13 30 12 29 11 36 14 37 15 38 16 39 17 38 16 37 15 44 18 45 19 46 20 47 21 46 20 45 19 52 22 53 23 54 24 55 25 54 24 53 23 60 26 61 27 62 28 63 29 62 28 61 27 68 30 69 31 70 32 71 33 70 32 69 31 76 34 77 35 78 36 79 37 78 36 77 35 84 38 85 39 86 40 87 41 86 40 85 39 92 42 93 43 94 44 95 45 94 44 93 43 100 46 101 47 102 48 103 49 102 48 101 47 108 50 109 51 110 52 111 53 110 52 109 51 116 54 117 55 118 56 119 57 118 56 117 55 124 58 125 59 126 60 127 61 126 60 125 59 132 62 133 63 134 64 135 65 134 64 133 63 140 29 141 66 142 24 143 67 142 24 141 66 148 68 149 69 150 70 151 71 150 70 149 69 156 72 157 73 158 74 159 75 158 74 157 73 164 76 165 77 166 78 167 79 166 78 165 77 172 80 173 81 174 82 175 83 174 82 173 81 180 84 181 85 182 86 183 87 182 86 181 85 188 88 189 89 190 90 191 91 190 90 189 89 196 92 197 93 198 94 199 95 198 94 197 93 204 96 205 97 206 98 207 99 206 98 205 97 212 100 213 101 214 102 215 103 214 102 213 101 220 104 221 105 222 106 223 107 222 106 221 105 228 108 229 109 230 110 231 111 230 110 229 109 236 112 237 113 238 114 239 115 238 114 237 113 244 116 245 117 246 118 247 119 246 118 245 117 252 120 253 121 254 122 255 123 254 122 253 121 260 124 261 125 262 126 263 127 262 126 261 125 268 128 269 129 270 130 271 131 270 130 269 129 276 132 277 133 278 134 279 135 278 134 277 133 284 136 285 137 286 138 287 139 286 138 285 137 292 140 293 141 294 142 295 143 294 142 293 141 300 144 301 145 302 146 303 147 302 146 301 145 308 148 309 149 310 150 311 151 310 150 309 149 316 152 317 153 318 154 319 155 318 154 317 153 324 156 325 157 326 158 327 159 326 158 325 157 332 160 333 161 334 162 335 163 334 162 333 161 340 164 341 165 342 166 343 167 342 166 341 165 348 168 349 169 350 170 351 171 350 170 349 169 356 172 357 173 358 174 359 175 358 174 357 173 364 176 365 177 366 178 367 179 366 178 365 177 372 180 373 181 374 182 375 183 374 182 373 181 380 184 381 185 382 186 383 187 382 186 381 185 388 188 389 189 390 190 391 191 390 190 389 189 396 192 397 193 398 194 399 195 398 194 397 193 404 196 405 197 406 198 407 199 406 198 405 197 412 200 413 201 414 202 415 203 414 202 413 201 420 204 421 205 422 206 423 207 422 206 421 205 428 208 429 209 430 210 431 211 430 210 429 209 436 212 437 213 438 214 439 215 438 214 437 213 444 216 445 217 446 218 447 219 446 218 445 217 452 220 453 221 454 222 455 223 454 222 453 221 460 224 461 225 462 226 463 227 462 226 461 225 468 228 469 229 470 230 471 231 470 230 469 229 476 232 477 233 478 234 479 235 478 234 477 233 484 236 485 237 486 238 487 239 486 238 485 237 492 240 493 241 494 242 495 243 494 242 493 241 500 244 501 245 502 246 503 247 502 246 501 245 508 248 509 249 510 250 511 251 510 250 509 249 516 252 517 253 518 254 519 255 518 254 517 253 524 256 525 257 526 258 527 259 526 258 525 257 532 260 533 261 534 262 535 263 534 262 533 261 540 264 541 265 542 266 543 267 542 266 541 265 548 268 549 269 550 270 551 271 550 270 549 269 556 272 557 273 558 274 559 275 558 274 557 273 564 276 565 277 566 278 567 279 566 278 565 277 572 280 573 281 574 282 575 283 574 282 573 281 580 284 581 285 582 286 583 287 582 286 581 285 588 288 589 289 590 290 591 291 590 290 589 289 596 292 597 293 598 294 599 295 598 294 597 293 604 296 605 297 606 298 607 299 606 298 605 297 612 300 613 301 614 302 615 303 614 302 613 301 620 304 621 305 622 306 623 307 622 306 621 305 628 308 629 309 630 310 631 311 630 310 629 309 636 312 637 313 638 314 639 315 638 314 637 313 644 316 645 317 646 318 647 319 646 318 645 317 652 320 653 321 654 322 655 323 654 322 653 321 660 324 661 258 662 325 663 326 662 325 661 258 668 327 669 328 670 329 671 330 670 329 669 328 676 331 677 332 678 333 679 334 678 333 677 332 684 335 685 336 686 337 687 338 686 337 685 336 692 339 693 340 694 341 695 342 694 341 693 340 700 343 701 344 702 345 703 346 702 345 701 344 708 347 709 348 710 349 711 350 710 349 709 348 716 351 717 352 718 353 719 354 718 353 717 352 724 355 725 356 726 357 727 358 726 357 725 356 737 359 738 360 739 361 738 360 740 362 739 361 739 361 740 362 741 363 740 362 742 364 741 363 741 363 742 364 743 365 742 364 744 366 743 365 745 367 743 365 744 366 750 368 751 369 752 370 753 371 752 370 751 369 758 372 759 373 760 374 761 375 760 374 759 373 766 376 767 377 768 378 769 379 768 378 767 377 774 380 775 381 776 382 777 383 776 382 775 381 782 384 783 385 784 386 785 387 784 386 783 385 790 388 791 389 792 390 793 391 792 390 791 389 798 392 799 393 800 394 801 395 800 394 799 393 806 396 807 397 808 398 809 399 808 398 807 397 814 400 815 401 816 402 817 403 816 402 815 401 822 404 823 405 824 406 825 407 824 406 823 405 830 408 831 409 832 410 833 411 832 410 831 409 838 412 839 413 840 414 841 415 840 414 839 413 846 416 847 417 848 418 849 419 848 418 847 417 854 420 855 421 856 422 857 423 856 422 855 421 862 424 863 425 864 426 865 427 864 426 863 425 870 428 871 429 872 430 873 431 872 430 871 429 878 432 879 433 880 434 881 435 880 434 879 433 886 436 887 437 888 438 889 439 888 438 887 437 894 440 895 441 896 442 897 443 896 442 895 441 902 444 903 445 904 446 905 447 904 446 903 445 910 448 911 449 912 450 913 451 912 450 911 449 918 452 919 453 920 454 921 455 920 454 919 453 926 456 927 457 928 458 929 459 928 458 927 457 934 460 935 461 936 462 937 463 936 462 935 461 942 464 943 465 944 466 945 467 944 466 943 465 950 468 951 469 952 470 953 471 952 470 951 469</p>
                </triangles>
            </mesh>
        </geometry>
        <geometry id="ID19">
            <mesh>
                <source id="ID20">
                    <float_array id="ID24" count="360">23.6788134 30.7551118 55.5940564 19.8356967 18.9270050 63.2805126 9.7740778 26.2371118 55.5940562 9.7740778 26.2371118 55.5940562 19.8356967 18.9270050 63.2805126 23.6788134 30.7551118 55.5940564 23.6788134 30.7551118 55.5940564 9.7740778 26.2371118 55.5940562 15.9925799 30.7551123 43.1570486 15.9925799 30.7551123 43.1570486 9.7740778 26.2371118 55.5940562 23.6788134 30.7551118 55.5940564 32.2726267 18.9270050 55.5940559 19.8356967 18.9270050 63.2805126 23.6788134 30.7551118 55.5940564 23.6788134 30.7551118 55.5940564 19.8356967 18.9270050 63.2805126 32.2726267 18.9270050 55.5940559 19.8356967 18.9270050 63.2805126 9.7740778 11.6168992 55.5940556 9.7740778 26.2371118 55.5940562 9.7740778 26.2371118 55.5940562 9.7740778 11.6168992 55.5940556 19.8356967 18.9270050 63.2805126 15.9925799 30.7551123 43.1570486 9.7740778 26.2371118 55.5940562 7.3987670 18.9270050 43.1570481 7.3987670 18.9270050 43.1570481 9.7740778 26.2371118 55.5940562 15.9925799 30.7551123 43.1570486 23.6788134 30.7551118 55.5940564 15.9925799 30.7551123 43.1570486 29.8973159 26.2371123 43.1570484 29.8973159 26.2371123 43.1570484 15.9925799 30.7551123 43.1570486 23.6788134 30.7551118 55.5940564 23.6788134 30.7551118 55.5940564 29.8973159 26.2371123 43.1570484 32.2726267 18.9270050 55.5940559 32.2726267 18.9270050 55.5940559 29.8973159 26.2371123 43.1570484 23.6788134 30.7551118 55.5940564 32.2726267 18.9270050 55.5940559 23.6788134 7.0988992 55.5940554 19.8356967 18.9270050 63.2805126 19.8356967 18.9270050 63.2805126 23.6788134 7.0988992 55.5940554 32.2726267 18.9270050 55.5940559 9.7740778 26.2371118 55.5940562 9.7740778 11.6168992 55.5940556 7.3987670 18.9270050 43.1570481 7.3987670 18.9270050 43.1570481 9.7740778 11.6168992 55.5940556 9.7740778 26.2371118 55.5940562 23.6788134 7.0988992 55.5940554 9.7740778 11.6168992 55.5940556 19.8356967 18.9270050 63.2805126 19.8356967 18.9270050 63.2805126 9.7740778 11.6168992 55.5940556 23.6788134 7.0988992 55.5940554 19.8356967 18.9270050 35.4706189 15.9925799 30.7551123 43.1570486 7.3987670 18.9270050 43.1570481 7.3987670 18.9270050 43.1570481 15.9925799 30.7551123 43.1570486 19.8356967 18.9270050 35.4706189 29.8973159 26.2371123 43.1570484 15.9925799 30.7551123 43.1570486 19.8356967 18.9270050 35.4706189 19.8356967 18.9270050 35.4706189 15.9925799 30.7551123 43.1570486 29.8973159 26.2371123 43.1570484 29.8973159 26.2371123 43.1570484 29.8973159 11.6168958 43.1570477 32.2726267 18.9270050 55.5940559 32.2726267 18.9270050 55.5940559 29.8973159 11.6168958 43.1570477 29.8973159 26.2371123 43.1570484 32.2726267 18.9270050 55.5940559 29.8973159 11.6168958 43.1570477 23.6788134 7.0988992 55.5940554 23.6788134 7.0988992 55.5940554 29.8973159 11.6168958 43.1570477 32.2726267 18.9270050 55.5940559 7.3987670 18.9270050 43.1570481 9.7740778 11.6168992 55.5940556 15.9925799 7.0988998 43.1570475 15.9925799 7.0988998 43.1570475 9.7740778 11.6168992 55.5940556 7.3987670 18.9270050 43.1570481 9.7740778 11.6168992 55.5940556 23.6788134 7.0988992 55.5940554 15.9925799 7.0988998 43.1570475 15.9925799 7.0988998 43.1570475 23.6788134 7.0988992 55.5940554 9.7740778 11.6168992 55.5940556 19.8356967 18.9270050 35.4706189 7.3987670 18.9270050 43.1570481 15.9925799 7.0988998 43.1570475 15.9925799 7.0988998 43.1570475 7.3987670 18.9270050 43.1570481 19.8356967 18.9270050 35.4706189 29.8973159 26.2371123 43.1570484 19.8356967 18.9270050 35.4706189 29.8973159 11.6168958 43.1570477 29.8973159 11.6168958 43.1570477 19.8356967 18.9270050 35.4706189 29.8973159 26.2371123 43.1570484 23.6788134 7.0988992 55.5940554 29.8973159 11.6168958 43.1570477 15.9925799 7.0988998 43.1570475 15.9925799 7.0988998 43.1570475 29.8973159 11.6168958 43.1570477 23.6788134 7.0988992 55.5940554 29.8973159 11.6168958 43.1570477 19.8356967 18.9270050 35.4706189 15.9925799 7.0988998 43.1570475 15.9925799 7.0988998 43.1570475 19.8356967 18.9270050 35.4706189 29.8973159 11.6168958 43.1570477</float_array>
                    <technique_common>
                        <accessor count="120" source="#ID24" stride="3">
                            <param name="X" type="float" />
                            <param name="Y" type="float" />
                            <param name="Z" type="float" />
                        </accessor>
                    </technique_common>
                </source>
                <source id="ID21">
                    <float_array id="ID25" count="360">0.1875969 -0.5773540 -0.7946507 0.1875969 -0.5773540 -0.7946507 0.1875969 -0.5773540 -0.7946507 -0.1875969 0.5773540 0.7946507 -0.1875969 0.5773540 0.7946507 -0.1875969 0.5773540 0.7946507 0.3035359 -0.9341714 -0.1875892 0.3035359 -0.9341714 -0.1875892 0.3035359 -0.9341714 -0.1875892 -0.3035359 0.9341714 0.1875892 -0.3035359 0.9341714 0.1875892 -0.3035359 0.9341714 0.1875892 -0.4911225 -0.3568293 -0.7946518 -0.4911225 -0.3568293 -0.7946518 -0.4911225 -0.3568293 -0.7946518 0.4911225 0.3568293 0.7946518 0.4911225 0.3568293 0.7946518 0.4911225 0.3568293 0.7946518 0.6070652 0.0000000 -0.7946520 0.6070652 0.0000000 -0.7946520 0.6070652 0.0000000 -0.7946520 -0.6070652 -0.0000000 0.7946520 -0.6070652 -0.0000000 0.7946520 -0.6070652 -0.0000000 0.7946520 0.7946493 -0.5773593 0.1875868 0.7946493 -0.5773593 0.1875868 0.7946493 -0.5773593 0.1875868 -0.7946493 0.5773593 -0.1875868 -0.7946493 0.5773593 -0.1875868 -0.7946493 0.5773593 -0.1875868 -0.3035359 -0.9341714 0.1875891 -0.3035359 -0.9341714 0.1875891 -0.3035359 -0.9341714 0.1875891 0.3035359 0.9341714 -0.1875891 0.3035359 0.9341714 -0.1875891 0.3035359 0.9341714 -0.1875891 -0.7946492 -0.5773593 -0.1875869 -0.7946492 -0.5773593 -0.1875869 -0.7946492 -0.5773593 -0.1875869 0.7946492 0.5773593 0.1875869 0.7946492 0.5773593 0.1875869 0.7946492 0.5773593 0.1875869 -0.4911225 0.3568294 -0.7946518 -0.4911225 0.3568294 -0.7946518 -0.4911225 0.3568294 -0.7946518 0.4911225 -0.3568294 0.7946518 0.4911225 -0.3568294 0.7946518 0.4911225 -0.3568294 0.7946518 0.9822462 0.0000000 -0.1875966 0.9822462 0.0000000 -0.1875966 0.9822462 0.0000000 -0.1875966 -0.9822462 -0.0000000 0.1875966 -0.9822462 -0.0000000 0.1875966 -0.9822462 -0.0000000 0.1875966 0.1875969 0.5773541 -0.7946507 0.1875969 0.5773541 -0.7946507 0.1875969 0.5773541 -0.7946507 -0.1875969 -0.5773541 0.7946507 -0.1875969 -0.5773541 0.7946507 -0.1875969 -0.5773541 0.7946507 0.4911214 -0.3568285 0.7946528 0.4911214 -0.3568285 0.7946528 0.4911214 -0.3568285 0.7946528 -0.4911214 0.3568285 -0.7946528 -0.4911214 0.3568285 -0.7946528 -0.4911214 0.3568285 -0.7946528 -0.1875965 -0.5773527 0.7946518 -0.1875965 -0.5773527 0.7946518 -0.1875965 -0.5773527 0.7946518 0.1875965 0.5773527 -0.7946518 0.1875965 0.5773527 -0.7946518 0.1875965 0.5773527 -0.7946518 -0.9822462 -0.0000000 0.1875966 -0.9822462 -0.0000000 0.1875966 -0.9822462 -0.0000000 0.1875966 0.9822462 0.0000000 -0.1875966 0.9822462 0.0000000 -0.1875966 0.9822462 0.0000000 -0.1875966 -0.7946492 0.5773593 -0.1875870 -0.7946492 0.5773593 -0.1875870 -0.7946492 0.5773593 -0.1875870 0.7946492 -0.5773593 0.1875870 0.7946492 -0.5773593 0.1875870 0.7946492 -0.5773593 0.1875870 0.7946492 0.5773593 0.1875868 0.7946492 0.5773593 0.1875868 0.7946492 0.5773593 0.1875868 -0.7946492 -0.5773593 -0.1875868 -0.7946492 -0.5773593 -0.1875868 -0.7946492 -0.5773593 -0.1875868 0.3035359 0.9341714 -0.1875891 0.3035359 0.9341714 -0.1875891 0.3035359 0.9341714 -0.1875891 -0.3035359 -0.9341714 0.1875891 -0.3035359 -0.9341714 0.1875891 -0.3035359 -0.9341714 0.1875891 0.4911214 0.3568285 0.7946528 0.4911214 0.3568285 0.7946528 0.4911214 0.3568285 0.7946528 -0.4911214 -0.3568285 -0.7946528 -0.4911214 -0.3568285 -0.7946528 -0.4911214 -0.3568285 -0.7946528 -0.6070638 -0.0000000 0.7946531 -0.6070638 -0.0000000 0.7946531 -0.6070638 -0.0000000 0.7946531 0.6070638 0.0000000 -0.7946531 0.6070638 0.0000000 -0.7946531 0.6070638 0.0000000 -0.7946531 -0.3035357 0.9341715 0.1875891 -0.3035357 0.9341715 0.1875891 -0.3035357 0.9341715 0.1875891 0.3035357 -0.9341715 -0.1875891 0.3035357 -0.9341715 -0.1875891 0.3035357 -0.9341715 -0.1875891 -0.1875963 0.5773527 0.7946518 -0.1875963 0.5773527 0.7946518 -0.1875963 0.5773527 0.7946518 0.1875963 -0.5773527 -0.7946518 0.1875963 -0.5773527 -0.7946518 0.1875963 -0.5773527 -0.7946518</float_array>
                    <technique_common>
                        <accessor count="120" source="#ID25" stride="3">
                            <param name="X" type="float" />
                            <param name="Y" type="float" />
                            <param name="Z" type="float" />
                        </accessor>
                    </technique_common>
                </source>
                <source id="ID23">
                    <float_array id="ID26" count="118">0.3660739 0.4650283 0.4890400 0.6495081 0.6120059 0.4650283 0.6120052 0.7349299 0.4890368 0.9194120 0.6703426 0.9691616 0.6120060 0.4650283 0.4890401 0.6495083 0.6703477 0.6992579 0.3660740 0.4650284 0.3077334 0.6992542 0.4890401 0.6495083 0.3660710 0.7349297 0.4890367 0.9194118 0.6120051 0.7349297 0.4890441 0.6734387 0.3077383 0.6236891 0.3660757 0.8579208 0.6120096 0.8579204 0.4890439 0.6734384 0.3660755 0.8579204 0.4890413 0.6495079 0.3660754 0.4650281 0.3077337 0.6992576 0.3660711 0.7349299 0.3077333 0.9691613 0.4890368 0.9194120 0.4890411 0.6495076 0.6120072 0.4650278 0.3660753 0.4650278 0.3660711 0.7349299 0.6120052 0.7349299 0.4890401 0.4509506 0.4890402 0.4035296 0.3660743 0.5880092 0.6120063 0.5880092 0.6120098 0.8579207 0.6703477 0.6236894 0.4890436 0.9194120 0.3660754 0.7349298 0.3077363 0.9691616 0.3660758 0.7349297 0.4890442 0.9194117 0.6120099 0.7349297 0.6120073 0.7349298 0.4890436 0.9194120 0.6703482 0.9691604 0.3660759 0.7349300 0.6120100 0.7349299 0.4890409 0.4509507 0.6703468 0.3537833 0.4890403 0.4035297 0.6120064 0.5880093 0.6120070 0.7349294 0.3660752 0.7349294 0.4890433 0.9194115 0.6120073 0.7349298 0.4890415 0.4509512 0.3660754 0.7349298</float_array>
                    <technique_common>
                        <accessor count="59" source="#ID26" stride="2">
                            <param name="S" type="float" />
                            <param name="T" type="float" />
                        </accessor>
                    </technique_common>
                </source>
                <vertices id="ID22">
                    <input semantic="POSITION" source="#ID20" />
                    <input semantic="NORMAL" source="#ID21" />
                </vertices>
                <triangles count="20" material="Material2">
                    <input offset="0" semantic="VERTEX" source="#ID22" />
                    <p>0 1 2 6 7 8 12 13 14 18 19 20 24 25 26 30 31 32 36 37 38 42 43 44 48 49 50 54 55 56 60 61 62 66 67 68 72 73 74 78 79 80 84 85 86 90 91 92 96 97 98 102 103 104 108 109 110 114 115 116</p>
                </triangles>
                <triangles count="20" material="Material3">
                    <input offset="0" semantic="VERTEX" source="#ID22" />
                    <input offset="1" semantic="TEXCOORD" source="#ID23" />
                    <p>3 0 4 1 5 2 9 3 10 4 11 5 15 6 16 7 17 8 21 9 22 10 23 11 27 12 28 13 29 14 33 15 34 16 35 17 39 18 40 19 41 20 45 21 46 22 47 23 51 24 52 25 53 26 57 27 58 28 59 29 63 30 64 31 65 32 69 33 70 34 71 35 75 36 76 37 77 15 81 38 82 39 83 40 87 41 88 42 89 43 93 44 94 45 95 46 99 47 100 48 101 49 105 50 106 51 107 52 111 53 112 54 113 55 117 56 118 57 119 58</p>
                </triangles>
            </mesh>
        </geometry>
    </library_geometries>
    <library_materials>
        <material id="ID5" name="__auto_">
            <instance_effect url="#ID6" />
        </material>
        <material id="ID10" name="Stock_Wood_texture_1_by_Camo_StockBLANC">
            <instance_effect url="#ID11" />
        </material>
    </library_materials>
    <library_effects>
        <effect id="ID6">
            <profile_COMMON>
                <technique sid="COMMON">
                    <lambert>
                        <diffuse>
                            <color>0.6392157 0.6392157 0.6392157 1.0000000</color>
                        </diffuse>
                    </lambert>
                </technique>
            </profile_COMMON>
        </effect>
        <effect id="ID11">
            <profile_COMMON>
                <newparam sid="ID13">
                    <surface type="2D">
                        <init_from>ID12</init_from>
                    </surface>
                </newparam>
                <newparam sid="ID14">
                    <sampler2D>
                        <source>ID13</source>
                    </sampler2D>
                </newparam>
                <technique sid="COMMON">
                    <lambert>
                        <diffuse>
                            <texture texture="ID14" texcoord="UVSET0" />
                        </diffuse>
                    </lambert>
                </technique>
            </profile_COMMON>
        </effect>
    </library_effects>
    <library_images>
        <image id="ID12">
            <init_from>pawn_white/Stock_Wood_texture_1_by_Camo_StockBLANC.jpg</init_from>
        </image>
    </library_images>
    <scene>
        <instance_visual_scene url="#ID2" />
    </scene>
</COLLADA>
